(module "3013" (layer F.Cu)
  (descr "3013-1")
  (tags "Integrated Circuit")
  (fp_text reference IC** (at 8.890 -6.045) (layer F.SilkS)
    (effects (font (size 1.27 1.27) (thickness 0.254)))
  )
  (fp_text user %R (at 8.890 -6.045) (layer F.Fab)
    (effects (font (size 1.27 1.27) (thickness 0.254)))
  )
  (fp_text value "3013" (at 8.890 -6.045) (layer F.SilkS) hide
    (effects (font (size 1.27 1.27) (thickness 0.254)))
  )
  (fp_line (start -2.54 -15.24) (end 20.32 -15.24) (layer F.Fab) (width 0.2))
  (fp_line (start 20.32 -15.24) (end 20.32 2.54) (layer F.Fab) (width 0.2))
  (fp_line (start 20.32 2.54) (end -2.54 2.54) (layer F.Fab) (width 0.2))
  (fp_line (start -2.54 2.54) (end -2.54 -15.24) (layer F.Fab) (width 0.2))
  (fp_line (start -2.54 -15.24) (end 20.32 -15.24) (layer F.SilkS) (width 0.1))
  (fp_line (start 20.32 -15.24) (end 20.32 2.54) (layer F.SilkS) (width 0.1))
  (fp_line (start 20.32 2.54) (end -2.54 2.54) (layer F.SilkS) (width 0.1))
  (fp_line (start -2.54 2.54) (end -2.54 -15.24) (layer F.SilkS) (width 0.1))
  (fp_line (start -3.54 -16.24) (end 21.32 -16.24) (layer F.CrtYd) (width 0.1))
  (fp_line (start 21.32 -16.24) (end 21.32 4.15) (layer F.CrtYd) (width 0.1))
  (fp_line (start 21.32 4.15) (end -3.54 4.15) (layer F.CrtYd) (width 0.1))
  (fp_line (start -3.54 4.15) (end -3.54 -16.24) (layer F.CrtYd) (width 0.1))
  (fp_line (start -0.11 3.05) (end -0.11 3.05) (layer F.SilkS) (width 0.2))
  (fp_line (start 0.09 3.05) (end 0.09 3.05) (layer F.SilkS) (width 0.2))
  (fp_arc (start -0.01 3.05) (end -0.110 3.05) (angle 180) (layer F.SilkS) (width 0.2))
  (fp_arc (start -0.01 3.05) (end 0.090 3.05) (angle 180) (layer F.SilkS) (width 0.2))
  (pad 1 thru_hole circle (at 0.000 -0) (size 1.665 1.665) (drill 1.11) (layers *.Cu *.Mask))
  (pad 2 thru_hole circle (at 2.540 -0) (size 1.665 1.665) (drill 1.11) (layers *.Cu *.Mask))
  (pad 3 thru_hole circle (at 5.080 -0) (size 1.665 1.665) (drill 1.11) (layers *.Cu *.Mask))
  (pad 4 thru_hole circle (at 7.620 -0) (size 1.665 1.665) (drill 1.11) (layers *.Cu *.Mask))
  (pad 5 thru_hole circle (at 10.160 -0) (size 1.665 1.665) (drill 1.11) (layers *.Cu *.Mask))
  (pad 6 thru_hole circle (at 12.700 -0) (size 1.665 1.665) (drill 1.11) (layers *.Cu *.Mask))
  (pad 7 thru_hole circle (at 15.240 -0) (size 1.665 1.665) (drill 1.11) (layers *.Cu *.Mask))
  (pad 8 thru_hole circle (at 17.780 -0) (size 1.665 1.665) (drill 1.11) (layers *.Cu *.Mask))
  (pad MH1 thru_hole circle (at 17.780 -12.7) (size 3.810 3.810) (drill 2.54) (layers *.Cu *.Mask))
  (pad MH2 thru_hole circle (at 0.000 -12.7) (size 3.810 3.810) (drill 2.54) (layers *.Cu *.Mask))
  (model 3013.stp
    (at (xyz 0 0 0))
    (scale (xyz 1 1 1))
    (rotate (xyz 0 0 0))
  )
)
