(module "21787106" (layer F.Cu)
  (descr "2178710-6-2")
  (tags "Connector")
  (fp_text reference J** (at 3.425 -1.27) (layer F.SilkS)
    (effects (font (size 1.27 1.27) (thickness 0.254)))
  )
  (fp_text user %R (at 3.425 -1.27) (layer F.Fab)
    (effects (font (size 1.27 1.27) (thickness 0.254)))
  )
  (fp_text value "21787106" (at 3.425 -1.27) (layer F.SilkS) hide
    (effects (font (size 1.27 1.27) (thickness 0.254)))
  )
  (fp_line (start -1.675 -3.87) (end 8.025 -3.87) (layer F.Fab) (width 0.2))
  (fp_line (start 8.025 -3.87) (end 8.025 1.33) (layer F.Fab) (width 0.2))
  (fp_line (start 8.025 1.33) (end -1.675 1.33) (layer F.Fab) (width 0.2))
  (fp_line (start -1.675 1.33) (end -1.675 -3.87) (layer F.Fab) (width 0.2))
  (fp_line (start -2.675 -4.87) (end 9.525 -4.87) (layer F.CrtYd) (width 0.1))
  (fp_line (start 9.525 -4.87) (end 9.525 2.33) (layer F.CrtYd) (width 0.1))
  (fp_line (start 9.525 2.33) (end -2.675 2.33) (layer F.CrtYd) (width 0.1))
  (fp_line (start -2.675 2.33) (end -2.675 -4.87) (layer F.CrtYd) (width 0.1))
  (fp_line (start 8.025 0.23) (end 8.025 1.23) (layer F.SilkS) (width 0.1))
  (fp_line (start 8.025 1.23) (end 8.025 1.33) (layer F.SilkS) (width 0.1))
  (fp_line (start 8.025 1.33) (end -1.675 1.33) (layer F.SilkS) (width 0.1))
  (fp_line (start -1.675 1.33) (end -1.675 -3.87) (layer F.SilkS) (width 0.1))
  (fp_line (start -1.675 -3.87) (end 8.025 -3.87) (layer F.SilkS) (width 0.1))
  (fp_line (start 8.025 -3.87) (end 8.025 -1.77) (layer F.SilkS) (width 0.1))
  (pad 1 thru_hole circle (at 0.000 -0) (size 1.381 1.381) (drill 0.85) (layers *.Cu *.Mask))
  (pad 2 thru_hole circle (at 1.270 -2.54) (size 1.381 1.381) (drill 0.85) (layers *.Cu *.Mask))
  (pad 3 thru_hole circle (at 2.540 -0) (size 1.381 1.381) (drill 0.85) (layers *.Cu *.Mask))
  (pad 4 thru_hole circle (at 3.810 -2.54) (size 1.381 1.381) (drill 0.85) (layers *.Cu *.Mask))
  (pad 5 thru_hole circle (at 5.080 -0) (size 1.381 1.381) (drill 0.85) (layers *.Cu *.Mask))
  (pad 6 thru_hole circle (at 6.350 -2.54) (size 1.381 1.381) (drill 0.85) (layers *.Cu *.Mask))
  (pad MH1 np_thru_hole circle (at 7.750 -0.74) (size 1.55 0) (drill 1.55) (layers *.Cu *.Mask))
  (model 2178710-6.stp
    (at (xyz 0.12440945219806 0.049999999249075 0.15944882640688))
    (scale (xyz 1 1 1))
    (rotate (xyz 0 0 0))
  )
)
