(module SW_B3F-1000_OMR (layer F.Cu)
  (fp_text reference REF** (at 3.250001 2.250001) (layer F.SilkS)
    (effects (font (size 1 1) (thickness .15)))
  )
  (fp_text value SW_B3F-1000_OMR (at 3.250001 2.250001) (layer F.SilkS)
    (effects (font (size 1 1) (thickness .15)))
  )
  (fp_text user "Copyright 2021 Accelerated Designs. All rights reserved." (at 0 0) (layer Cmts.User)
    (effects (font (size .127 .127) (thickness .002)))
  )
  (fp_text user "*" (at 0 0) (layer F.SilkS)
    (effects (font (size 1 1) (thickness .15)))
  )
  (fp_text user "*" (at 0 0) (layer F.Fab)
    (effects (font (size 1 1) (thickness .15)))
  )
  (fp_line (start .250001 .5) (end .250001 -.5) (layer F.Fab) (width .1))
  (fp_line (start .250001 -.5) (end -.499999 -.5) (layer F.Fab) (width .1))
  (fp_line (start -.499999 -.5) (end -.499999 .5) (layer F.Fab) (width .1))
  (fp_line (start -.499999 .5) (end .250001 .5) (layer F.Fab) (width .1))
  (fp_line (start .250001 5.000001) (end .250001 4.000001) (layer F.Fab) (width .1))
  (fp_line (start .250001 4.000001) (end -.499999 4.000001) (layer F.Fab) (width .1))
  (fp_line (start -.499999 4.000001) (end -.499999 5.000001) (layer F.Fab) (width .1))
  (fp_line (start -.499999 5.000001) (end .250001 5.000001) (layer F.Fab) (width .1))
  (fp_line (start 6.250001 4.000001) (end 6.250001 5.000001) (layer F.Fab) (width .1))
  (fp_line (start 6.250001 5.000001) (end 7.000001 5.000001) (layer F.Fab) (width .1))
  (fp_line (start 7.000001 5.000001) (end 7.000001 4.000001) (layer F.Fab) (width .1))
  (fp_line (start 7.000001 4.000001) (end 6.250001 4.000001) (layer F.Fab) (width .1))
  (fp_line (start 6.250001 -.5) (end 6.250001 .5) (layer F.Fab) (width .1))
  (fp_line (start 6.250001 .5) (end 7.000001 .5) (layer F.Fab) (width .1))
  (fp_line (start 7.000001 .5) (end 7.000001 -.5) (layer F.Fab) (width .1))
  (fp_line (start 7.000001 -.5) (end 6.250001 -.5) (layer F.Fab) (width .1))
  (fp_line (start .641772 5.377002) (end 5.85823 5.377002) (layer F.SilkS) (width .12))
  (fp_line (start 6.377003 3.420245) (end 6.377003 1.079756) (layer F.SilkS) (width .12))
  (fp_line (start 5.85823 -.877001) (end .641772 -.877001) (layer F.SilkS) (width .12))
  (fp_line (start .122999 1.079756) (end .122999 3.420245) (layer F.SilkS) (width .12))
  (fp_line (start .249999 5.250002) (end 6.250003 5.250002) (layer F.Fab) (width .1))
  (fp_line (start 6.250003 5.250002) (end 6.250003 -.750001) (layer F.Fab) (width .1))
  (fp_line (start 6.250003 -.750001) (end .249999 -.750001) (layer F.Fab) (width .1))
  (fp_line (start .249999 -.750001) (end .249999 5.250002) (layer F.Fab) (width .1))
  (fp_line (start -1.007998 5.508) (end -1.007998 -1.007999) (layer F.CrtYd) (width .05))
  (fp_line (start -1.007998 -1.007999) (end -.003999 -1.007999) (layer F.CrtYd) (width .05))
  (fp_line (start -.003999 -1.007999) (end -.003999 -1.004) (layer F.CrtYd) (width .05))
  (fp_line (start -.003999 -1.004) (end 6.504001 -1.004) (layer F.CrtYd) (width .05))
  (fp_line (start 6.504001 -1.004) (end 6.504001 -1.007999) (layer F.CrtYd) (width .05))
  (fp_line (start 6.504001 -1.007999) (end 7.508 -1.007999) (layer F.CrtYd) (width .05))
  (fp_line (start 7.508 -1.007999) (end 7.508 5.508) (layer F.CrtYd) (width .05))
  (fp_line (start 7.508 5.508) (end 6.504001 5.508) (layer F.CrtYd) (width .05))
  (fp_line (start 6.504001 5.508) (end 6.504001 5.504001) (layer F.CrtYd) (width .05))
  (fp_line (start 6.504001 5.504001) (end -.003999 5.504001) (layer F.CrtYd) (width .05))
  (fp_line (start -.003999 5.504001) (end -.003999 5.508) (layer F.CrtYd) (width .05))
  (fp_line (start -.003999 5.508) (end -1.007998 5.508) (layer F.CrtYd) (width .05))
  (fp_circle (center 1.27 0) (end 1.397 0) (layer F.Fab) (width .1))
  (fp_circle (center 0 -2.54) (end .127 -2.54) (layer F.SilkS) (width .12))
  (fp_circle (center 3.250001 2.250001) (end 5.000001 2.250001) (layer F.Fab) (width .1))
  (fp_circle (center 3.250001 2.250001) (end 5.000001 2.250001) (layer F.Fab) (width .1))
  (fp_circle (center 0 -2.54) (end .127 -2.54) (layer B.SilkS) (width .12))
  (pad 1 thru_hole circle (at 0 0) (size 1.507998 1.507998) (drill .999998) (layers *.Cu *.Mask))
  (pad 3 thru_hole circle (at 0 4.500001) (size 1.507998 1.507998) (drill .999998) (layers *.Cu *.Mask))
  (pad 4 thru_hole circle (at 6.500002 4.500001) (size 1.507998 1.507998) (drill .999998) (layers *.Cu *.Mask))
  (pad 2 thru_hole circle (at 6.500002 0) (size 1.507998 1.507998) (drill .999998) (layers *.Cu *.Mask))
)
