
(module CAPPRD500W60D1000H1300 (layer F.Cu) (tedit 612E874A)
  (descr "")
  (fp_text reference REF** (at -0.635 -6.085 0) (layer F.SilkS)
    (effects (font (size 1.0 1.0) (thickness 0.15)))
  )
  (fp_text value CAPPRD500W60D1000H1300 (at 10.16 6.005 0) (layer F.Fab)
    (effects (font (size 1.0 1.0) (thickness 0.15)))
  )
  (fp_circle (center 0.0 0.0) (end 5.0 0.0) (layer F.Fab) (width 0.127))
  (fp_circle (center 0.0 0.0) (end 5.0 0.0) (layer F.SilkS) (width 0.127))
  (fp_circle (center 0.0 0.0) (end 5.25 0.0) (layer F.CrtYd) (width 0.05))
  (fp_circle (center -5.75 0.0) (end -5.65 0.0) (layer F.SilkS) (width 0.2))
  (fp_circle (center -5.75 0.0) (end -5.65 0.0) (layer F.Fab) (width 0.2))
  (pad 1 thru_hole rect (at -2.5 0.0) (size 1.2 1.2) (drill 0.85) (layers *.Cu *.Mask))
  (pad 2 thru_hole circle (at 2.5 0.0) (size 1.2 1.2) (drill 0.85) (layers *.Cu *.Mask))
)