%!PS-Adobe-3.0
%%Creator: PCBNEW
%%CreationDate: Mon Sep 13 15:32:13 2021
%%Title: /Users/jeffrey/Desktop/__LED_Warm-Cool/PCB_for_ordering/LED_Driver/LED_Driver-PTH-drl_map.ps
%%Pages: 1
%%PageOrder: Ascend
%%BoundingBox: 0 0 596 842
%%DocumentMedia: A4 595 842 0 () ()
%%Orientation: Landscape
%%EndComments
%%BeginProlog
/line { newpath moveto lineto stroke } bind def
/cir0 { newpath 0 360 arc stroke } bind def
/cir1 { newpath 0 360 arc gsave fill grestore stroke } bind def
/cir2 { newpath 0 360 arc gsave fill grestore stroke } bind def
/arc0 { newpath arc stroke } bind def
/arc1 { newpath 4 index 4 index moveto arc closepath gsave fill
    grestore stroke } bind def
/arc2 { newpath 4 index 4 index moveto arc closepath gsave fill
    grestore stroke } bind def
/poly0 { stroke } bind def
/poly1 { closepath gsave fill grestore stroke } bind def
/poly2 { closepath gsave fill grestore stroke } bind def
/rect0 { rectstroke } bind def
/rect1 { rectfill } bind def
/rect2 { rectfill } bind def
/linemode0 { 0 setlinecap 0 setlinejoin 0 setlinewidth } bind def
/linemode1 { 1 setlinecap 1 setlinejoin } bind def
/dashedline { [200] 100 setdash } bind def
/solidline { [] 0 setdash } bind def
/phantomshow { moveto
    /KicadFont findfont 0.000001 scalefont setfont
    show } bind def
/textshow { gsave
    findfont exch scalefont setfont concat 1 scale 0 0 moveto show
    } bind def
/reencodefont {
  findfont dup length dict begin
  { 1 index /FID ne
    { def }
    { pop pop } ifelse
  } forall
  /Encoding ISOLatin1Encoding def
  currentdict
  end } bind def
/KicadFont /Helvetica reencodefont definefont pop
/KicadFont-Bold /Helvetica-Bold reencodefont definefont pop
/KicadFont-Oblique /Helvetica-Oblique reencodefont definefont pop
/KicadFont-BoldOblique /Helvetica-BoldOblique reencodefont definefont pop
%%EndProlog
%%Page: 1 1
%%BeginPageSetup
gsave
0.0072 0.0072 scale
linemode1
82680 0 translate 90 rotate
115.097 setlinewidth
%%EndPageSetup
0 0 0 setrgbcolor
45.3138 setlinewidth
81121.9 76001.5 2718.83 -0 90 arc0
0 0 0 setrgbcolor
81121.9 39750.5 2718.83 -90 -0 arc0
0 0 0 setrgbcolor
35808.1 39750.5 2718.83 180 270 arc0
0 0 0 setrgbcolor
35808.1 76001.5 2718.83 90 180 arc0
0 0 0 setrgbcolor
newpath
83840.7 39750.5 moveto
83840.7 76001.5 lineto
stroke
0 0 0 setrgbcolor
newpath
35808.1 37031.7 moveto
81121.9 37031.7 lineto
stroke
0 0 0 setrgbcolor
newpath
33089.3 76001.5 moveto
33089.3 39750.5 lineto
stroke
0 0 0 setrgbcolor
newpath
81121.9 78720.3 moveto
35808.1 78720.3 lineto
stroke
78.7399 setlinewidth
newpath
34475.9 45958.5 moveto
35110.3 45324.1 lineto
stroke
newpath
35110.3 45958.5 moveto
34475.9 45324.1 lineto
stroke
newpath
41381.7 45958.5 moveto
42016.1 45324.1 lineto
stroke
newpath
42016.1 45958.5 moveto
41381.7 45324.1 lineto
stroke
34793.1 49266.4 362.51 cir0
41698.9 49266.4 362.51 cir0
55148 49719.5 362.51 cir0
64355.8 49719.5 362.51 cir0
67527.8 47453.8 362.51 cir0
69340.3 56969.7 362.51 cir0
69340.3 52438.3 362.51 cir0
69340.3 47453.8 362.51 cir0
72512.3 49719.5 362.51 cir0
81720 49719.5 362.51 cir0
newpath
36261.3 56901.8 moveto
36261.3 56131.4 lineto
stroke
newpath
35876.1 56516.6 moveto
36646.4 56516.6 lineto
stroke
newpath
40792.6 56901.8 moveto
40792.6 56131.4 lineto
stroke
newpath
40407.5 56516.6 moveto
41177.8 56516.6 lineto
stroke
newpath
68796.5 40316.9 moveto
68796.5 39546.6 lineto
stroke
newpath
68411.4 39931.7 moveto
69181.7 39931.7 lineto
stroke
newpath
69947.5 42618.9 moveto
69947.5 41848.5 lineto
stroke
newpath
69562.3 42233.7 moveto
70332.7 42233.7 lineto
stroke
newpath
71098.5 40316.9 moveto
71098.5 39546.6 lineto
stroke
newpath
70713.3 39931.7 moveto
71483.6 39931.7 lineto
stroke
newpath
72249.4 42618.9 moveto
72249.4 41848.5 lineto
stroke
newpath
71864.3 42233.7 moveto
72634.6 42233.7 lineto
stroke
newpath
73400.4 40316.9 moveto
73400.4 39546.6 lineto
stroke
newpath
73015.3 39931.7 moveto
73785.6 39931.7 lineto
stroke
newpath
74551.4 42618.9 moveto
74551.4 41848.5 lineto
stroke
newpath
74166.2 42233.7 moveto
74936.6 42233.7 lineto
stroke
newpath
76137.4 56901.8 moveto
76137.4 56131.4 lineto
stroke
newpath
75752.2 56516.6 moveto
76522.5 56516.6 lineto
stroke
newpath
80668.7 56901.8 moveto
80668.7 56131.4 lineto
stroke
newpath
80283.6 56516.6 moveto
81053.9 56516.6 lineto
stroke
newpath
56659.9 45352.9 moveto
56659.9 45929.7 lineto
56083.1 45929.7 lineto
56083.1 45352.9 lineto
56659.9 45352.9 lineto
poly0
newpath
56659.9 38447.1 moveto
56659.9 39023.8 lineto
56083.1 39023.8 lineto
56083.1 38447.1 lineto
56659.9 38447.1 lineto
poly0
newpath
58961.8 45352.9 moveto
58961.8 45929.7 lineto
58385.1 45929.7 lineto
58385.1 45352.9 lineto
58961.8 45352.9 lineto
poly0
newpath
58961.8 38447.1 moveto
58961.8 39023.8 lineto
58385.1 39023.8 lineto
58385.1 38447.1 lineto
58961.8 38447.1 lineto
poly0
newpath
61263.8 45352.9 moveto
61263.8 45929.7 lineto
60687 45929.7 lineto
60687 45352.9 lineto
61263.8 45352.9 lineto
poly0
newpath
61263.8 38447.1 moveto
61263.8 39023.8 lineto
60687 39023.8 lineto
60687 38447.1 lineto
61263.8 38447.1 lineto
poly0
newpath
63565.7 45352.9 moveto
63565.7 45929.7 lineto
62988.9 45929.7 lineto
62988.9 45352.9 lineto
63565.7 45352.9 lineto
poly0
newpath
63565.7 38447.1 moveto
63565.7 39023.8 lineto
62988.9 39023.8 lineto
62988.9 38447.1 lineto
63565.7 38447.1 lineto
poly0
newpath
34901.8 68742.2 moveto
35400.3 69240.7 lineto
34901.8 69739.1 lineto
34403.4 69240.7 lineto
34901.8 68742.2 lineto
poly0
newpath
34901.8 66440.3 moveto
35400.3 66938.8 lineto
34901.8 67437.2 lineto
34403.4 66938.8 lineto
34901.8 66440.3 lineto
poly0
newpath
34901.8 64138.4 moveto
35400.3 64636.8 lineto
34901.8 65135.3 lineto
34403.4 64636.8 lineto
34901.8 64138.4 lineto
poly0
newpath
80215.6 68706 moveto
80714.1 69204.4 lineto
80215.6 69702.9 lineto
79717.2 69204.4 lineto
80215.6 68706 lineto
poly0
newpath
80215.6 66404.1 moveto
80714.1 66902.5 lineto
80215.6 67401 lineto
79717.2 66902.5 lineto
80215.6 66404.1 lineto
poly0
newpath
80215.6 64102.1 moveto
80714.1 64600.6 lineto
80215.6 65099 lineto
79717.2 64600.6 lineto
80215.6 64102.1 lineto
poly0
newpath
42016.1 72059.2 moveto
43194.3 70881.1 lineto
stroke
newpath
43194.3 72059.2 moveto
42016.1 70881.1 lineto
stroke
42605.2 71470.1 589.079 cir0
newpath
42016.1 67527.8 moveto
43194.3 66349.7 lineto
stroke
newpath
43194.3 67527.8 moveto
42016.1 66349.7 lineto
stroke
42605.2 66938.8 589.079 cir0
newpath
45188.1 47589.8 moveto
46366.2 46411.6 lineto
stroke
newpath
46366.2 47589.8 moveto
45188.1 46411.6 lineto
stroke
45777.1 47000.7 589.079 cir0
newpath
45188.1 43058.4 moveto
46366.2 41880.2 lineto
stroke
newpath
46366.2 43058.4 moveto
45188.1 41880.2 lineto
stroke
45777.1 42469.3 589.079 cir0
newpath
46547.5 72059.2 moveto
47725.6 70881.1 lineto
stroke
newpath
47725.6 72059.2 moveto
46547.5 70881.1 lineto
stroke
47136.6 71470.1 589.079 cir0
newpath
46547.5 67527.8 moveto
47725.6 66349.7 lineto
stroke
newpath
47725.6 67527.8 moveto
46547.5 66349.7 lineto
stroke
47136.6 66938.8 589.079 cir0
newpath
49719.4 47589.8 moveto
50897.6 46411.6 lineto
stroke
newpath
50897.6 47589.8 moveto
49719.4 46411.6 lineto
stroke
50308.5 47000.7 589.079 cir0
newpath
49719.4 43058.4 moveto
50897.6 41880.2 lineto
stroke
newpath
50897.6 43058.4 moveto
49719.4 41880.2 lineto
stroke
50308.5 42469.3 589.079 cir0
newpath
51078.9 72059.2 moveto
52257 70881.1 lineto
stroke
newpath
52257 72059.2 moveto
51078.9 70881.1 lineto
stroke
51667.9 71470.1 589.079 cir0
newpath
51078.9 67527.8 moveto
52257 66349.7 lineto
stroke
newpath
52257 67527.8 moveto
51078.9 66349.7 lineto
stroke
51667.9 66938.8 589.079 cir0
newpath
55610.2 72059.2 moveto
56788.4 70881.1 lineto
stroke
newpath
56788.4 72059.2 moveto
55610.2 70881.1 lineto
stroke
56199.3 71470.1 589.079 cir0
newpath
55610.2 67527.8 moveto
56788.4 66349.7 lineto
stroke
newpath
56788.4 67527.8 moveto
55610.2 66349.7 lineto
stroke
56199.3 66938.8 589.079 cir0
newpath
60141.6 72059.2 moveto
61319.8 70881.1 lineto
stroke
newpath
61319.8 72059.2 moveto
60141.6 70881.1 lineto
stroke
60730.7 71470.1 589.079 cir0
newpath
60141.6 67527.8 moveto
61319.8 66349.7 lineto
stroke
newpath
61319.8 67527.8 moveto
60141.6 66349.7 lineto
stroke
60730.7 66938.8 589.079 cir0
newpath
64673 72059.2 moveto
65851.1 70881.1 lineto
stroke
newpath
65851.1 72059.2 moveto
64673 70881.1 lineto
stroke
65262.1 71470.1 589.079 cir0
newpath
64673 67527.8 moveto
65851.1 66349.7 lineto
stroke
newpath
65851.1 67527.8 moveto
64673 66349.7 lineto
stroke
65262.1 66938.8 589.079 cir0
newpath
69204.4 72059.2 moveto
70382.5 70881.1 lineto
stroke
newpath
70382.5 72059.2 moveto
69204.4 70881.1 lineto
stroke
69793.4 71470.1 589.079 cir0
newpath
69204.4 67527.8 moveto
70382.5 66349.7 lineto
stroke
newpath
70382.5 67527.8 moveto
69204.4 66349.7 lineto
stroke
69793.4 66938.8 589.079 cir0
newpath
73735.7 72059.2 moveto
74913.9 70881.1 lineto
stroke
newpath
74913.9 72059.2 moveto
73735.7 70881.1 lineto
stroke
74324.8 71470.1 589.079 cir0
newpath
73735.7 67527.8 moveto
74913.9 66349.7 lineto
stroke
newpath
74913.9 67527.8 moveto
73735.7 66349.7 lineto
stroke
74324.8 66938.8 589.079 cir0
newpath
45251.5 57567.9 moveto
46447.8 56371.6 lineto
stroke
newpath
46447.8 57567.9 moveto
45251.5 56371.6 lineto
stroke
newpath
45849.6 57567.9 moveto
45849.6 56371.6 lineto
stroke
newpath
45251.5 56969.7 moveto
46447.8 56969.7 lineto
stroke
newpath
65044.6 57567.9 moveto
66240.8 56371.6 lineto
stroke
newpath
66240.8 57567.9 moveto
65044.6 56371.6 lineto
stroke
newpath
65642.7 57567.9 moveto
65642.7 56371.6 lineto
stroke
newpath
65044.6 56969.7 moveto
66240.8 56969.7 lineto
stroke
118.11 setlinewidth
0 0 0 setrgbcolor
0 0 0 setrgbcolor
newpath
34194.3 35175.5 moveto
34194.3 36356.6 lineto
34475.5 36356.6 lineto
34644.2 36300.3 lineto
34756.7 36187.9 lineto
34813 36075.4 lineto
34869.2 35850.4 lineto
34869.2 35681.7 lineto
34813 35456.7 lineto
34756.7 35344.2 lineto
34644.2 35231.7 lineto
34475.5 35175.5 lineto
34194.3 35175.5 lineto
stroke
newpath
35375.4 35175.5 moveto
35375.4 35962.9 lineto
stroke
newpath
35375.4 35737.9 moveto
35431.6 35850.4 lineto
35487.9 35906.6 lineto
35600.4 35962.9 lineto
35712.9 35962.9 lineto
stroke
newpath
36106.6 35175.5 moveto
36106.6 35962.9 lineto
stroke
newpath
36106.6 36356.6 moveto
36050.3 36300.3 lineto
36106.6 36244.1 lineto
36162.8 36300.3 lineto
36106.6 36356.6 lineto
36106.6 36244.1 lineto
stroke
newpath
36837.7 35175.5 moveto
36725.2 35231.7 lineto
36669 35344.2 lineto
36669 36356.6 lineto
stroke
newpath
37456.4 35175.5 moveto
37343.9 35231.7 lineto
37287.7 35344.2 lineto
37287.7 36356.6 lineto
stroke
newpath
38806.2 35175.5 moveto
38806.2 36356.6 lineto
39199.9 35512.9 lineto
39593.6 36356.6 lineto
39593.6 35175.5 lineto
stroke
newpath
40662.2 35175.5 moveto
40662.2 35794.2 lineto
40606 35906.6 lineto
40493.5 35962.9 lineto
40268.5 35962.9 lineto
40156.1 35906.6 lineto
stroke
newpath
40662.2 35231.7 moveto
40549.8 35175.5 lineto
40268.5 35175.5 lineto
40156.1 35231.7 lineto
40099.8 35344.2 lineto
40099.8 35456.7 lineto
40156.1 35569.2 lineto
40268.5 35625.4 lineto
40549.8 35625.4 lineto
40662.2 35681.7 lineto
stroke
newpath
41224.7 35962.9 moveto
41224.7 34781.8 lineto
stroke
newpath
41224.7 35906.6 moveto
41337.2 35962.9 lineto
41562.1 35962.9 lineto
41674.6 35906.6 lineto
41730.9 35850.4 lineto
41787.1 35737.9 lineto
41787.1 35400.5 lineto
41730.9 35288 lineto
41674.6 35231.7 lineto
41562.1 35175.5 lineto
41337.2 35175.5 lineto
41224.7 35231.7 lineto
stroke
newpath
42293.3 35288 moveto
42349.5 35231.7 lineto
42293.3 35175.5 lineto
42237 35231.7 lineto
42293.3 35288 lineto
42293.3 35175.5 lineto
stroke
newpath
42293.3 35906.6 moveto
42349.5 35850.4 lineto
42293.3 35794.2 lineto
42237 35850.4 lineto
42293.3 35906.6 lineto
42293.3 35794.2 lineto
stroke
newpath
32432.2 33546.7 moveto
33066.6 32912.3 lineto
stroke
newpath
33066.6 33546.7 moveto
32432.2 32912.3 lineto
stroke
0 0 0 setrgbcolor
0 0 0 setrgbcolor
newpath
34419.3 33876.3 moveto
34531.8 33876.3 lineto
34644.2 33820 lineto
34700.5 33763.8 lineto
34756.7 33651.3 lineto
34813 33426.3 lineto
34813 33145.1 lineto
34756.7 32920.1 lineto
34700.5 32807.7 lineto
34644.2 32751.4 lineto
34531.8 32695.2 lineto
34419.3 32695.2 lineto
34306.8 32751.4 lineto
34250.5 32807.7 lineto
34194.3 32920.1 lineto
34138.1 33145.1 lineto
34138.1 33426.3 lineto
34194.3 33651.3 lineto
34250.5 33763.8 lineto
34306.8 33820 lineto
34419.3 33876.3 lineto
stroke
newpath
35319.2 32807.7 moveto
35375.4 32751.4 lineto
35319.2 32695.2 lineto
35262.9 32751.4 lineto
35319.2 32807.7 lineto
35319.2 32695.2 lineto
stroke
newpath
35769.1 33876.3 moveto
36556.5 33876.3 lineto
36050.3 32695.2 lineto
stroke
newpath
37231.4 33876.3 moveto
37343.9 33876.3 lineto
37456.4 33820 lineto
37512.6 33763.8 lineto
37568.9 33651.3 lineto
37625.1 33426.3 lineto
37625.1 33145.1 lineto
37568.9 32920.1 lineto
37512.6 32807.7 lineto
37456.4 32751.4 lineto
37343.9 32695.2 lineto
37231.4 32695.2 lineto
37118.9 32751.4 lineto
37062.7 32807.7 lineto
37006.5 32920.1 lineto
36950.2 33145.1 lineto
36950.2 33426.3 lineto
37006.5 33651.3 lineto
37062.7 33763.8 lineto
37118.9 33820 lineto
37231.4 33876.3 lineto
stroke
newpath
38356.3 33876.3 moveto
38468.8 33876.3 lineto
38581.3 33820 lineto
38637.5 33763.8 lineto
38693.7 33651.3 lineto
38750 33426.3 lineto
38750 33145.1 lineto
38693.7 32920.1 lineto
38637.5 32807.7 lineto
38581.3 32751.4 lineto
38468.8 32695.2 lineto
38356.3 32695.2 lineto
38243.8 32751.4 lineto
38187.6 32807.7 lineto
38131.3 32920.1 lineto
38075.1 33145.1 lineto
38075.1 33426.3 lineto
38131.3 33651.3 lineto
38187.6 33763.8 lineto
38243.8 33820 lineto
38356.3 33876.3 lineto
stroke
newpath
39256.2 32695.2 moveto
39256.2 33482.6 lineto
stroke
newpath
39256.2 33370.1 moveto
39312.4 33426.3 lineto
39424.9 33482.6 lineto
39593.6 33482.6 lineto
39706.1 33426.3 lineto
39762.4 33313.8 lineto
39762.4 32695.2 lineto
stroke
newpath
39762.4 33313.8 moveto
39818.6 33426.3 lineto
39931.1 33482.6 lineto
40099.8 33482.6 lineto
40212.3 33426.3 lineto
40268.5 33313.8 lineto
40268.5 32695.2 lineto
stroke
newpath
40831 32695.2 moveto
40831 33482.6 lineto
stroke
newpath
40831 33370.1 moveto
40887.2 33426.3 lineto
40999.7 33482.6 lineto
41168.4 33482.6 lineto
41280.9 33426.3 lineto
41337.2 33313.8 lineto
41337.2 32695.2 lineto
stroke
newpath
41337.2 33313.8 moveto
41393.4 33426.3 lineto
41505.9 33482.6 lineto
41674.6 33482.6 lineto
41787.1 33426.3 lineto
41843.3 33313.8 lineto
41843.3 32695.2 lineto
stroke
newpath
44149.3 33932.5 moveto
43136.9 32414 lineto
stroke
newpath
45667.9 33876.3 moveto
45780.4 33876.3 lineto
45892.8 33820 lineto
45949.1 33763.8 lineto
46005.3 33651.3 lineto
46061.6 33426.3 lineto
46061.6 33145.1 lineto
46005.3 32920.1 lineto
45949.1 32807.7 lineto
45892.8 32751.4 lineto
45780.4 32695.2 lineto
45667.9 32695.2 lineto
45555.4 32751.4 lineto
45499.1 32807.7 lineto
45442.9 32920.1 lineto
45386.7 33145.1 lineto
45386.7 33426.3 lineto
45442.9 33651.3 lineto
45499.1 33763.8 lineto
45555.4 33820 lineto
45667.9 33876.3 lineto
stroke
newpath
46567.8 32807.7 moveto
46624 32751.4 lineto
46567.8 32695.2 lineto
46511.5 32751.4 lineto
46567.8 32807.7 lineto
46567.8 32695.2 lineto
stroke
newpath
47355.2 33876.3 moveto
47467.6 33876.3 lineto
47580.1 33820 lineto
47636.4 33763.8 lineto
47692.6 33651.3 lineto
47748.9 33426.3 lineto
47748.9 33145.1 lineto
47692.6 32920.1 lineto
47636.4 32807.7 lineto
47580.1 32751.4 lineto
47467.6 32695.2 lineto
47355.2 32695.2 lineto
47242.7 32751.4 lineto
47186.4 32807.7 lineto
47130.2 32920.1 lineto
47073.9 33145.1 lineto
47073.9 33426.3 lineto
47130.2 33651.3 lineto
47186.4 33763.8 lineto
47242.7 33820 lineto
47355.2 33876.3 lineto
stroke
newpath
48198.8 33763.8 moveto
48255 33820 lineto
48367.5 33876.3 lineto
48648.7 33876.3 lineto
48761.2 33820 lineto
48817.5 33763.8 lineto
48873.7 33651.3 lineto
48873.7 33538.8 lineto
48817.5 33370.1 lineto
48142.6 32695.2 lineto
48873.7 32695.2 lineto
stroke
newpath
49267.4 33876.3 moveto
50054.8 33876.3 lineto
49548.6 32695.2 lineto
stroke
newpath
51011 33876.3 moveto
50786 33876.3 lineto
50673.5 33820 lineto
50617.3 33763.8 lineto
50504.8 33595.1 lineto
50448.5 33370.1 lineto
50448.5 32920.1 lineto
50504.8 32807.7 lineto
50561 32751.4 lineto
50673.5 32695.2 lineto
50898.5 32695.2 lineto
51011 32751.4 lineto
51067.2 32807.7 lineto
51123.4 32920.1 lineto
51123.4 33201.4 lineto
51067.2 33313.8 lineto
51011 33370.1 lineto
50898.5 33426.3 lineto
50673.5 33426.3 lineto
50561 33370.1 lineto
50504.8 33313.8 lineto
50448.5 33201.4 lineto
stroke
newpath
51573.4 33876.3 moveto
51573.4 33651.3 lineto
stroke
newpath
52023.3 33876.3 moveto
52023.3 33651.3 lineto
stroke
newpath
53766.9 32245.2 moveto
53710.6 32301.5 lineto
53598.1 32470.2 lineto
53541.9 32582.7 lineto
53485.6 32751.4 lineto
53429.4 33032.6 lineto
53429.4 33257.6 lineto
53485.6 33538.8 lineto
53541.9 33707.5 lineto
53598.1 33820 lineto
53710.6 33988.8 lineto
53766.9 34045 lineto
stroke
newpath
54160.6 33763.8 moveto
54216.8 33820 lineto
54329.3 33876.3 lineto
54610.5 33876.3 lineto
54723 33820 lineto
54779.2 33763.8 lineto
54835.5 33651.3 lineto
54835.5 33538.8 lineto
54779.2 33370.1 lineto
54104.3 32695.2 lineto
54835.5 32695.2 lineto
stroke
newpath
56241.5 32695.2 moveto
56241.5 33876.3 lineto
stroke
newpath
56747.7 32695.2 moveto
56747.7 33313.8 lineto
56691.5 33426.3 lineto
56579 33482.6 lineto
56410.3 33482.6 lineto
56297.8 33426.3 lineto
56241.5 33370.1 lineto
stroke
newpath
57478.9 32695.2 moveto
57366.4 32751.4 lineto
57310.2 32807.7 lineto
57253.9 32920.1 lineto
57253.9 33257.6 lineto
57310.2 33370.1 lineto
57366.4 33426.3 lineto
57478.9 33482.6 lineto
57647.6 33482.6 lineto
57760.1 33426.3 lineto
57816.4 33370.1 lineto
57872.6 33257.6 lineto
57872.6 32920.1 lineto
57816.4 32807.7 lineto
57760.1 32751.4 lineto
57647.6 32695.2 lineto
57478.9 32695.2 lineto
stroke
newpath
58547.5 32695.2 moveto
58435 32751.4 lineto
58378.8 32863.9 lineto
58378.8 33876.3 lineto
stroke
newpath
59447.4 32751.4 moveto
59334.9 32695.2 lineto
59109.9 32695.2 lineto
58997.5 32751.4 lineto
58941.2 32863.9 lineto
58941.2 33313.8 lineto
58997.5 33426.3 lineto
59109.9 33482.6 lineto
59334.9 33482.6 lineto
59447.4 33426.3 lineto
59503.6 33313.8 lineto
59503.6 33201.4 lineto
58941.2 33088.9 lineto
stroke
newpath
59953.6 32751.4 moveto
60066.1 32695.2 lineto
60291 32695.2 lineto
60403.5 32751.4 lineto
60459.8 32863.9 lineto
60459.8 32920.1 lineto
60403.5 33032.6 lineto
60291 33088.9 lineto
60122.3 33088.9 lineto
60009.8 33145.1 lineto
59953.6 33257.6 lineto
59953.6 33313.8 lineto
60009.8 33426.3 lineto
60122.3 33482.6 lineto
60291 33482.6 lineto
60403.5 33426.3 lineto
stroke
newpath
60853.5 32245.2 moveto
60909.7 32301.5 lineto
61022.2 32470.2 lineto
61078.4 32582.7 lineto
61134.7 32751.4 lineto
61190.9 33032.6 lineto
61190.9 33257.6 lineto
61134.7 33538.8 lineto
61078.4 33707.5 lineto
61022.2 33820 lineto
60909.7 33988.8 lineto
60853.5 34045 lineto
stroke
32704.1 31670.4 362.51 cir0
0 0 0 setrgbcolor
0 0 0 setrgbcolor
newpath
34419.3 32317.2 moveto
34531.8 32317.2 lineto
34644.2 32261 lineto
34700.5 32204.7 lineto
34756.7 32092.2 lineto
34813 31867.3 lineto
34813 31586.1 lineto
34756.7 31361.1 lineto
34700.5 31248.6 lineto
34644.2 31192.4 lineto
34531.8 31136.1 lineto
34419.3 31136.1 lineto
34306.8 31192.4 lineto
34250.5 31248.6 lineto
34194.3 31361.1 lineto
34138.1 31586.1 lineto
34138.1 31867.3 lineto
34194.3 32092.2 lineto
34250.5 32204.7 lineto
34306.8 32261 lineto
34419.3 32317.2 lineto
stroke
newpath
35319.2 31248.6 moveto
35375.4 31192.4 lineto
35319.2 31136.1 lineto
35262.9 31192.4 lineto
35319.2 31248.6 lineto
35319.2 31136.1 lineto
stroke
newpath
36050.3 31811 moveto
35937.8 31867.3 lineto
35881.6 31923.5 lineto
35825.3 32036 lineto
35825.3 32092.2 lineto
35881.6 32204.7 lineto
35937.8 32261 lineto
36050.3 32317.2 lineto
36275.3 32317.2 lineto
36387.8 32261 lineto
36444 32204.7 lineto
36500.3 32092.2 lineto
36500.3 32036 lineto
36444 31923.5 lineto
36387.8 31867.3 lineto
36275.3 31811 lineto
36050.3 31811 lineto
35937.8 31754.8 lineto
35881.6 31698.5 lineto
35825.3 31586.1 lineto
35825.3 31361.1 lineto
35881.6 31248.6 lineto
35937.8 31192.4 lineto
36050.3 31136.1 lineto
36275.3 31136.1 lineto
36387.8 31192.4 lineto
36444 31248.6 lineto
36500.3 31361.1 lineto
36500.3 31586.1 lineto
36444 31698.5 lineto
36387.8 31754.8 lineto
36275.3 31811 lineto
stroke
newpath
37231.4 32317.2 moveto
37343.9 32317.2 lineto
37456.4 32261 lineto
37512.6 32204.7 lineto
37568.9 32092.2 lineto
37625.1 31867.3 lineto
37625.1 31586.1 lineto
37568.9 31361.1 lineto
37512.6 31248.6 lineto
37456.4 31192.4 lineto
37343.9 31136.1 lineto
37231.4 31136.1 lineto
37118.9 31192.4 lineto
37062.7 31248.6 lineto
37006.5 31361.1 lineto
36950.2 31586.1 lineto
36950.2 31867.3 lineto
37006.5 32092.2 lineto
37062.7 32204.7 lineto
37118.9 32261 lineto
37231.4 32317.2 lineto
stroke
newpath
38356.3 32317.2 moveto
38468.8 32317.2 lineto
38581.3 32261 lineto
38637.5 32204.7 lineto
38693.7 32092.2 lineto
38750 31867.3 lineto
38750 31586.1 lineto
38693.7 31361.1 lineto
38637.5 31248.6 lineto
38581.3 31192.4 lineto
38468.8 31136.1 lineto
38356.3 31136.1 lineto
38243.8 31192.4 lineto
38187.6 31248.6 lineto
38131.3 31361.1 lineto
38075.1 31586.1 lineto
38075.1 31867.3 lineto
38131.3 32092.2 lineto
38187.6 32204.7 lineto
38243.8 32261 lineto
38356.3 32317.2 lineto
stroke
newpath
39256.2 31136.1 moveto
39256.2 31923.5 lineto
stroke
newpath
39256.2 31811 moveto
39312.4 31867.3 lineto
39424.9 31923.5 lineto
39593.6 31923.5 lineto
39706.1 31867.3 lineto
39762.4 31754.8 lineto
39762.4 31136.1 lineto
stroke
newpath
39762.4 31754.8 moveto
39818.6 31867.3 lineto
39931.1 31923.5 lineto
40099.8 31923.5 lineto
40212.3 31867.3 lineto
40268.5 31754.8 lineto
40268.5 31136.1 lineto
stroke
newpath
40831 31136.1 moveto
40831 31923.5 lineto
stroke
newpath
40831 31811 moveto
40887.2 31867.3 lineto
40999.7 31923.5 lineto
41168.4 31923.5 lineto
41280.9 31867.3 lineto
41337.2 31754.8 lineto
41337.2 31136.1 lineto
stroke
newpath
41337.2 31754.8 moveto
41393.4 31867.3 lineto
41505.9 31923.5 lineto
41674.6 31923.5 lineto
41787.1 31867.3 lineto
41843.3 31754.8 lineto
41843.3 31136.1 lineto
stroke
newpath
44149.3 32373.5 moveto
43136.9 30854.9 lineto
stroke
newpath
45667.9 32317.2 moveto
45780.4 32317.2 lineto
45892.8 32261 lineto
45949.1 32204.7 lineto
46005.3 32092.2 lineto
46061.6 31867.3 lineto
46061.6 31586.1 lineto
46005.3 31361.1 lineto
45949.1 31248.6 lineto
45892.8 31192.4 lineto
45780.4 31136.1 lineto
45667.9 31136.1 lineto
45555.4 31192.4 lineto
45499.1 31248.6 lineto
45442.9 31361.1 lineto
45386.7 31586.1 lineto
45386.7 31867.3 lineto
45442.9 32092.2 lineto
45499.1 32204.7 lineto
45555.4 32261 lineto
45667.9 32317.2 lineto
stroke
newpath
46567.8 31248.6 moveto
46624 31192.4 lineto
46567.8 31136.1 lineto
46511.5 31192.4 lineto
46567.8 31248.6 lineto
46567.8 31136.1 lineto
stroke
newpath
47355.2 32317.2 moveto
47467.6 32317.2 lineto
47580.1 32261 lineto
47636.4 32204.7 lineto
47692.6 32092.2 lineto
47748.9 31867.3 lineto
47748.9 31586.1 lineto
47692.6 31361.1 lineto
47636.4 31248.6 lineto
47580.1 31192.4 lineto
47467.6 31136.1 lineto
47355.2 31136.1 lineto
47242.7 31192.4 lineto
47186.4 31248.6 lineto
47130.2 31361.1 lineto
47073.9 31586.1 lineto
47073.9 31867.3 lineto
47130.2 32092.2 lineto
47186.4 32204.7 lineto
47242.7 32261 lineto
47355.2 32317.2 lineto
stroke
newpath
48142.6 32317.2 moveto
48873.7 32317.2 lineto
48480 31867.3 lineto
48648.7 31867.3 lineto
48761.2 31811 lineto
48817.5 31754.8 lineto
48873.7 31642.3 lineto
48873.7 31361.1 lineto
48817.5 31248.6 lineto
48761.2 31192.4 lineto
48648.7 31136.1 lineto
48311.3 31136.1 lineto
48198.8 31192.4 lineto
48142.6 31248.6 lineto
stroke
newpath
49998.6 31136.1 moveto
49323.7 31136.1 lineto
stroke
newpath
49661.1 31136.1 moveto
49661.1 32317.2 lineto
49548.6 32148.5 lineto
49436.1 32036 lineto
49323.7 31979.8 lineto
stroke
newpath
51067.2 32317.2 moveto
50504.8 32317.2 lineto
50448.5 31754.8 lineto
50504.8 31811 lineto
50617.3 31867.3 lineto
50898.5 31867.3 lineto
51011 31811 lineto
51067.2 31754.8 lineto
51123.4 31642.3 lineto
51123.4 31361.1 lineto
51067.2 31248.6 lineto
51011 31192.4 lineto
50898.5 31136.1 lineto
50617.3 31136.1 lineto
50504.8 31192.4 lineto
50448.5 31248.6 lineto
stroke
newpath
51573.4 32317.2 moveto
51573.4 32092.2 lineto
stroke
newpath
52023.3 32317.2 moveto
52023.3 32092.2 lineto
stroke
newpath
53766.9 30686.2 moveto
53710.6 30742.4 lineto
53598.1 30911.1 lineto
53541.9 31023.6 lineto
53485.6 31192.4 lineto
53429.4 31473.6 lineto
53429.4 31698.5 lineto
53485.6 31979.8 lineto
53541.9 32148.5 lineto
53598.1 32261 lineto
53710.6 32429.7 lineto
53766.9 32485.9 lineto
stroke
newpath
54835.5 31136.1 moveto
54160.6 31136.1 lineto
stroke
newpath
54498 31136.1 moveto
54498 32317.2 lineto
54385.5 32148.5 lineto
54273 32036 lineto
54160.6 31979.8 lineto
stroke
newpath
55566.6 32317.2 moveto
55679.1 32317.2 lineto
55791.6 32261 lineto
55847.8 32204.7 lineto
55904.1 32092.2 lineto
55960.3 31867.3 lineto
55960.3 31586.1 lineto
55904.1 31361.1 lineto
55847.8 31248.6 lineto
55791.6 31192.4 lineto
55679.1 31136.1 lineto
55566.6 31136.1 lineto
55454.1 31192.4 lineto
55397.9 31248.6 lineto
55341.7 31361.1 lineto
55285.4 31586.1 lineto
55285.4 31867.3 lineto
55341.7 32092.2 lineto
55397.9 32204.7 lineto
55454.1 32261 lineto
55566.6 32317.2 lineto
stroke
newpath
57366.4 31136.1 moveto
57366.4 32317.2 lineto
stroke
newpath
57872.6 31136.1 moveto
57872.6 31754.8 lineto
57816.4 31867.3 lineto
57703.9 31923.5 lineto
57535.1 31923.5 lineto
57422.7 31867.3 lineto
57366.4 31811 lineto
stroke
newpath
58603.8 31136.1 moveto
58491.3 31192.4 lineto
58435 31248.6 lineto
58378.8 31361.1 lineto
58378.8 31698.5 lineto
58435 31811 lineto
58491.3 31867.3 lineto
58603.8 31923.5 lineto
58772.5 31923.5 lineto
58885 31867.3 lineto
58941.2 31811 lineto
58997.5 31698.5 lineto
58997.5 31361.1 lineto
58941.2 31248.6 lineto
58885 31192.4 lineto
58772.5 31136.1 lineto
58603.8 31136.1 lineto
stroke
newpath
59672.4 31136.1 moveto
59559.9 31192.4 lineto
59503.6 31304.8 lineto
59503.6 32317.2 lineto
stroke
newpath
60572.3 31192.4 moveto
60459.8 31136.1 lineto
60234.8 31136.1 lineto
60122.3 31192.4 lineto
60066.1 31304.8 lineto
60066.1 31754.8 lineto
60122.3 31867.3 lineto
60234.8 31923.5 lineto
60459.8 31923.5 lineto
60572.3 31867.3 lineto
60628.5 31754.8 lineto
60628.5 31642.3 lineto
60066.1 31529.8 lineto
stroke
newpath
61078.4 31192.4 moveto
61190.9 31136.1 lineto
61415.9 31136.1 lineto
61528.4 31192.4 lineto
61584.6 31304.8 lineto
61584.6 31361.1 lineto
61528.4 31473.6 lineto
61415.9 31529.8 lineto
61247.2 31529.8 lineto
61134.7 31586.1 lineto
61078.4 31698.5 lineto
61078.4 31754.8 lineto
61134.7 31867.3 lineto
61247.2 31923.5 lineto
61415.9 31923.5 lineto
61528.4 31867.3 lineto
stroke
newpath
61978.3 30686.2 moveto
62034.6 30742.4 lineto
62147.1 30911.1 lineto
62203.3 31023.6 lineto
62259.5 31192.4 lineto
62315.8 31473.6 lineto
62315.8 31698.5 lineto
62259.5 31979.8 lineto
62203.3 32148.5 lineto
62147.1 32261 lineto
62034.6 32429.7 lineto
61978.3 32485.9 lineto
stroke
newpath
32681.5 30496.5 moveto
32681.5 29726.2 lineto
stroke
newpath
32296.3 30111.4 moveto
33066.6 30111.4 lineto
stroke
0 0 0 setrgbcolor
0 0 0 setrgbcolor
newpath
34419.3 30758.2 moveto
34531.8 30758.2 lineto
34644.2 30701.9 lineto
34700.5 30645.7 lineto
34756.7 30533.2 lineto
34813 30308.2 lineto
34813 30027 lineto
34756.7 29802 lineto
34700.5 29689.5 lineto
34644.2 29633.3 lineto
34531.8 29577.1 lineto
34419.3 29577.1 lineto
34306.8 29633.3 lineto
34250.5 29689.5 lineto
34194.3 29802 lineto
34138.1 30027 lineto
34138.1 30308.2 lineto
34194.3 30533.2 lineto
34250.5 30645.7 lineto
34306.8 30701.9 lineto
34419.3 30758.2 lineto
stroke
newpath
35319.2 29689.5 moveto
35375.4 29633.3 lineto
35319.2 29577.1 lineto
35262.9 29633.3 lineto
35319.2 29689.5 lineto
35319.2 29577.1 lineto
stroke
newpath
36050.3 30252 moveto
35937.8 30308.2 lineto
35881.6 30364.5 lineto
35825.3 30476.9 lineto
35825.3 30533.2 lineto
35881.6 30645.7 lineto
35937.8 30701.9 lineto
36050.3 30758.2 lineto
36275.3 30758.2 lineto
36387.8 30701.9 lineto
36444 30645.7 lineto
36500.3 30533.2 lineto
36500.3 30476.9 lineto
36444 30364.5 lineto
36387.8 30308.2 lineto
36275.3 30252 lineto
36050.3 30252 lineto
35937.8 30195.7 lineto
35881.6 30139.5 lineto
35825.3 30027 lineto
35825.3 29802 lineto
35881.6 29689.5 lineto
35937.8 29633.3 lineto
36050.3 29577.1 lineto
36275.3 29577.1 lineto
36387.8 29633.3 lineto
36444 29689.5 lineto
36500.3 29802 lineto
36500.3 30027 lineto
36444 30139.5 lineto
36387.8 30195.7 lineto
36275.3 30252 lineto
stroke
newpath
37568.9 30758.2 moveto
37006.5 30758.2 lineto
36950.2 30195.7 lineto
37006.5 30252 lineto
37118.9 30308.2 lineto
37400.2 30308.2 lineto
37512.6 30252 lineto
37568.9 30195.7 lineto
37625.1 30083.2 lineto
37625.1 29802 lineto
37568.9 29689.5 lineto
37512.6 29633.3 lineto
37400.2 29577.1 lineto
37118.9 29577.1 lineto
37006.5 29633.3 lineto
36950.2 29689.5 lineto
stroke
newpath
38356.3 30758.2 moveto
38468.8 30758.2 lineto
38581.3 30701.9 lineto
38637.5 30645.7 lineto
38693.7 30533.2 lineto
38750 30308.2 lineto
38750 30027 lineto
38693.7 29802 lineto
38637.5 29689.5 lineto
38581.3 29633.3 lineto
38468.8 29577.1 lineto
38356.3 29577.1 lineto
38243.8 29633.3 lineto
38187.6 29689.5 lineto
38131.3 29802 lineto
38075.1 30027 lineto
38075.1 30308.2 lineto
38131.3 30533.2 lineto
38187.6 30645.7 lineto
38243.8 30701.9 lineto
38356.3 30758.2 lineto
stroke
newpath
39256.2 29577.1 moveto
39256.2 30364.5 lineto
stroke
newpath
39256.2 30252 moveto
39312.4 30308.2 lineto
39424.9 30364.5 lineto
39593.6 30364.5 lineto
39706.1 30308.2 lineto
39762.4 30195.7 lineto
39762.4 29577.1 lineto
stroke
newpath
39762.4 30195.7 moveto
39818.6 30308.2 lineto
39931.1 30364.5 lineto
40099.8 30364.5 lineto
40212.3 30308.2 lineto
40268.5 30195.7 lineto
40268.5 29577.1 lineto
stroke
newpath
40831 29577.1 moveto
40831 30364.5 lineto
stroke
newpath
40831 30252 moveto
40887.2 30308.2 lineto
40999.7 30364.5 lineto
41168.4 30364.5 lineto
41280.9 30308.2 lineto
41337.2 30195.7 lineto
41337.2 29577.1 lineto
stroke
newpath
41337.2 30195.7 moveto
41393.4 30308.2 lineto
41505.9 30364.5 lineto
41674.6 30364.5 lineto
41787.1 30308.2 lineto
41843.3 30195.7 lineto
41843.3 29577.1 lineto
stroke
newpath
44149.3 30814.4 moveto
43136.9 29295.8 lineto
stroke
newpath
45667.9 30758.2 moveto
45780.4 30758.2 lineto
45892.8 30701.9 lineto
45949.1 30645.7 lineto
46005.3 30533.2 lineto
46061.6 30308.2 lineto
46061.6 30027 lineto
46005.3 29802 lineto
45949.1 29689.5 lineto
45892.8 29633.3 lineto
45780.4 29577.1 lineto
45667.9 29577.1 lineto
45555.4 29633.3 lineto
45499.1 29689.5 lineto
45442.9 29802 lineto
45386.7 30027 lineto
45386.7 30308.2 lineto
45442.9 30533.2 lineto
45499.1 30645.7 lineto
45555.4 30701.9 lineto
45667.9 30758.2 lineto
stroke
newpath
46567.8 29689.5 moveto
46624 29633.3 lineto
46567.8 29577.1 lineto
46511.5 29633.3 lineto
46567.8 29689.5 lineto
46567.8 29577.1 lineto
stroke
newpath
47355.2 30758.2 moveto
47467.6 30758.2 lineto
47580.1 30701.9 lineto
47636.4 30645.7 lineto
47692.6 30533.2 lineto
47748.9 30308.2 lineto
47748.9 30027 lineto
47692.6 29802 lineto
47636.4 29689.5 lineto
47580.1 29633.3 lineto
47467.6 29577.1 lineto
47355.2 29577.1 lineto
47242.7 29633.3 lineto
47186.4 29689.5 lineto
47130.2 29802 lineto
47073.9 30027 lineto
47073.9 30308.2 lineto
47130.2 30533.2 lineto
47186.4 30645.7 lineto
47242.7 30701.9 lineto
47355.2 30758.2 lineto
stroke
newpath
48142.6 30758.2 moveto
48873.7 30758.2 lineto
48480 30308.2 lineto
48648.7 30308.2 lineto
48761.2 30252 lineto
48817.5 30195.7 lineto
48873.7 30083.2 lineto
48873.7 29802 lineto
48817.5 29689.5 lineto
48761.2 29633.3 lineto
48648.7 29577.1 lineto
48311.3 29577.1 lineto
48198.8 29633.3 lineto
48142.6 29689.5 lineto
stroke
newpath
49267.4 30758.2 moveto
49998.6 30758.2 lineto
49604.9 30308.2 lineto
49773.6 30308.2 lineto
49886.1 30252 lineto
49942.3 30195.7 lineto
49998.6 30083.2 lineto
49998.6 29802 lineto
49942.3 29689.5 lineto
49886.1 29633.3 lineto
49773.6 29577.1 lineto
49436.1 29577.1 lineto
49323.7 29633.3 lineto
49267.4 29689.5 lineto
stroke
newpath
51067.2 30758.2 moveto
50504.8 30758.2 lineto
50448.5 30195.7 lineto
50504.8 30252 lineto
50617.3 30308.2 lineto
50898.5 30308.2 lineto
51011 30252 lineto
51067.2 30195.7 lineto
51123.4 30083.2 lineto
51123.4 29802 lineto
51067.2 29689.5 lineto
51011 29633.3 lineto
50898.5 29577.1 lineto
50617.3 29577.1 lineto
50504.8 29633.3 lineto
50448.5 29689.5 lineto
stroke
newpath
51573.4 30758.2 moveto
51573.4 30533.2 lineto
stroke
newpath
52023.3 30758.2 moveto
52023.3 30533.2 lineto
stroke
newpath
53766.9 29127.1 moveto
53710.6 29183.4 lineto
53598.1 29352.1 lineto
53541.9 29464.6 lineto
53485.6 29633.3 lineto
53429.4 29914.5 lineto
53429.4 30139.5 lineto
53485.6 30420.7 lineto
53541.9 30589.4 lineto
53598.1 30701.9 lineto
53710.6 30870.6 lineto
53766.9 30926.9 lineto
stroke
newpath
54835.5 29577.1 moveto
54160.6 29577.1 lineto
stroke
newpath
54498 29577.1 moveto
54498 30758.2 lineto
54385.5 30589.4 lineto
54273 30476.9 lineto
54160.6 30420.7 lineto
stroke
newpath
55566.6 30758.2 moveto
55679.1 30758.2 lineto
55791.6 30701.9 lineto
55847.8 30645.7 lineto
55904.1 30533.2 lineto
55960.3 30308.2 lineto
55960.3 30027 lineto
55904.1 29802 lineto
55847.8 29689.5 lineto
55791.6 29633.3 lineto
55679.1 29577.1 lineto
55566.6 29577.1 lineto
55454.1 29633.3 lineto
55397.9 29689.5 lineto
55341.7 29802 lineto
55285.4 30027 lineto
55285.4 30308.2 lineto
55341.7 30533.2 lineto
55397.9 30645.7 lineto
55454.1 30701.9 lineto
55566.6 30758.2 lineto
stroke
newpath
57366.4 29577.1 moveto
57366.4 30758.2 lineto
stroke
newpath
57872.6 29577.1 moveto
57872.6 30195.7 lineto
57816.4 30308.2 lineto
57703.9 30364.5 lineto
57535.1 30364.5 lineto
57422.7 30308.2 lineto
57366.4 30252 lineto
stroke
newpath
58603.8 29577.1 moveto
58491.3 29633.3 lineto
58435 29689.5 lineto
58378.8 29802 lineto
58378.8 30139.5 lineto
58435 30252 lineto
58491.3 30308.2 lineto
58603.8 30364.5 lineto
58772.5 30364.5 lineto
58885 30308.2 lineto
58941.2 30252 lineto
58997.5 30139.5 lineto
58997.5 29802 lineto
58941.2 29689.5 lineto
58885 29633.3 lineto
58772.5 29577.1 lineto
58603.8 29577.1 lineto
stroke
newpath
59672.4 29577.1 moveto
59559.9 29633.3 lineto
59503.6 29745.8 lineto
59503.6 30758.2 lineto
stroke
newpath
60572.3 29633.3 moveto
60459.8 29577.1 lineto
60234.8 29577.1 lineto
60122.3 29633.3 lineto
60066.1 29745.8 lineto
60066.1 30195.7 lineto
60122.3 30308.2 lineto
60234.8 30364.5 lineto
60459.8 30364.5 lineto
60572.3 30308.2 lineto
60628.5 30195.7 lineto
60628.5 30083.2 lineto
60066.1 29970.8 lineto
stroke
newpath
61078.4 29633.3 moveto
61190.9 29577.1 lineto
61415.9 29577.1 lineto
61528.4 29633.3 lineto
61584.6 29745.8 lineto
61584.6 29802 lineto
61528.4 29914.5 lineto
61415.9 29970.8 lineto
61247.2 29970.8 lineto
61134.7 30027 lineto
61078.4 30139.5 lineto
61078.4 30195.7 lineto
61134.7 30308.2 lineto
61247.2 30364.5 lineto
61415.9 30364.5 lineto
61528.4 30308.2 lineto
stroke
newpath
61978.3 29127.1 moveto
62034.6 29183.4 lineto
62147.1 29352.1 lineto
62203.3 29464.6 lineto
62259.5 29633.3 lineto
62315.8 29914.5 lineto
62315.8 30139.5 lineto
62259.5 30420.7 lineto
62203.3 30589.4 lineto
62147.1 30701.9 lineto
62034.6 30870.6 lineto
61978.3 30926.9 lineto
stroke
newpath
32947.2 28263.9 moveto
32947.2 28840.7 lineto
32370.4 28840.7 lineto
32370.4 28263.9 lineto
32947.2 28263.9 lineto
poly0
0 0 0 setrgbcolor
0 0 0 setrgbcolor
newpath
34419.3 29199.1 moveto
34531.8 29199.1 lineto
34644.2 29142.9 lineto
34700.5 29086.6 lineto
34756.7 28974.1 lineto
34813 28749.2 lineto
34813 28467.9 lineto
34756.7 28243 lineto
34700.5 28130.5 lineto
34644.2 28074.2 lineto
34531.8 28018 lineto
34419.3 28018 lineto
34306.8 28074.2 lineto
34250.5 28130.5 lineto
34194.3 28243 lineto
34138.1 28467.9 lineto
34138.1 28749.2 lineto
34194.3 28974.1 lineto
34250.5 29086.6 lineto
34306.8 29142.9 lineto
34419.3 29199.1 lineto
stroke
newpath
35319.2 28130.5 moveto
35375.4 28074.2 lineto
35319.2 28018 lineto
35262.9 28074.2 lineto
35319.2 28130.5 lineto
35319.2 28018 lineto
stroke
newpath
35937.8 28018 moveto
36162.8 28018 lineto
36275.3 28074.2 lineto
36331.5 28130.5 lineto
36444 28299.2 lineto
36500.3 28524.2 lineto
36500.3 28974.1 lineto
36444 29086.6 lineto
36387.8 29142.9 lineto
36275.3 29199.1 lineto
36050.3 29199.1 lineto
35937.8 29142.9 lineto
35881.6 29086.6 lineto
35825.3 28974.1 lineto
35825.3 28692.9 lineto
35881.6 28580.4 lineto
35937.8 28524.2 lineto
36050.3 28467.9 lineto
36275.3 28467.9 lineto
36387.8 28524.2 lineto
36444 28580.4 lineto
36500.3 28692.9 lineto
stroke
newpath
37231.4 29199.1 moveto
37343.9 29199.1 lineto
37456.4 29142.9 lineto
37512.6 29086.6 lineto
37568.9 28974.1 lineto
37625.1 28749.2 lineto
37625.1 28467.9 lineto
37568.9 28243 lineto
37512.6 28130.5 lineto
37456.4 28074.2 lineto
37343.9 28018 lineto
37231.4 28018 lineto
37118.9 28074.2 lineto
37062.7 28130.5 lineto
37006.5 28243 lineto
36950.2 28467.9 lineto
36950.2 28749.2 lineto
37006.5 28974.1 lineto
37062.7 29086.6 lineto
37118.9 29142.9 lineto
37231.4 29199.1 lineto
stroke
newpath
38356.3 29199.1 moveto
38468.8 29199.1 lineto
38581.3 29142.9 lineto
38637.5 29086.6 lineto
38693.7 28974.1 lineto
38750 28749.2 lineto
38750 28467.9 lineto
38693.7 28243 lineto
38637.5 28130.5 lineto
38581.3 28074.2 lineto
38468.8 28018 lineto
38356.3 28018 lineto
38243.8 28074.2 lineto
38187.6 28130.5 lineto
38131.3 28243 lineto
38075.1 28467.9 lineto
38075.1 28749.2 lineto
38131.3 28974.1 lineto
38187.6 29086.6 lineto
38243.8 29142.9 lineto
38356.3 29199.1 lineto
stroke
newpath
39256.2 28018 moveto
39256.2 28805.4 lineto
stroke
newpath
39256.2 28692.9 moveto
39312.4 28749.2 lineto
39424.9 28805.4 lineto
39593.6 28805.4 lineto
39706.1 28749.2 lineto
39762.4 28636.7 lineto
39762.4 28018 lineto
stroke
newpath
39762.4 28636.7 moveto
39818.6 28749.2 lineto
39931.1 28805.4 lineto
40099.8 28805.4 lineto
40212.3 28749.2 lineto
40268.5 28636.7 lineto
40268.5 28018 lineto
stroke
newpath
40831 28018 moveto
40831 28805.4 lineto
stroke
newpath
40831 28692.9 moveto
40887.2 28749.2 lineto
40999.7 28805.4 lineto
41168.4 28805.4 lineto
41280.9 28749.2 lineto
41337.2 28636.7 lineto
41337.2 28018 lineto
stroke
newpath
41337.2 28636.7 moveto
41393.4 28749.2 lineto
41505.9 28805.4 lineto
41674.6 28805.4 lineto
41787.1 28749.2 lineto
41843.3 28636.7 lineto
41843.3 28018 lineto
stroke
newpath
44149.3 29255.4 moveto
43136.9 27736.8 lineto
stroke
newpath
45667.9 29199.1 moveto
45780.4 29199.1 lineto
45892.8 29142.9 lineto
45949.1 29086.6 lineto
46005.3 28974.1 lineto
46061.6 28749.2 lineto
46061.6 28467.9 lineto
46005.3 28243 lineto
45949.1 28130.5 lineto
45892.8 28074.2 lineto
45780.4 28018 lineto
45667.9 28018 lineto
45555.4 28074.2 lineto
45499.1 28130.5 lineto
45442.9 28243 lineto
45386.7 28467.9 lineto
45386.7 28749.2 lineto
45442.9 28974.1 lineto
45499.1 29086.6 lineto
45555.4 29142.9 lineto
45667.9 29199.1 lineto
stroke
newpath
46567.8 28130.5 moveto
46624 28074.2 lineto
46567.8 28018 lineto
46511.5 28074.2 lineto
46567.8 28130.5 lineto
46567.8 28018 lineto
stroke
newpath
47355.2 29199.1 moveto
47467.6 29199.1 lineto
47580.1 29142.9 lineto
47636.4 29086.6 lineto
47692.6 28974.1 lineto
47748.9 28749.2 lineto
47748.9 28467.9 lineto
47692.6 28243 lineto
47636.4 28130.5 lineto
47580.1 28074.2 lineto
47467.6 28018 lineto
47355.2 28018 lineto
47242.7 28074.2 lineto
47186.4 28130.5 lineto
47130.2 28243 lineto
47073.9 28467.9 lineto
47073.9 28749.2 lineto
47130.2 28974.1 lineto
47186.4 29086.6 lineto
47242.7 29142.9 lineto
47355.2 29199.1 lineto
stroke
newpath
48142.6 29199.1 moveto
48873.7 29199.1 lineto
48480 28749.2 lineto
48648.7 28749.2 lineto
48761.2 28692.9 lineto
48817.5 28636.7 lineto
48873.7 28524.2 lineto
48873.7 28243 lineto
48817.5 28130.5 lineto
48761.2 28074.2 lineto
48648.7 28018 lineto
48311.3 28018 lineto
48198.8 28074.2 lineto
48142.6 28130.5 lineto
stroke
newpath
49942.3 29199.1 moveto
49379.9 29199.1 lineto
49323.7 28636.7 lineto
49379.9 28692.9 lineto
49492.4 28749.2 lineto
49773.6 28749.2 lineto
49886.1 28692.9 lineto
49942.3 28636.7 lineto
49998.6 28524.2 lineto
49998.6 28243 lineto
49942.3 28130.5 lineto
49886.1 28074.2 lineto
49773.6 28018 lineto
49492.4 28018 lineto
49379.9 28074.2 lineto
49323.7 28130.5 lineto
stroke
newpath
51011 28805.4 moveto
51011 28018 lineto
stroke
newpath
50729.7 29255.4 moveto
50448.5 28411.7 lineto
51179.7 28411.7 lineto
stroke
newpath
51573.4 29199.1 moveto
51573.4 28974.1 lineto
stroke
newpath
52023.3 29199.1 moveto
52023.3 28974.1 lineto
stroke
newpath
53766.9 27568.1 moveto
53710.6 27624.3 lineto
53598.1 27793 lineto
53541.9 27905.5 lineto
53485.6 28074.2 lineto
53429.4 28355.5 lineto
53429.4 28580.4 lineto
53485.6 28861.6 lineto
53541.9 29030.4 lineto
53598.1 29142.9 lineto
53710.6 29311.6 lineto
53766.9 29367.8 lineto
stroke
newpath
54385.5 28692.9 moveto
54273 28749.2 lineto
54216.8 28805.4 lineto
54160.6 28917.9 lineto
54160.6 28974.1 lineto
54216.8 29086.6 lineto
54273 29142.9 lineto
54385.5 29199.1 lineto
54610.5 29199.1 lineto
54723 29142.9 lineto
54779.2 29086.6 lineto
54835.5 28974.1 lineto
54835.5 28917.9 lineto
54779.2 28805.4 lineto
54723 28749.2 lineto
54610.5 28692.9 lineto
54385.5 28692.9 lineto
54273 28636.7 lineto
54216.8 28580.4 lineto
54160.6 28467.9 lineto
54160.6 28243 lineto
54216.8 28130.5 lineto
54273 28074.2 lineto
54385.5 28018 lineto
54610.5 28018 lineto
54723 28074.2 lineto
54779.2 28130.5 lineto
54835.5 28243 lineto
54835.5 28467.9 lineto
54779.2 28580.4 lineto
54723 28636.7 lineto
54610.5 28692.9 lineto
stroke
newpath
56241.5 28018 moveto
56241.5 29199.1 lineto
stroke
newpath
56747.7 28018 moveto
56747.7 28636.7 lineto
56691.5 28749.2 lineto
56579 28805.4 lineto
56410.3 28805.4 lineto
56297.8 28749.2 lineto
56241.5 28692.9 lineto
stroke
newpath
57478.9 28018 moveto
57366.4 28074.2 lineto
57310.2 28130.5 lineto
57253.9 28243 lineto
57253.9 28580.4 lineto
57310.2 28692.9 lineto
57366.4 28749.2 lineto
57478.9 28805.4 lineto
57647.6 28805.4 lineto
57760.1 28749.2 lineto
57816.4 28692.9 lineto
57872.6 28580.4 lineto
57872.6 28243 lineto
57816.4 28130.5 lineto
57760.1 28074.2 lineto
57647.6 28018 lineto
57478.9 28018 lineto
stroke
newpath
58547.5 28018 moveto
58435 28074.2 lineto
58378.8 28186.7 lineto
58378.8 29199.1 lineto
stroke
newpath
59447.4 28074.2 moveto
59334.9 28018 lineto
59109.9 28018 lineto
58997.5 28074.2 lineto
58941.2 28186.7 lineto
58941.2 28636.7 lineto
58997.5 28749.2 lineto
59109.9 28805.4 lineto
59334.9 28805.4 lineto
59447.4 28749.2 lineto
59503.6 28636.7 lineto
59503.6 28524.2 lineto
58941.2 28411.7 lineto
stroke
newpath
59953.6 28074.2 moveto
60066.1 28018 lineto
60291 28018 lineto
60403.5 28074.2 lineto
60459.8 28186.7 lineto
60459.8 28243 lineto
60403.5 28355.5 lineto
60291 28411.7 lineto
60122.3 28411.7 lineto
60009.8 28467.9 lineto
59953.6 28580.4 lineto
59953.6 28636.7 lineto
60009.8 28749.2 lineto
60122.3 28805.4 lineto
60291 28805.4 lineto
60403.5 28749.2 lineto
stroke
newpath
60853.5 27568.1 moveto
60909.7 27624.3 lineto
61022.2 27793 lineto
61078.4 27905.5 lineto
61134.7 28074.2 lineto
61190.9 28355.5 lineto
61190.9 28580.4 lineto
61134.7 28861.6 lineto
61078.4 29030.4 lineto
61022.2 29142.9 lineto
60909.7 29311.6 lineto
60853.5 29367.8 lineto
stroke
newpath
32568.2 26494.8 moveto
33066.6 26993.3 lineto
32568.2 27491.7 lineto
32069.7 26993.3 lineto
32568.2 26494.8 lineto
poly0
0 0 0 setrgbcolor
0 0 0 setrgbcolor
newpath
34813 26458.9 moveto
34138.1 26458.9 lineto
stroke
newpath
34475.5 26458.9 moveto
34475.5 27640.1 lineto
34363 27471.3 lineto
34250.5 27358.8 lineto
34138.1 27302.6 lineto
stroke
newpath
35319.2 26571.4 moveto
35375.4 26515.2 lineto
35319.2 26458.9 lineto
35262.9 26515.2 lineto
35319.2 26571.4 lineto
35319.2 26458.9 lineto
stroke
newpath
36500.3 26458.9 moveto
35825.3 26458.9 lineto
stroke
newpath
36162.8 26458.9 moveto
36162.8 27640.1 lineto
36050.3 27471.3 lineto
35937.8 27358.8 lineto
35825.3 27302.6 lineto
stroke
newpath
37231.4 27640.1 moveto
37343.9 27640.1 lineto
37456.4 27583.8 lineto
37512.6 27527.6 lineto
37568.9 27415.1 lineto
37625.1 27190.1 lineto
37625.1 26908.9 lineto
37568.9 26683.9 lineto
37512.6 26571.4 lineto
37456.4 26515.2 lineto
37343.9 26458.9 lineto
37231.4 26458.9 lineto
37118.9 26515.2 lineto
37062.7 26571.4 lineto
37006.5 26683.9 lineto
36950.2 26908.9 lineto
36950.2 27190.1 lineto
37006.5 27415.1 lineto
37062.7 27527.6 lineto
37118.9 27583.8 lineto
37231.4 27640.1 lineto
stroke
newpath
38356.3 27640.1 moveto
38468.8 27640.1 lineto
38581.3 27583.8 lineto
38637.5 27527.6 lineto
38693.7 27415.1 lineto
38750 27190.1 lineto
38750 26908.9 lineto
38693.7 26683.9 lineto
38637.5 26571.4 lineto
38581.3 26515.2 lineto
38468.8 26458.9 lineto
38356.3 26458.9 lineto
38243.8 26515.2 lineto
38187.6 26571.4 lineto
38131.3 26683.9 lineto
38075.1 26908.9 lineto
38075.1 27190.1 lineto
38131.3 27415.1 lineto
38187.6 27527.6 lineto
38243.8 27583.8 lineto
38356.3 27640.1 lineto
stroke
newpath
39256.2 26458.9 moveto
39256.2 27246.4 lineto
stroke
newpath
39256.2 27133.9 moveto
39312.4 27190.1 lineto
39424.9 27246.4 lineto
39593.6 27246.4 lineto
39706.1 27190.1 lineto
39762.4 27077.6 lineto
39762.4 26458.9 lineto
stroke
newpath
39762.4 27077.6 moveto
39818.6 27190.1 lineto
39931.1 27246.4 lineto
40099.8 27246.4 lineto
40212.3 27190.1 lineto
40268.5 27077.6 lineto
40268.5 26458.9 lineto
stroke
newpath
40831 26458.9 moveto
40831 27246.4 lineto
stroke
newpath
40831 27133.9 moveto
40887.2 27190.1 lineto
40999.7 27246.4 lineto
41168.4 27246.4 lineto
41280.9 27190.1 lineto
41337.2 27077.6 lineto
41337.2 26458.9 lineto
stroke
newpath
41337.2 27077.6 moveto
41393.4 27190.1 lineto
41505.9 27246.4 lineto
41674.6 27246.4 lineto
41787.1 27190.1 lineto
41843.3 27077.6 lineto
41843.3 26458.9 lineto
stroke
newpath
44149.3 27696.3 moveto
43136.9 26177.7 lineto
stroke
newpath
45667.9 27640.1 moveto
45780.4 27640.1 lineto
45892.8 27583.8 lineto
45949.1 27527.6 lineto
46005.3 27415.1 lineto
46061.6 27190.1 lineto
46061.6 26908.9 lineto
46005.3 26683.9 lineto
45949.1 26571.4 lineto
45892.8 26515.2 lineto
45780.4 26458.9 lineto
45667.9 26458.9 lineto
45555.4 26515.2 lineto
45499.1 26571.4 lineto
45442.9 26683.9 lineto
45386.7 26908.9 lineto
45386.7 27190.1 lineto
45442.9 27415.1 lineto
45499.1 27527.6 lineto
45555.4 27583.8 lineto
45667.9 27640.1 lineto
stroke
newpath
46567.8 26571.4 moveto
46624 26515.2 lineto
46567.8 26458.9 lineto
46511.5 26515.2 lineto
46567.8 26571.4 lineto
46567.8 26458.9 lineto
stroke
newpath
47355.2 27640.1 moveto
47467.6 27640.1 lineto
47580.1 27583.8 lineto
47636.4 27527.6 lineto
47692.6 27415.1 lineto
47748.9 27190.1 lineto
47748.9 26908.9 lineto
47692.6 26683.9 lineto
47636.4 26571.4 lineto
47580.1 26515.2 lineto
47467.6 26458.9 lineto
47355.2 26458.9 lineto
47242.7 26515.2 lineto
47186.4 26571.4 lineto
47130.2 26683.9 lineto
47073.9 26908.9 lineto
47073.9 27190.1 lineto
47130.2 27415.1 lineto
47186.4 27527.6 lineto
47242.7 27583.8 lineto
47355.2 27640.1 lineto
stroke
newpath
48761.2 27246.4 moveto
48761.2 26458.9 lineto
stroke
newpath
48480 27696.3 moveto
48198.8 26852.7 lineto
48930 26852.7 lineto
stroke
newpath
49267.4 27640.1 moveto
49998.6 27640.1 lineto
49604.9 27190.1 lineto
49773.6 27190.1 lineto
49886.1 27133.9 lineto
49942.3 27077.6 lineto
49998.6 26965.1 lineto
49998.6 26683.9 lineto
49942.3 26571.4 lineto
49886.1 26515.2 lineto
49773.6 26458.9 lineto
49436.1 26458.9 lineto
49323.7 26515.2 lineto
49267.4 26571.4 lineto
stroke
newpath
50392.3 27640.1 moveto
51123.4 27640.1 lineto
50729.7 27190.1 lineto
50898.5 27190.1 lineto
51011 27133.9 lineto
51067.2 27077.6 lineto
51123.4 26965.1 lineto
51123.4 26683.9 lineto
51067.2 26571.4 lineto
51011 26515.2 lineto
50898.5 26458.9 lineto
50561 26458.9 lineto
50448.5 26515.2 lineto
50392.3 26571.4 lineto
stroke
newpath
51573.4 27640.1 moveto
51573.4 27415.1 lineto
stroke
newpath
52023.3 27640.1 moveto
52023.3 27415.1 lineto
stroke
newpath
53766.9 26009 moveto
53710.6 26065.2 lineto
53598.1 26234 lineto
53541.9 26346.5 lineto
53485.6 26515.2 lineto
53429.4 26796.4 lineto
53429.4 27021.4 lineto
53485.6 27302.6 lineto
53541.9 27471.3 lineto
53598.1 27583.8 lineto
53710.6 27752.5 lineto
53766.9 27808.8 lineto
stroke
newpath
54723 27640.1 moveto
54498 27640.1 lineto
54385.5 27583.8 lineto
54329.3 27527.6 lineto
54216.8 27358.8 lineto
54160.6 27133.9 lineto
54160.6 26683.9 lineto
54216.8 26571.4 lineto
54273 26515.2 lineto
54385.5 26458.9 lineto
54610.5 26458.9 lineto
54723 26515.2 lineto
54779.2 26571.4 lineto
54835.5 26683.9 lineto
54835.5 26965.1 lineto
54779.2 27077.6 lineto
54723 27133.9 lineto
54610.5 27190.1 lineto
54385.5 27190.1 lineto
54273 27133.9 lineto
54216.8 27077.6 lineto
54160.6 26965.1 lineto
stroke
newpath
56241.5 26458.9 moveto
56241.5 27640.1 lineto
stroke
newpath
56747.7 26458.9 moveto
56747.7 27077.6 lineto
56691.5 27190.1 lineto
56579 27246.4 lineto
56410.3 27246.4 lineto
56297.8 27190.1 lineto
56241.5 27133.9 lineto
stroke
newpath
57478.9 26458.9 moveto
57366.4 26515.2 lineto
57310.2 26571.4 lineto
57253.9 26683.9 lineto
57253.9 27021.4 lineto
57310.2 27133.9 lineto
57366.4 27190.1 lineto
57478.9 27246.4 lineto
57647.6 27246.4 lineto
57760.1 27190.1 lineto
57816.4 27133.9 lineto
57872.6 27021.4 lineto
57872.6 26683.9 lineto
57816.4 26571.4 lineto
57760.1 26515.2 lineto
57647.6 26458.9 lineto
57478.9 26458.9 lineto
stroke
newpath
58547.5 26458.9 moveto
58435 26515.2 lineto
58378.8 26627.7 lineto
58378.8 27640.1 lineto
stroke
newpath
59447.4 26515.2 moveto
59334.9 26458.9 lineto
59109.9 26458.9 lineto
58997.5 26515.2 lineto
58941.2 26627.7 lineto
58941.2 27077.6 lineto
58997.5 27190.1 lineto
59109.9 27246.4 lineto
59334.9 27246.4 lineto
59447.4 27190.1 lineto
59503.6 27077.6 lineto
59503.6 26965.1 lineto
58941.2 26852.7 lineto
stroke
newpath
59953.6 26515.2 moveto
60066.1 26458.9 lineto
60291 26458.9 lineto
60403.5 26515.2 lineto
60459.8 26627.7 lineto
60459.8 26683.9 lineto
60403.5 26796.4 lineto
60291 26852.7 lineto
60122.3 26852.7 lineto
60009.8 26908.9 lineto
59953.6 27021.4 lineto
59953.6 27077.6 lineto
60009.8 27190.1 lineto
60122.3 27246.4 lineto
60291 27246.4 lineto
60403.5 27190.1 lineto
stroke
newpath
60853.5 26009 moveto
60909.7 26065.2 lineto
61022.2 26234 lineto
61078.4 26346.5 lineto
61134.7 26515.2 lineto
61190.9 26796.4 lineto
61190.9 27021.4 lineto
61134.7 27302.6 lineto
61078.4 27471.3 lineto
61022.2 27583.8 lineto
60909.7 27752.5 lineto
60853.5 27808.8 lineto
stroke
newpath
31888.5 26023.3 moveto
33066.6 24845.1 lineto
stroke
newpath
33066.6 26023.3 moveto
31888.5 24845.1 lineto
stroke
32477.6 25434.2 589.079 cir0
0 0 0 setrgbcolor
0 0 0 setrgbcolor
newpath
34813 24899.9 moveto
34138.1 24899.9 lineto
stroke
newpath
34475.5 24899.9 moveto
34475.5 26081 lineto
34363 25912.3 lineto
34250.5 25799.8 lineto
34138.1 25743.5 lineto
stroke
newpath
35319.2 25012.4 moveto
35375.4 24956.1 lineto
35319.2 24899.9 lineto
35262.9 24956.1 lineto
35319.2 25012.4 lineto
35319.2 24899.9 lineto
stroke
newpath
35769.1 26081 moveto
36500.3 26081 lineto
36106.6 25631.1 lineto
36275.3 25631.1 lineto
36387.8 25574.8 lineto
36444 25518.6 lineto
36500.3 25406.1 lineto
36500.3 25124.9 lineto
36444 25012.4 lineto
36387.8 24956.1 lineto
36275.3 24899.9 lineto
35937.8 24899.9 lineto
35825.3 24956.1 lineto
35769.1 25012.4 lineto
stroke
newpath
37231.4 26081 moveto
37343.9 26081 lineto
37456.4 26024.8 lineto
37512.6 25968.5 lineto
37568.9 25856 lineto
37625.1 25631.1 lineto
37625.1 25349.8 lineto
37568.9 25124.9 lineto
37512.6 25012.4 lineto
37456.4 24956.1 lineto
37343.9 24899.9 lineto
37231.4 24899.9 lineto
37118.9 24956.1 lineto
37062.7 25012.4 lineto
37006.5 25124.9 lineto
36950.2 25349.8 lineto
36950.2 25631.1 lineto
37006.5 25856 lineto
37062.7 25968.5 lineto
37118.9 26024.8 lineto
37231.4 26081 lineto
stroke
newpath
38356.3 26081 moveto
38468.8 26081 lineto
38581.3 26024.8 lineto
38637.5 25968.5 lineto
38693.7 25856 lineto
38750 25631.1 lineto
38750 25349.8 lineto
38693.7 25124.9 lineto
38637.5 25012.4 lineto
38581.3 24956.1 lineto
38468.8 24899.9 lineto
38356.3 24899.9 lineto
38243.8 24956.1 lineto
38187.6 25012.4 lineto
38131.3 25124.9 lineto
38075.1 25349.8 lineto
38075.1 25631.1 lineto
38131.3 25856 lineto
38187.6 25968.5 lineto
38243.8 26024.8 lineto
38356.3 26081 lineto
stroke
newpath
39256.2 24899.9 moveto
39256.2 25687.3 lineto
stroke
newpath
39256.2 25574.8 moveto
39312.4 25631.1 lineto
39424.9 25687.3 lineto
39593.6 25687.3 lineto
39706.1 25631.1 lineto
39762.4 25518.6 lineto
39762.4 24899.9 lineto
stroke
newpath
39762.4 25518.6 moveto
39818.6 25631.1 lineto
39931.1 25687.3 lineto
40099.8 25687.3 lineto
40212.3 25631.1 lineto
40268.5 25518.6 lineto
40268.5 24899.9 lineto
stroke
newpath
40831 24899.9 moveto
40831 25687.3 lineto
stroke
newpath
40831 25574.8 moveto
40887.2 25631.1 lineto
40999.7 25687.3 lineto
41168.4 25687.3 lineto
41280.9 25631.1 lineto
41337.2 25518.6 lineto
41337.2 24899.9 lineto
stroke
newpath
41337.2 25518.6 moveto
41393.4 25631.1 lineto
41505.9 25687.3 lineto
41674.6 25687.3 lineto
41787.1 25631.1 lineto
41843.3 25518.6 lineto
41843.3 24899.9 lineto
stroke
newpath
44149.3 26137.2 moveto
43136.9 24618.7 lineto
stroke
newpath
45667.9 26081 moveto
45780.4 26081 lineto
45892.8 26024.8 lineto
45949.1 25968.5 lineto
46005.3 25856 lineto
46061.6 25631.1 lineto
46061.6 25349.8 lineto
46005.3 25124.9 lineto
45949.1 25012.4 lineto
45892.8 24956.1 lineto
45780.4 24899.9 lineto
45667.9 24899.9 lineto
45555.4 24956.1 lineto
45499.1 25012.4 lineto
45442.9 25124.9 lineto
45386.7 25349.8 lineto
45386.7 25631.1 lineto
45442.9 25856 lineto
45499.1 25968.5 lineto
45555.4 26024.8 lineto
45667.9 26081 lineto
stroke
newpath
46567.8 25012.4 moveto
46624 24956.1 lineto
46567.8 24899.9 lineto
46511.5 24956.1 lineto
46567.8 25012.4 lineto
46567.8 24899.9 lineto
stroke
newpath
47355.2 26081 moveto
47467.6 26081 lineto
47580.1 26024.8 lineto
47636.4 25968.5 lineto
47692.6 25856 lineto
47748.9 25631.1 lineto
47748.9 25349.8 lineto
47692.6 25124.9 lineto
47636.4 25012.4 lineto
47580.1 24956.1 lineto
47467.6 24899.9 lineto
47355.2 24899.9 lineto
47242.7 24956.1 lineto
47186.4 25012.4 lineto
47130.2 25124.9 lineto
47073.9 25349.8 lineto
47073.9 25631.1 lineto
47130.2 25856 lineto
47186.4 25968.5 lineto
47242.7 26024.8 lineto
47355.2 26081 lineto
stroke
newpath
48817.5 26081 moveto
48255 26081 lineto
48198.8 25518.6 lineto
48255 25574.8 lineto
48367.5 25631.1 lineto
48648.7 25631.1 lineto
48761.2 25574.8 lineto
48817.5 25518.6 lineto
48873.7 25406.1 lineto
48873.7 25124.9 lineto
48817.5 25012.4 lineto
48761.2 24956.1 lineto
48648.7 24899.9 lineto
48367.5 24899.9 lineto
48255 24956.1 lineto
48198.8 25012.4 lineto
stroke
newpath
49998.6 24899.9 moveto
49323.7 24899.9 lineto
stroke
newpath
49661.1 24899.9 moveto
49661.1 26081 lineto
49548.6 25912.3 lineto
49436.1 25799.8 lineto
49323.7 25743.5 lineto
stroke
newpath
50448.5 25968.5 moveto
50504.8 26024.8 lineto
50617.3 26081 lineto
50898.5 26081 lineto
51011 26024.8 lineto
51067.2 25968.5 lineto
51123.4 25856 lineto
51123.4 25743.5 lineto
51067.2 25574.8 lineto
50392.3 24899.9 lineto
51123.4 24899.9 lineto
stroke
newpath
51573.4 26081 moveto
51573.4 25856 lineto
stroke
newpath
52023.3 26081 moveto
52023.3 25856 lineto
stroke
newpath
53766.9 24450 moveto
53710.6 24506.2 lineto
53598.1 24674.9 lineto
53541.9 24787.4 lineto
53485.6 24956.1 lineto
53429.4 25237.4 lineto
53429.4 25462.3 lineto
53485.6 25743.5 lineto
53541.9 25912.3 lineto
53598.1 26024.8 lineto
53710.6 26193.5 lineto
53766.9 26249.7 lineto
stroke
newpath
54160.6 25968.5 moveto
54216.8 26024.8 lineto
54329.3 26081 lineto
54610.5 26081 lineto
54723 26024.8 lineto
54779.2 25968.5 lineto
54835.5 25856 lineto
54835.5 25743.5 lineto
54779.2 25574.8 lineto
54104.3 24899.9 lineto
54835.5 24899.9 lineto
stroke
newpath
55566.6 26081 moveto
55679.1 26081 lineto
55791.6 26024.8 lineto
55847.8 25968.5 lineto
55904.1 25856 lineto
55960.3 25631.1 lineto
55960.3 25349.8 lineto
55904.1 25124.9 lineto
55847.8 25012.4 lineto
55791.6 24956.1 lineto
55679.1 24899.9 lineto
55566.6 24899.9 lineto
55454.1 24956.1 lineto
55397.9 25012.4 lineto
55341.7 25124.9 lineto
55285.4 25349.8 lineto
55285.4 25631.1 lineto
55341.7 25856 lineto
55397.9 25968.5 lineto
55454.1 26024.8 lineto
55566.6 26081 lineto
stroke
newpath
57366.4 24899.9 moveto
57366.4 26081 lineto
stroke
newpath
57872.6 24899.9 moveto
57872.6 25518.6 lineto
57816.4 25631.1 lineto
57703.9 25687.3 lineto
57535.1 25687.3 lineto
57422.7 25631.1 lineto
57366.4 25574.8 lineto
stroke
newpath
58603.8 24899.9 moveto
58491.3 24956.1 lineto
58435 25012.4 lineto
58378.8 25124.9 lineto
58378.8 25462.3 lineto
58435 25574.8 lineto
58491.3 25631.1 lineto
58603.8 25687.3 lineto
58772.5 25687.3 lineto
58885 25631.1 lineto
58941.2 25574.8 lineto
58997.5 25462.3 lineto
58997.5 25124.9 lineto
58941.2 25012.4 lineto
58885 24956.1 lineto
58772.5 24899.9 lineto
58603.8 24899.9 lineto
stroke
newpath
59672.4 24899.9 moveto
59559.9 24956.1 lineto
59503.6 25068.6 lineto
59503.6 26081 lineto
stroke
newpath
60572.3 24956.1 moveto
60459.8 24899.9 lineto
60234.8 24899.9 lineto
60122.3 24956.1 lineto
60066.1 25068.6 lineto
60066.1 25518.6 lineto
60122.3 25631.1 lineto
60234.8 25687.3 lineto
60459.8 25687.3 lineto
60572.3 25631.1 lineto
60628.5 25518.6 lineto
60628.5 25406.1 lineto
60066.1 25293.6 lineto
stroke
newpath
61078.4 24956.1 moveto
61190.9 24899.9 lineto
61415.9 24899.9 lineto
61528.4 24956.1 lineto
61584.6 25068.6 lineto
61584.6 25124.9 lineto
61528.4 25237.4 lineto
61415.9 25293.6 lineto
61247.2 25293.6 lineto
61134.7 25349.8 lineto
61078.4 25462.3 lineto
61078.4 25518.6 lineto
61134.7 25631.1 lineto
61247.2 25687.3 lineto
61415.9 25687.3 lineto
61528.4 25631.1 lineto
stroke
newpath
61978.3 24450 moveto
62034.6 24506.2 lineto
62147.1 24674.9 lineto
62203.3 24787.4 lineto
62259.5 24956.1 lineto
62315.8 25237.4 lineto
62315.8 25462.3 lineto
62259.5 25743.5 lineto
62203.3 25912.3 lineto
62147.1 26024.8 lineto
62034.6 26193.5 lineto
61978.3 26249.7 lineto
stroke
newpath
31870.3 24342.4 moveto
33066.6 23146.1 lineto
stroke
newpath
33066.6 24342.4 moveto
31870.3 23146.1 lineto
stroke
newpath
32468.5 24342.4 moveto
32468.5 23146.1 lineto
stroke
newpath
31870.3 23744.2 moveto
33066.6 23744.2 lineto
stroke
0 0 0 setrgbcolor
0 0 0 setrgbcolor
newpath
34813 23209.9 moveto
34138.1 23209.9 lineto
stroke
newpath
34475.5 23209.9 moveto
34475.5 24391 lineto
34363 24222.3 lineto
34250.5 24109.8 lineto
34138.1 24053.6 lineto
stroke
newpath
35319.2 23322.4 moveto
35375.4 23266.2 lineto
35319.2 23209.9 lineto
35262.9 23266.2 lineto
35319.2 23322.4 lineto
35319.2 23209.9 lineto
stroke
newpath
35769.1 24391 moveto
36500.3 24391 lineto
36106.6 23941.1 lineto
36275.3 23941.1 lineto
36387.8 23884.8 lineto
36444 23828.6 lineto
36500.3 23716.1 lineto
36500.3 23434.9 lineto
36444 23322.4 lineto
36387.8 23266.2 lineto
36275.3 23209.9 lineto
35937.8 23209.9 lineto
35825.3 23266.2 lineto
35769.1 23322.4 lineto
stroke
newpath
36950.2 24278.5 moveto
37006.5 24334.8 lineto
37118.9 24391 lineto
37400.2 24391 lineto
37512.6 24334.8 lineto
37568.9 24278.5 lineto
37625.1 24166.1 lineto
37625.1 24053.6 lineto
37568.9 23884.8 lineto
36894 23209.9 lineto
37625.1 23209.9 lineto
stroke
newpath
38356.3 24391 moveto
38468.8 24391 lineto
38581.3 24334.8 lineto
38637.5 24278.5 lineto
38693.7 24166.1 lineto
38750 23941.1 lineto
38750 23659.9 lineto
38693.7 23434.9 lineto
38637.5 23322.4 lineto
38581.3 23266.2 lineto
38468.8 23209.9 lineto
38356.3 23209.9 lineto
38243.8 23266.2 lineto
38187.6 23322.4 lineto
38131.3 23434.9 lineto
38075.1 23659.9 lineto
38075.1 23941.1 lineto
38131.3 24166.1 lineto
38187.6 24278.5 lineto
38243.8 24334.8 lineto
38356.3 24391 lineto
stroke
newpath
39256.2 23209.9 moveto
39256.2 23997.3 lineto
stroke
newpath
39256.2 23884.8 moveto
39312.4 23941.1 lineto
39424.9 23997.3 lineto
39593.6 23997.3 lineto
39706.1 23941.1 lineto
39762.4 23828.6 lineto
39762.4 23209.9 lineto
stroke
newpath
39762.4 23828.6 moveto
39818.6 23941.1 lineto
39931.1 23997.3 lineto
40099.8 23997.3 lineto
40212.3 23941.1 lineto
40268.5 23828.6 lineto
40268.5 23209.9 lineto
stroke
newpath
40831 23209.9 moveto
40831 23997.3 lineto
stroke
newpath
40831 23884.8 moveto
40887.2 23941.1 lineto
40999.7 23997.3 lineto
41168.4 23997.3 lineto
41280.9 23941.1 lineto
41337.2 23828.6 lineto
41337.2 23209.9 lineto
stroke
newpath
41337.2 23828.6 moveto
41393.4 23941.1 lineto
41505.9 23997.3 lineto
41674.6 23997.3 lineto
41787.1 23941.1 lineto
41843.3 23828.6 lineto
41843.3 23209.9 lineto
stroke
newpath
44149.3 24447.3 moveto
43136.9 22928.7 lineto
stroke
newpath
45667.9 24391 moveto
45780.4 24391 lineto
45892.8 24334.8 lineto
45949.1 24278.5 lineto
46005.3 24166.1 lineto
46061.6 23941.1 lineto
46061.6 23659.9 lineto
46005.3 23434.9 lineto
45949.1 23322.4 lineto
45892.8 23266.2 lineto
45780.4 23209.9 lineto
45667.9 23209.9 lineto
45555.4 23266.2 lineto
45499.1 23322.4 lineto
45442.9 23434.9 lineto
45386.7 23659.9 lineto
45386.7 23941.1 lineto
45442.9 24166.1 lineto
45499.1 24278.5 lineto
45555.4 24334.8 lineto
45667.9 24391 lineto
stroke
newpath
46567.8 23322.4 moveto
46624 23266.2 lineto
46567.8 23209.9 lineto
46511.5 23266.2 lineto
46567.8 23322.4 lineto
46567.8 23209.9 lineto
stroke
newpath
47355.2 24391 moveto
47467.6 24391 lineto
47580.1 24334.8 lineto
47636.4 24278.5 lineto
47692.6 24166.1 lineto
47748.9 23941.1 lineto
47748.9 23659.9 lineto
47692.6 23434.9 lineto
47636.4 23322.4 lineto
47580.1 23266.2 lineto
47467.6 23209.9 lineto
47355.2 23209.9 lineto
47242.7 23266.2 lineto
47186.4 23322.4 lineto
47130.2 23434.9 lineto
47073.9 23659.9 lineto
47073.9 23941.1 lineto
47130.2 24166.1 lineto
47186.4 24278.5 lineto
47242.7 24334.8 lineto
47355.2 24391 lineto
stroke
newpath
48817.5 24391 moveto
48255 24391 lineto
48198.8 23828.6 lineto
48255 23884.8 lineto
48367.5 23941.1 lineto
48648.7 23941.1 lineto
48761.2 23884.8 lineto
48817.5 23828.6 lineto
48873.7 23716.1 lineto
48873.7 23434.9 lineto
48817.5 23322.4 lineto
48761.2 23266.2 lineto
48648.7 23209.9 lineto
48367.5 23209.9 lineto
48255 23266.2 lineto
48198.8 23322.4 lineto
stroke
newpath
49323.7 24278.5 moveto
49379.9 24334.8 lineto
49492.4 24391 lineto
49773.6 24391 lineto
49886.1 24334.8 lineto
49942.3 24278.5 lineto
49998.6 24166.1 lineto
49998.6 24053.6 lineto
49942.3 23884.8 lineto
49267.4 23209.9 lineto
49998.6 23209.9 lineto
stroke
newpath
50729.7 24391 moveto
50842.2 24391 lineto
50954.7 24334.8 lineto
51011 24278.5 lineto
51067.2 24166.1 lineto
51123.4 23941.1 lineto
51123.4 23659.9 lineto
51067.2 23434.9 lineto
51011 23322.4 lineto
50954.7 23266.2 lineto
50842.2 23209.9 lineto
50729.7 23209.9 lineto
50617.3 23266.2 lineto
50561 23322.4 lineto
50504.8 23434.9 lineto
50448.5 23659.9 lineto
50448.5 23941.1 lineto
50504.8 24166.1 lineto
50561 24278.5 lineto
50617.3 24334.8 lineto
50729.7 24391 lineto
stroke
newpath
51573.4 24391 moveto
51573.4 24166.1 lineto
stroke
newpath
52023.3 24391 moveto
52023.3 24166.1 lineto
stroke
newpath
53766.9 22760 moveto
53710.6 22816.2 lineto
53598.1 22985 lineto
53541.9 23097.4 lineto
53485.6 23266.2 lineto
53429.4 23547.4 lineto
53429.4 23772.4 lineto
53485.6 24053.6 lineto
53541.9 24222.3 lineto
53598.1 24334.8 lineto
53710.6 24503.5 lineto
53766.9 24559.8 lineto
stroke
newpath
54160.6 24278.5 moveto
54216.8 24334.8 lineto
54329.3 24391 lineto
54610.5 24391 lineto
54723 24334.8 lineto
54779.2 24278.5 lineto
54835.5 24166.1 lineto
54835.5 24053.6 lineto
54779.2 23884.8 lineto
54104.3 23209.9 lineto
54835.5 23209.9 lineto
stroke
newpath
56241.5 23209.9 moveto
56241.5 24391 lineto
stroke
newpath
56747.7 23209.9 moveto
56747.7 23828.6 lineto
56691.5 23941.1 lineto
56579 23997.3 lineto
56410.3 23997.3 lineto
56297.8 23941.1 lineto
56241.5 23884.8 lineto
stroke
newpath
57478.9 23209.9 moveto
57366.4 23266.2 lineto
57310.2 23322.4 lineto
57253.9 23434.9 lineto
57253.9 23772.4 lineto
57310.2 23884.8 lineto
57366.4 23941.1 lineto
57478.9 23997.3 lineto
57647.6 23997.3 lineto
57760.1 23941.1 lineto
57816.4 23884.8 lineto
57872.6 23772.4 lineto
57872.6 23434.9 lineto
57816.4 23322.4 lineto
57760.1 23266.2 lineto
57647.6 23209.9 lineto
57478.9 23209.9 lineto
stroke
newpath
58547.5 23209.9 moveto
58435 23266.2 lineto
58378.8 23378.7 lineto
58378.8 24391 lineto
stroke
newpath
59447.4 23266.2 moveto
59334.9 23209.9 lineto
59109.9 23209.9 lineto
58997.5 23266.2 lineto
58941.2 23378.7 lineto
58941.2 23828.6 lineto
58997.5 23941.1 lineto
59109.9 23997.3 lineto
59334.9 23997.3 lineto
59447.4 23941.1 lineto
59503.6 23828.6 lineto
59503.6 23716.1 lineto
58941.2 23603.6 lineto
stroke
newpath
59953.6 23266.2 moveto
60066.1 23209.9 lineto
60291 23209.9 lineto
60403.5 23266.2 lineto
60459.8 23378.7 lineto
60459.8 23434.9 lineto
60403.5 23547.4 lineto
60291 23603.6 lineto
60122.3 23603.6 lineto
60009.8 23659.9 lineto
59953.6 23772.4 lineto
59953.6 23828.6 lineto
60009.8 23941.1 lineto
60122.3 23997.3 lineto
60291 23997.3 lineto
60403.5 23941.1 lineto
stroke
newpath
60853.5 22760 moveto
60909.7 22816.2 lineto
61022.2 22985 lineto
61078.4 23097.4 lineto
61134.7 23266.2 lineto
61190.9 23547.4 lineto
61190.9 23772.4 lineto
61134.7 24053.6 lineto
61078.4 24222.3 lineto
61022.2 24334.8 lineto
60909.7 24503.5 lineto
60853.5 24559.8 lineto
stroke
showpage
grestore
%%EOF
