%!PS-Adobe-3.0
%%Creator: PCBNEW
%%CreationDate: Mon Sep 13 15:32:13 2021
%%Title: /Users/jeffrey/Desktop/__LED_Warm-Cool/PCB_for_ordering/LED_Driver/LED_Driver-NPTH-drl_map.ps
%%Pages: 1
%%PageOrder: Ascend
%%BoundingBox: 0 0 596 842
%%DocumentMedia: A4 595 842 0 () ()
%%Orientation: Landscape
%%EndComments
%%BeginProlog
/line { newpath moveto lineto stroke } bind def
/cir0 { newpath 0 360 arc stroke } bind def
/cir1 { newpath 0 360 arc gsave fill grestore stroke } bind def
/cir2 { newpath 0 360 arc gsave fill grestore stroke } bind def
/arc0 { newpath arc stroke } bind def
/arc1 { newpath 4 index 4 index moveto arc closepath gsave fill
    grestore stroke } bind def
/arc2 { newpath 4 index 4 index moveto arc closepath gsave fill
    grestore stroke } bind def
/poly0 { stroke } bind def
/poly1 { closepath gsave fill grestore stroke } bind def
/poly2 { closepath gsave fill grestore stroke } bind def
/rect0 { rectstroke } bind def
/rect1 { rectfill } bind def
/rect2 { rectfill } bind def
/linemode0 { 0 setlinecap 0 setlinejoin 0 setlinewidth } bind def
/linemode1 { 1 setlinecap 1 setlinejoin } bind def
/dashedline { [200] 100 setdash } bind def
/solidline { [] 0 setdash } bind def
/phantomshow { moveto
    /KicadFont findfont 0.000001 scalefont setfont
    show } bind def
/textshow { gsave
    findfont exch scalefont setfont concat 1 scale 0 0 moveto show
    } bind def
/reencodefont {
  findfont dup length dict begin
  { 1 index /FID ne
    { def }
    { pop pop } ifelse
  } forall
  /Encoding ISOLatin1Encoding def
  currentdict
  end } bind def
/KicadFont /Helvetica reencodefont definefont pop
/KicadFont-Bold /Helvetica-Bold reencodefont definefont pop
/KicadFont-Oblique /Helvetica-Oblique reencodefont definefont pop
/KicadFont-BoldOblique /Helvetica-BoldOblique reencodefont definefont pop
%%EndProlog
%%Page: 1 1
%%BeginPageSetup
gsave
0.0072 0.0072 scale
linemode1
82680 0 translate 90 rotate
115.097 setlinewidth
%%EndPageSetup
0 0 0 setrgbcolor
45.3138 setlinewidth
81121.9 76001.5 2718.83 -0 90 arc0
0 0 0 setrgbcolor
81121.9 39750.5 2718.83 -90 -0 arc0
0 0 0 setrgbcolor
35808.1 39750.5 2718.83 180 270 arc0
0 0 0 setrgbcolor
35808.1 76001.5 2718.83 90 180 arc0
0 0 0 setrgbcolor
newpath
83840.7 39750.5 moveto
83840.7 76001.5 lineto
stroke
0 0 0 setrgbcolor
newpath
35808.1 37031.7 moveto
81121.9 37031.7 lineto
stroke
0 0 0 setrgbcolor
newpath
33089.3 76001.5 moveto
33089.3 39750.5 lineto
stroke
0 0 0 setrgbcolor
newpath
81121.9 78720.3 moveto
35808.1 78720.3 lineto
stroke
78.7399 setlinewidth
newpath
66825.4 42265.4 moveto
68230.1 40860.7 lineto
stroke
newpath
68230.1 42265.4 moveto
66825.4 40860.7 lineto
stroke
35808.1 76001.5 1223.47 cir0
35808.1 39750.5 1223.47 cir0
81121.9 76001.5 1223.47 cir0
81121.9 39750.5 1223.47 cir0
118.11 setlinewidth
0 0 0 setrgbcolor
0 0 0 setrgbcolor
newpath
34194.3 35175.5 moveto
34194.3 36356.6 lineto
34475.5 36356.6 lineto
34644.2 36300.3 lineto
34756.7 36187.9 lineto
34813 36075.4 lineto
34869.2 35850.4 lineto
34869.2 35681.7 lineto
34813 35456.7 lineto
34756.7 35344.2 lineto
34644.2 35231.7 lineto
34475.5 35175.5 lineto
34194.3 35175.5 lineto
stroke
newpath
35375.4 35175.5 moveto
35375.4 35962.9 lineto
stroke
newpath
35375.4 35737.9 moveto
35431.6 35850.4 lineto
35487.9 35906.6 lineto
35600.4 35962.9 lineto
35712.9 35962.9 lineto
stroke
newpath
36106.6 35175.5 moveto
36106.6 35962.9 lineto
stroke
newpath
36106.6 36356.6 moveto
36050.3 36300.3 lineto
36106.6 36244.1 lineto
36162.8 36300.3 lineto
36106.6 36356.6 lineto
36106.6 36244.1 lineto
stroke
newpath
36837.7 35175.5 moveto
36725.2 35231.7 lineto
36669 35344.2 lineto
36669 36356.6 lineto
stroke
newpath
37456.4 35175.5 moveto
37343.9 35231.7 lineto
37287.7 35344.2 lineto
37287.7 36356.6 lineto
stroke
newpath
38806.2 35175.5 moveto
38806.2 36356.6 lineto
39199.9 35512.9 lineto
39593.6 36356.6 lineto
39593.6 35175.5 lineto
stroke
newpath
40662.2 35175.5 moveto
40662.2 35794.2 lineto
40606 35906.6 lineto
40493.5 35962.9 lineto
40268.5 35962.9 lineto
40156.1 35906.6 lineto
stroke
newpath
40662.2 35231.7 moveto
40549.8 35175.5 lineto
40268.5 35175.5 lineto
40156.1 35231.7 lineto
40099.8 35344.2 lineto
40099.8 35456.7 lineto
40156.1 35569.2 lineto
40268.5 35625.4 lineto
40549.8 35625.4 lineto
40662.2 35681.7 lineto
stroke
newpath
41224.7 35962.9 moveto
41224.7 34781.8 lineto
stroke
newpath
41224.7 35906.6 moveto
41337.2 35962.9 lineto
41562.1 35962.9 lineto
41674.6 35906.6 lineto
41730.9 35850.4 lineto
41787.1 35737.9 lineto
41787.1 35400.5 lineto
41730.9 35288 lineto
41674.6 35231.7 lineto
41562.1 35175.5 lineto
41337.2 35175.5 lineto
41224.7 35231.7 lineto
stroke
newpath
42293.3 35288 moveto
42349.5 35231.7 lineto
42293.3 35175.5 lineto
42237 35231.7 lineto
42293.3 35288 lineto
42293.3 35175.5 lineto
stroke
newpath
42293.3 35906.6 moveto
42349.5 35850.4 lineto
42293.3 35794.2 lineto
42237 35850.4 lineto
42293.3 35906.6 lineto
42293.3 35794.2 lineto
stroke
newpath
31661.9 33931.8 moveto
33066.6 32527.1 lineto
stroke
newpath
33066.6 33931.8 moveto
31661.9 32527.1 lineto
stroke
0 0 0 setrgbcolor
0 0 0 setrgbcolor
newpath
34813 32695.2 moveto
34138.1 32695.2 lineto
stroke
newpath
34475.5 32695.2 moveto
34475.5 33876.3 lineto
34363 33707.5 lineto
34250.5 33595.1 lineto
34138.1 33538.8 lineto
stroke
newpath
35319.2 32807.7 moveto
35375.4 32751.4 lineto
35319.2 32695.2 lineto
35262.9 32751.4 lineto
35319.2 32807.7 lineto
35319.2 32695.2 lineto
stroke
newpath
36444 33876.3 moveto
35881.6 33876.3 lineto
35825.3 33313.8 lineto
35881.6 33370.1 lineto
35994.1 33426.3 lineto
36275.3 33426.3 lineto
36387.8 33370.1 lineto
36444 33313.8 lineto
36500.3 33201.4 lineto
36500.3 32920.1 lineto
36444 32807.7 lineto
36387.8 32751.4 lineto
36275.3 32695.2 lineto
35994.1 32695.2 lineto
35881.6 32751.4 lineto
35825.3 32807.7 lineto
stroke
newpath
37568.9 33876.3 moveto
37006.5 33876.3 lineto
36950.2 33313.8 lineto
37006.5 33370.1 lineto
37118.9 33426.3 lineto
37400.2 33426.3 lineto
37512.6 33370.1 lineto
37568.9 33313.8 lineto
37625.1 33201.4 lineto
37625.1 32920.1 lineto
37568.9 32807.7 lineto
37512.6 32751.4 lineto
37400.2 32695.2 lineto
37118.9 32695.2 lineto
37006.5 32751.4 lineto
36950.2 32807.7 lineto
stroke
newpath
38356.3 33876.3 moveto
38468.8 33876.3 lineto
38581.3 33820 lineto
38637.5 33763.8 lineto
38693.7 33651.3 lineto
38750 33426.3 lineto
38750 33145.1 lineto
38693.7 32920.1 lineto
38637.5 32807.7 lineto
38581.3 32751.4 lineto
38468.8 32695.2 lineto
38356.3 32695.2 lineto
38243.8 32751.4 lineto
38187.6 32807.7 lineto
38131.3 32920.1 lineto
38075.1 33145.1 lineto
38075.1 33426.3 lineto
38131.3 33651.3 lineto
38187.6 33763.8 lineto
38243.8 33820 lineto
38356.3 33876.3 lineto
stroke
newpath
39256.2 32695.2 moveto
39256.2 33482.6 lineto
stroke
newpath
39256.2 33370.1 moveto
39312.4 33426.3 lineto
39424.9 33482.6 lineto
39593.6 33482.6 lineto
39706.1 33426.3 lineto
39762.4 33313.8 lineto
39762.4 32695.2 lineto
stroke
newpath
39762.4 33313.8 moveto
39818.6 33426.3 lineto
39931.1 33482.6 lineto
40099.8 33482.6 lineto
40212.3 33426.3 lineto
40268.5 33313.8 lineto
40268.5 32695.2 lineto
stroke
newpath
40831 32695.2 moveto
40831 33482.6 lineto
stroke
newpath
40831 33370.1 moveto
40887.2 33426.3 lineto
40999.7 33482.6 lineto
41168.4 33482.6 lineto
41280.9 33426.3 lineto
41337.2 33313.8 lineto
41337.2 32695.2 lineto
stroke
newpath
41337.2 33313.8 moveto
41393.4 33426.3 lineto
41505.9 33482.6 lineto
41674.6 33482.6 lineto
41787.1 33426.3 lineto
41843.3 33313.8 lineto
41843.3 32695.2 lineto
stroke
newpath
44149.3 33932.5 moveto
43136.9 32414 lineto
stroke
newpath
45667.9 33876.3 moveto
45780.4 33876.3 lineto
45892.8 33820 lineto
45949.1 33763.8 lineto
46005.3 33651.3 lineto
46061.6 33426.3 lineto
46061.6 33145.1 lineto
46005.3 32920.1 lineto
45949.1 32807.7 lineto
45892.8 32751.4 lineto
45780.4 32695.2 lineto
45667.9 32695.2 lineto
45555.4 32751.4 lineto
45499.1 32807.7 lineto
45442.9 32920.1 lineto
45386.7 33145.1 lineto
45386.7 33426.3 lineto
45442.9 33651.3 lineto
45499.1 33763.8 lineto
45555.4 33820 lineto
45667.9 33876.3 lineto
stroke
newpath
46567.8 32807.7 moveto
46624 32751.4 lineto
46567.8 32695.2 lineto
46511.5 32751.4 lineto
46567.8 32807.7 lineto
46567.8 32695.2 lineto
stroke
newpath
47355.2 33876.3 moveto
47467.6 33876.3 lineto
47580.1 33820 lineto
47636.4 33763.8 lineto
47692.6 33651.3 lineto
47748.9 33426.3 lineto
47748.9 33145.1 lineto
47692.6 32920.1 lineto
47636.4 32807.7 lineto
47580.1 32751.4 lineto
47467.6 32695.2 lineto
47355.2 32695.2 lineto
47242.7 32751.4 lineto
47186.4 32807.7 lineto
47130.2 32920.1 lineto
47073.9 33145.1 lineto
47073.9 33426.3 lineto
47130.2 33651.3 lineto
47186.4 33763.8 lineto
47242.7 33820 lineto
47355.2 33876.3 lineto
stroke
newpath
48761.2 33876.3 moveto
48536.3 33876.3 lineto
48423.8 33820 lineto
48367.5 33763.8 lineto
48255 33595.1 lineto
48198.8 33370.1 lineto
48198.8 32920.1 lineto
48255 32807.7 lineto
48311.3 32751.4 lineto
48423.8 32695.2 lineto
48648.7 32695.2 lineto
48761.2 32751.4 lineto
48817.5 32807.7 lineto
48873.7 32920.1 lineto
48873.7 33201.4 lineto
48817.5 33313.8 lineto
48761.2 33370.1 lineto
48648.7 33426.3 lineto
48423.8 33426.3 lineto
48311.3 33370.1 lineto
48255 33313.8 lineto
48198.8 33201.4 lineto
stroke
newpath
49998.6 32695.2 moveto
49323.7 32695.2 lineto
stroke
newpath
49661.1 32695.2 moveto
49661.1 33876.3 lineto
49548.6 33707.5 lineto
49436.1 33595.1 lineto
49323.7 33538.8 lineto
stroke
newpath
50729.7 33876.3 moveto
50842.2 33876.3 lineto
50954.7 33820 lineto
51011 33763.8 lineto
51067.2 33651.3 lineto
51123.4 33426.3 lineto
51123.4 33145.1 lineto
51067.2 32920.1 lineto
51011 32807.7 lineto
50954.7 32751.4 lineto
50842.2 32695.2 lineto
50729.7 32695.2 lineto
50617.3 32751.4 lineto
50561 32807.7 lineto
50504.8 32920.1 lineto
50448.5 33145.1 lineto
50448.5 33426.3 lineto
50504.8 33651.3 lineto
50561 33763.8 lineto
50617.3 33820 lineto
50729.7 33876.3 lineto
stroke
newpath
51573.4 33876.3 moveto
51573.4 33651.3 lineto
stroke
newpath
52023.3 33876.3 moveto
52023.3 33651.3 lineto
stroke
newpath
53766.9 32245.2 moveto
53710.6 32301.5 lineto
53598.1 32470.2 lineto
53541.9 32582.7 lineto
53485.6 32751.4 lineto
53429.4 33032.6 lineto
53429.4 33257.6 lineto
53485.6 33538.8 lineto
53541.9 33707.5 lineto
53598.1 33820 lineto
53710.6 33988.8 lineto
53766.9 34045 lineto
stroke
newpath
54835.5 32695.2 moveto
54160.6 32695.2 lineto
stroke
newpath
54498 32695.2 moveto
54498 33876.3 lineto
54385.5 33707.5 lineto
54273 33595.1 lineto
54160.6 33538.8 lineto
stroke
newpath
56241.5 32695.2 moveto
56241.5 33876.3 lineto
stroke
newpath
56747.7 32695.2 moveto
56747.7 33313.8 lineto
56691.5 33426.3 lineto
56579 33482.6 lineto
56410.3 33482.6 lineto
56297.8 33426.3 lineto
56241.5 33370.1 lineto
stroke
newpath
57478.9 32695.2 moveto
57366.4 32751.4 lineto
57310.2 32807.7 lineto
57253.9 32920.1 lineto
57253.9 33257.6 lineto
57310.2 33370.1 lineto
57366.4 33426.3 lineto
57478.9 33482.6 lineto
57647.6 33482.6 lineto
57760.1 33426.3 lineto
57816.4 33370.1 lineto
57872.6 33257.6 lineto
57872.6 32920.1 lineto
57816.4 32807.7 lineto
57760.1 32751.4 lineto
57647.6 32695.2 lineto
57478.9 32695.2 lineto
stroke
newpath
58547.5 32695.2 moveto
58435 32751.4 lineto
58378.8 32863.9 lineto
58378.8 33876.3 lineto
stroke
newpath
59447.4 32751.4 moveto
59334.9 32695.2 lineto
59109.9 32695.2 lineto
58997.5 32751.4 lineto
58941.2 32863.9 lineto
58941.2 33313.8 lineto
58997.5 33426.3 lineto
59109.9 33482.6 lineto
59334.9 33482.6 lineto
59447.4 33426.3 lineto
59503.6 33313.8 lineto
59503.6 33201.4 lineto
58941.2 33088.9 lineto
stroke
newpath
59897.3 32245.2 moveto
59953.6 32301.5 lineto
60066.1 32470.2 lineto
60122.3 32582.7 lineto
60178.6 32751.4 lineto
60234.8 33032.6 lineto
60234.8 33257.6 lineto
60178.6 33538.8 lineto
60122.3 33707.5 lineto
60066.1 33820 lineto
59953.6 33988.8 lineto
59897.3 34045 lineto
stroke
newpath
62034.6 32245.2 moveto
61978.3 32301.5 lineto
61865.8 32470.2 lineto
61809.6 32582.7 lineto
61753.4 32751.4 lineto
61697.1 33032.6 lineto
61697.1 33257.6 lineto
61753.4 33538.8 lineto
61809.6 33707.5 lineto
61865.8 33820 lineto
61978.3 33988.8 lineto
62034.6 34045 lineto
stroke
newpath
62484.5 33482.6 moveto
62484.5 32695.2 lineto
stroke
newpath
62484.5 33370.1 moveto
62540.8 33426.3 lineto
62653.2 33482.6 lineto
62822 33482.6 lineto
62934.5 33426.3 lineto
62990.7 33313.8 lineto
62990.7 32695.2 lineto
stroke
newpath
63721.9 32695.2 moveto
63609.4 32751.4 lineto
63553.1 32807.7 lineto
63496.9 32920.1 lineto
63496.9 33257.6 lineto
63553.1 33370.1 lineto
63609.4 33426.3 lineto
63721.9 33482.6 lineto
63890.6 33482.6 lineto
64003.1 33426.3 lineto
64059.3 33370.1 lineto
64115.6 33257.6 lineto
64115.6 32920.1 lineto
64059.3 32807.7 lineto
64003.1 32751.4 lineto
63890.6 32695.2 lineto
63721.9 32695.2 lineto
stroke
newpath
64453 33482.6 moveto
64903 33482.6 lineto
stroke
newpath
64621.8 33876.3 moveto
64621.8 32863.9 lineto
64678 32751.4 lineto
64790.5 32695.2 lineto
64903 32695.2 lineto
stroke
newpath
66196.6 33482.6 moveto
66196.6 32301.5 lineto
stroke
newpath
66196.6 33426.3 moveto
66309 33482.6 lineto
66534 33482.6 lineto
66646.5 33426.3 lineto
66702.7 33370.1 lineto
66759 33257.6 lineto
66759 32920.1 lineto
66702.7 32807.7 lineto
66646.5 32751.4 lineto
66534 32695.2 lineto
66309 32695.2 lineto
66196.6 32751.4 lineto
stroke
newpath
67433.9 32695.2 moveto
67321.4 32751.4 lineto
67265.2 32863.9 lineto
67265.2 33876.3 lineto
stroke
newpath
68390 32695.2 moveto
68390 33313.8 lineto
68333.8 33426.3 lineto
68221.3 33482.6 lineto
67996.3 33482.6 lineto
67883.8 33426.3 lineto
stroke
newpath
68390 32751.4 moveto
68277.5 32695.2 lineto
67996.3 32695.2 lineto
67883.8 32751.4 lineto
67827.6 32863.9 lineto
67827.6 32976.4 lineto
67883.8 33088.9 lineto
67996.3 33145.1 lineto
68277.5 33145.1 lineto
68390 33201.4 lineto
stroke
newpath
68783.7 33482.6 moveto
69233.7 33482.6 lineto
stroke
newpath
68952.5 33876.3 moveto
68952.5 32863.9 lineto
69008.7 32751.4 lineto
69121.2 32695.2 lineto
69233.7 32695.2 lineto
stroke
newpath
70077.3 32751.4 moveto
69964.8 32695.2 lineto
69739.9 32695.2 lineto
69627.4 32751.4 lineto
69571.1 32863.9 lineto
69571.1 33313.8 lineto
69627.4 33426.3 lineto
69739.9 33482.6 lineto
69964.8 33482.6 lineto
70077.3 33426.3 lineto
70133.6 33313.8 lineto
70133.6 33201.4 lineto
69571.1 33088.9 lineto
stroke
newpath
71145.9 32695.2 moveto
71145.9 33876.3 lineto
stroke
newpath
71145.9 32751.4 moveto
71033.5 32695.2 lineto
70808.5 32695.2 lineto
70696 32751.4 lineto
70639.8 32807.7 lineto
70583.5 32920.1 lineto
70583.5 33257.6 lineto
70639.8 33370.1 lineto
70696 33426.3 lineto
70808.5 33482.6 lineto
71033.5 33482.6 lineto
71145.9 33426.3 lineto
stroke
newpath
71595.9 32245.2 moveto
71652.1 32301.5 lineto
71764.6 32470.2 lineto
71820.9 32582.7 lineto
71877.1 32751.4 lineto
71933.3 33032.6 lineto
71933.3 33257.6 lineto
71877.1 33538.8 lineto
71820.9 33707.5 lineto
71764.6 33820 lineto
71652.1 33988.8 lineto
71595.9 34045 lineto
stroke
31843.2 31312.9 1223.47 cir0
0 0 0 setrgbcolor
0 0 0 setrgbcolor
newpath
34138.1 31847.3 moveto
34194.3 31903.5 lineto
34306.8 31959.7 lineto
34588 31959.7 lineto
34700.5 31903.5 lineto
34756.7 31847.3 lineto
34813 31734.8 lineto
34813 31622.3 lineto
34756.7 31453.5 lineto
34081.8 30778.6 lineto
34813 30778.6 lineto
stroke
newpath
35319.2 30891.1 moveto
35375.4 30834.9 lineto
35319.2 30778.6 lineto
35262.9 30834.9 lineto
35319.2 30891.1 lineto
35319.2 30778.6 lineto
stroke
newpath
35769.1 31959.7 moveto
36556.5 31959.7 lineto
36050.3 30778.6 lineto
stroke
newpath
37231.4 31959.7 moveto
37343.9 31959.7 lineto
37456.4 31903.5 lineto
37512.6 31847.3 lineto
37568.9 31734.8 lineto
37625.1 31509.8 lineto
37625.1 31228.6 lineto
37568.9 31003.6 lineto
37512.6 30891.1 lineto
37456.4 30834.9 lineto
37343.9 30778.6 lineto
37231.4 30778.6 lineto
37118.9 30834.9 lineto
37062.7 30891.1 lineto
37006.5 31003.6 lineto
36950.2 31228.6 lineto
36950.2 31509.8 lineto
37006.5 31734.8 lineto
37062.7 31847.3 lineto
37118.9 31903.5 lineto
37231.4 31959.7 lineto
stroke
newpath
38356.3 31959.7 moveto
38468.8 31959.7 lineto
38581.3 31903.5 lineto
38637.5 31847.3 lineto
38693.7 31734.8 lineto
38750 31509.8 lineto
38750 31228.6 lineto
38693.7 31003.6 lineto
38637.5 30891.1 lineto
38581.3 30834.9 lineto
38468.8 30778.6 lineto
38356.3 30778.6 lineto
38243.8 30834.9 lineto
38187.6 30891.1 lineto
38131.3 31003.6 lineto
38075.1 31228.6 lineto
38075.1 31509.8 lineto
38131.3 31734.8 lineto
38187.6 31847.3 lineto
38243.8 31903.5 lineto
38356.3 31959.7 lineto
stroke
newpath
39256.2 30778.6 moveto
39256.2 31566 lineto
stroke
newpath
39256.2 31453.5 moveto
39312.4 31509.8 lineto
39424.9 31566 lineto
39593.6 31566 lineto
39706.1 31509.8 lineto
39762.4 31397.3 lineto
39762.4 30778.6 lineto
stroke
newpath
39762.4 31397.3 moveto
39818.6 31509.8 lineto
39931.1 31566 lineto
40099.8 31566 lineto
40212.3 31509.8 lineto
40268.5 31397.3 lineto
40268.5 30778.6 lineto
stroke
newpath
40831 30778.6 moveto
40831 31566 lineto
stroke
newpath
40831 31453.5 moveto
40887.2 31509.8 lineto
40999.7 31566 lineto
41168.4 31566 lineto
41280.9 31509.8 lineto
41337.2 31397.3 lineto
41337.2 30778.6 lineto
stroke
newpath
41337.2 31397.3 moveto
41393.4 31509.8 lineto
41505.9 31566 lineto
41674.6 31566 lineto
41787.1 31509.8 lineto
41843.3 31397.3 lineto
41843.3 30778.6 lineto
stroke
newpath
44149.3 32016 moveto
43136.9 30497.4 lineto
stroke
newpath
45667.9 31959.7 moveto
45780.4 31959.7 lineto
45892.8 31903.5 lineto
45949.1 31847.3 lineto
46005.3 31734.8 lineto
46061.6 31509.8 lineto
46061.6 31228.6 lineto
46005.3 31003.6 lineto
45949.1 30891.1 lineto
45892.8 30834.9 lineto
45780.4 30778.6 lineto
45667.9 30778.6 lineto
45555.4 30834.9 lineto
45499.1 30891.1 lineto
45442.9 31003.6 lineto
45386.7 31228.6 lineto
45386.7 31509.8 lineto
45442.9 31734.8 lineto
45499.1 31847.3 lineto
45555.4 31903.5 lineto
45667.9 31959.7 lineto
stroke
newpath
46567.8 30891.1 moveto
46624 30834.9 lineto
46567.8 30778.6 lineto
46511.5 30834.9 lineto
46567.8 30891.1 lineto
46567.8 30778.6 lineto
stroke
newpath
47748.9 30778.6 moveto
47073.9 30778.6 lineto
stroke
newpath
47411.4 30778.6 moveto
47411.4 31959.7 lineto
47298.9 31791 lineto
47186.4 31678.5 lineto
47073.9 31622.3 lineto
stroke
newpath
48480 31959.7 moveto
48592.5 31959.7 lineto
48705 31903.5 lineto
48761.2 31847.3 lineto
48817.5 31734.8 lineto
48873.7 31509.8 lineto
48873.7 31228.6 lineto
48817.5 31003.6 lineto
48761.2 30891.1 lineto
48705 30834.9 lineto
48592.5 30778.6 lineto
48480 30778.6 lineto
48367.5 30834.9 lineto
48311.3 30891.1 lineto
48255 31003.6 lineto
48198.8 31228.6 lineto
48198.8 31509.8 lineto
48255 31734.8 lineto
48311.3 31847.3 lineto
48367.5 31903.5 lineto
48480 31959.7 lineto
stroke
newpath
49886.1 31959.7 moveto
49661.1 31959.7 lineto
49548.6 31903.5 lineto
49492.4 31847.3 lineto
49379.9 31678.5 lineto
49323.7 31453.5 lineto
49323.7 31003.6 lineto
49379.9 30891.1 lineto
49436.1 30834.9 lineto
49548.6 30778.6 lineto
49773.6 30778.6 lineto
49886.1 30834.9 lineto
49942.3 30891.1 lineto
49998.6 31003.6 lineto
49998.6 31284.8 lineto
49942.3 31397.3 lineto
49886.1 31453.5 lineto
49773.6 31509.8 lineto
49548.6 31509.8 lineto
49436.1 31453.5 lineto
49379.9 31397.3 lineto
49323.7 31284.8 lineto
stroke
newpath
50392.3 31959.7 moveto
51123.4 31959.7 lineto
50729.7 31509.8 lineto
50898.5 31509.8 lineto
51011 31453.5 lineto
51067.2 31397.3 lineto
51123.4 31284.8 lineto
51123.4 31003.6 lineto
51067.2 30891.1 lineto
51011 30834.9 lineto
50898.5 30778.6 lineto
50561 30778.6 lineto
50448.5 30834.9 lineto
50392.3 30891.1 lineto
stroke
newpath
51573.4 31959.7 moveto
51573.4 31734.8 lineto
stroke
newpath
52023.3 31959.7 moveto
52023.3 31734.8 lineto
stroke
newpath
53766.9 30328.7 moveto
53710.6 30384.9 lineto
53598.1 30553.7 lineto
53541.9 30666.1 lineto
53485.6 30834.9 lineto
53429.4 31116.1 lineto
53429.4 31341.1 lineto
53485.6 31622.3 lineto
53541.9 31791 lineto
53598.1 31903.5 lineto
53710.6 32072.2 lineto
53766.9 32128.5 lineto
stroke
newpath
54723 31566 moveto
54723 30778.6 lineto
stroke
newpath
54441.8 32016 moveto
54160.6 31172.3 lineto
54891.7 31172.3 lineto
stroke
newpath
56241.5 30778.6 moveto
56241.5 31959.7 lineto
stroke
newpath
56747.7 30778.6 moveto
56747.7 31397.3 lineto
56691.5 31509.8 lineto
56579 31566 lineto
56410.3 31566 lineto
56297.8 31509.8 lineto
56241.5 31453.5 lineto
stroke
newpath
57478.9 30778.6 moveto
57366.4 30834.9 lineto
57310.2 30891.1 lineto
57253.9 31003.6 lineto
57253.9 31341.1 lineto
57310.2 31453.5 lineto
57366.4 31509.8 lineto
57478.9 31566 lineto
57647.6 31566 lineto
57760.1 31509.8 lineto
57816.4 31453.5 lineto
57872.6 31341.1 lineto
57872.6 31003.6 lineto
57816.4 30891.1 lineto
57760.1 30834.9 lineto
57647.6 30778.6 lineto
57478.9 30778.6 lineto
stroke
newpath
58547.5 30778.6 moveto
58435 30834.9 lineto
58378.8 30947.4 lineto
58378.8 31959.7 lineto
stroke
newpath
59447.4 30834.9 moveto
59334.9 30778.6 lineto
59109.9 30778.6 lineto
58997.5 30834.9 lineto
58941.2 30947.4 lineto
58941.2 31397.3 lineto
58997.5 31509.8 lineto
59109.9 31566 lineto
59334.9 31566 lineto
59447.4 31509.8 lineto
59503.6 31397.3 lineto
59503.6 31284.8 lineto
58941.2 31172.3 lineto
stroke
newpath
59953.6 30834.9 moveto
60066.1 30778.6 lineto
60291 30778.6 lineto
60403.5 30834.9 lineto
60459.8 30947.4 lineto
60459.8 31003.6 lineto
60403.5 31116.1 lineto
60291 31172.3 lineto
60122.3 31172.3 lineto
60009.8 31228.6 lineto
59953.6 31341.1 lineto
59953.6 31397.3 lineto
60009.8 31509.8 lineto
60122.3 31566 lineto
60291 31566 lineto
60403.5 31509.8 lineto
stroke
newpath
60853.5 30328.7 moveto
60909.7 30384.9 lineto
61022.2 30553.7 lineto
61078.4 30666.1 lineto
61134.7 30834.9 lineto
61190.9 31116.1 lineto
61190.9 31341.1 lineto
61134.7 31622.3 lineto
61078.4 31791 lineto
61022.2 31903.5 lineto
60909.7 32072.2 lineto
60853.5 32128.5 lineto
stroke
newpath
62990.7 30328.7 moveto
62934.5 30384.9 lineto
62822 30553.7 lineto
62765.7 30666.1 lineto
62709.5 30834.9 lineto
62653.2 31116.1 lineto
62653.2 31341.1 lineto
62709.5 31622.3 lineto
62765.7 31791 lineto
62822 31903.5 lineto
62934.5 32072.2 lineto
62990.7 32128.5 lineto
stroke
newpath
63440.7 31566 moveto
63440.7 30778.6 lineto
stroke
newpath
63440.7 31453.5 moveto
63496.9 31509.8 lineto
63609.4 31566 lineto
63778.1 31566 lineto
63890.6 31509.8 lineto
63946.8 31397.3 lineto
63946.8 30778.6 lineto
stroke
newpath
64678 30778.6 moveto
64565.5 30834.9 lineto
64509.3 30891.1 lineto
64453 31003.6 lineto
64453 31341.1 lineto
64509.3 31453.5 lineto
64565.5 31509.8 lineto
64678 31566 lineto
64846.7 31566 lineto
64959.2 31509.8 lineto
65015.5 31453.5 lineto
65071.7 31341.1 lineto
65071.7 31003.6 lineto
65015.5 30891.1 lineto
64959.2 30834.9 lineto
64846.7 30778.6 lineto
64678 30778.6 lineto
stroke
newpath
65409.2 31566 moveto
65859.1 31566 lineto
stroke
newpath
65577.9 31959.7 moveto
65577.9 30947.4 lineto
65634.1 30834.9 lineto
65746.6 30778.6 lineto
65859.1 30778.6 lineto
stroke
newpath
67152.7 31566 moveto
67152.7 30384.9 lineto
stroke
newpath
67152.7 31509.8 moveto
67265.2 31566 lineto
67490.1 31566 lineto
67602.6 31509.8 lineto
67658.9 31453.5 lineto
67715.1 31341.1 lineto
67715.1 31003.6 lineto
67658.9 30891.1 lineto
67602.6 30834.9 lineto
67490.1 30778.6 lineto
67265.2 30778.6 lineto
67152.7 30834.9 lineto
stroke
newpath
68390 30778.6 moveto
68277.5 30834.9 lineto
68221.3 30947.4 lineto
68221.3 31959.7 lineto
stroke
newpath
69346.2 30778.6 moveto
69346.2 31397.3 lineto
69289.9 31509.8 lineto
69177.4 31566 lineto
68952.5 31566 lineto
68840 31509.8 lineto
stroke
newpath
69346.2 30834.9 moveto
69233.7 30778.6 lineto
68952.5 30778.6 lineto
68840 30834.9 lineto
68783.7 30947.4 lineto
68783.7 31059.8 lineto
68840 31172.3 lineto
68952.5 31228.6 lineto
69233.7 31228.6 lineto
69346.2 31284.8 lineto
stroke
newpath
69739.9 31566 moveto
70189.8 31566 lineto
stroke
newpath
69908.6 31959.7 moveto
69908.6 30947.4 lineto
69964.8 30834.9 lineto
70077.3 30778.6 lineto
70189.8 30778.6 lineto
stroke
newpath
71033.5 30834.9 moveto
70921 30778.6 lineto
70696 30778.6 lineto
70583.5 30834.9 lineto
70527.3 30947.4 lineto
70527.3 31397.3 lineto
70583.5 31509.8 lineto
70696 31566 lineto
70921 31566 lineto
71033.5 31509.8 lineto
71089.7 31397.3 lineto
71089.7 31284.8 lineto
70527.3 31172.3 lineto
stroke
newpath
72102.1 30778.6 moveto
72102.1 31959.7 lineto
stroke
newpath
72102.1 30834.9 moveto
71989.6 30778.6 lineto
71764.6 30778.6 lineto
71652.1 30834.9 lineto
71595.9 30891.1 lineto
71539.6 31003.6 lineto
71539.6 31341.1 lineto
71595.9 31453.5 lineto
71652.1 31509.8 lineto
71764.6 31566 lineto
71989.6 31566 lineto
72102.1 31509.8 lineto
stroke
newpath
72552 30328.7 moveto
72608.3 30384.9 lineto
72720.7 30553.7 lineto
72777 30666.1 lineto
72833.2 30834.9 lineto
72889.5 31116.1 lineto
72889.5 31341.1 lineto
72833.2 31622.3 lineto
72777 31791 lineto
72720.7 31903.5 lineto
72608.3 32072.2 lineto
72552 32128.5 lineto
stroke
showpage
grestore
%%EOF
