%TF.GenerationSoftware,KiCad,Pcbnew,(5.1.10-1-10_14)*%
%TF.CreationDate,2021-09-13T15:32:24-05:00*%
%TF.ProjectId,LED_Driver,4c45445f-4472-4697-9665-722e6b696361,rev?*%
%TF.SameCoordinates,Original*%
%TF.FileFunction,Soldermask,Bot*%
%TF.FilePolarity,Negative*%
%FSLAX46Y46*%
G04 Gerber Fmt 4.6, Leading zero omitted, Abs format (unit mm)*
G04 Created by KiCad (PCBNEW (5.1.10-1-10_14)) date 2021-09-13 15:32:24*
%MOMM*%
%LPD*%
G01*
G04 APERTURE LIST*
%ADD10C,1.200000*%
%ADD11R,1.200000X1.200000*%
%ADD12C,1.950000*%
%ADD13R,1.950000X1.950000*%
%ADD14O,1.600000X1.600000*%
%ADD15R,1.600000X1.600000*%
%ADD16C,1.381000*%
%ADD17O,1.400000X1.400000*%
%ADD18C,1.400000*%
%ADD19O,2.000000X1.905000*%
%ADD20R,2.000000X1.905000*%
%ADD21C,1.600000*%
%ADD22C,1.500000*%
%ADD23R,1.500000X1.500000*%
%ADD24C,1.970000*%
%ADD25C,2.700000*%
G04 APERTURE END LIST*
D10*
%TO.C,C2*%
X74900000Y-47154000D03*
D11*
X69900000Y-47154000D03*
%TD*%
D12*
%TO.C,J1*%
X36400000Y-57654000D03*
D13*
X41400000Y-57654000D03*
D12*
X36400000Y-62654000D03*
D13*
X41400000Y-62654000D03*
%TD*%
D14*
%TO.C,D1*%
X24280000Y-55154000D03*
D15*
X31900000Y-55154000D03*
%TD*%
D16*
%TO.C,J3*%
X61800000Y-65454000D03*
X63070000Y-62914000D03*
X64340000Y-65454000D03*
X65610000Y-62914000D03*
X66880000Y-65454000D03*
X68150000Y-62914000D03*
%TD*%
D17*
%TO.C,R1*%
X24280000Y-59154000D03*
D18*
X31900000Y-59154000D03*
%TD*%
D19*
%TO.C,Q1*%
X24400000Y-38194000D03*
X24400000Y-35654000D03*
D20*
X24400000Y-33114000D03*
%TD*%
D14*
%TO.C,R4*%
X56900000Y-54654000D03*
D21*
X46740000Y-54654000D03*
%TD*%
%TO.C,C6*%
X62400000Y-57154000D03*
D15*
X60400000Y-57154000D03*
%TD*%
D22*
%TO.C,U1*%
X48090000Y-59154000D03*
X50630000Y-59154000D03*
X53170000Y-59154000D03*
X55710000Y-59154000D03*
X55710000Y-66774000D03*
X53170000Y-66774000D03*
X50630000Y-66774000D03*
D23*
X48090000Y-66774000D03*
%TD*%
D14*
%TO.C,R5*%
X65900000Y-54654000D03*
D21*
X76060000Y-54654000D03*
%TD*%
D24*
%TO.C,F1*%
X36480000Y-46654000D03*
X58320000Y-46654000D03*
%TD*%
D21*
%TO.C,C4*%
X62400000Y-51654000D03*
X62400000Y-46654000D03*
%TD*%
D10*
%TO.C,C1*%
X25900000Y-47154000D03*
D11*
X30900000Y-47154000D03*
%TD*%
D12*
%TO.C,J2*%
X67900000Y-35654000D03*
X62900000Y-35654000D03*
X57900000Y-35654000D03*
X52900000Y-35654000D03*
X47900000Y-35654000D03*
X42900000Y-35654000D03*
X37900000Y-35654000D03*
D13*
X32900000Y-35654000D03*
D12*
X67900000Y-30654000D03*
X62900000Y-30654000D03*
X57900000Y-30654000D03*
X52900000Y-30654000D03*
X47900000Y-30654000D03*
X42900000Y-30654000D03*
X37900000Y-30654000D03*
D13*
X32900000Y-30654000D03*
%TD*%
D25*
%TO.C,H4*%
X75400000Y-25654000D03*
%TD*%
%TO.C,H3*%
X75400000Y-65654000D03*
%TD*%
%TO.C,H2*%
X25400000Y-65654000D03*
%TD*%
%TO.C,H1*%
X25400000Y-25654000D03*
%TD*%
D19*
%TO.C,Q2*%
X74400000Y-38234000D03*
X74400000Y-35694000D03*
D20*
X74400000Y-33154000D03*
%TD*%
M02*
