%!PS-Adobe-3.0
%%Creator: PCBNEW
%%CreationDate: Mon Sep 13 15:20:20 2021
%%Title: /Users/jeffrey/Desktop/__LED_Warm-Cool/PCB_for_ordering/PWM_Driver/PWM_Control-NPTH-drl_map.ps
%%Pages: 1
%%PageOrder: Ascend
%%BoundingBox: 0 0 596 842
%%DocumentMedia: A4 595 842 0 () ()
%%Orientation: Landscape
%%EndComments
%%BeginProlog
/line { newpath moveto lineto stroke } bind def
/cir0 { newpath 0 360 arc stroke } bind def
/cir1 { newpath 0 360 arc gsave fill grestore stroke } bind def
/cir2 { newpath 0 360 arc gsave fill grestore stroke } bind def
/arc0 { newpath arc stroke } bind def
/arc1 { newpath 4 index 4 index moveto arc closepath gsave fill
    grestore stroke } bind def
/arc2 { newpath 4 index 4 index moveto arc closepath gsave fill
    grestore stroke } bind def
/poly0 { stroke } bind def
/poly1 { closepath gsave fill grestore stroke } bind def
/poly2 { closepath gsave fill grestore stroke } bind def
/rect0 { rectstroke } bind def
/rect1 { rectfill } bind def
/rect2 { rectfill } bind def
/linemode0 { 0 setlinecap 0 setlinejoin 0 setlinewidth } bind def
/linemode1 { 1 setlinecap 1 setlinejoin } bind def
/dashedline { [200] 100 setdash } bind def
/solidline { [] 0 setdash } bind def
/phantomshow { moveto
    /KicadFont findfont 0.000001 scalefont setfont
    show } bind def
/textshow { gsave
    findfont exch scalefont setfont concat 1 scale 0 0 moveto show
    } bind def
/reencodefont {
  findfont dup length dict begin
  { 1 index /FID ne
    { def }
    { pop pop } ifelse
  } forall
  /Encoding ISOLatin1Encoding def
  currentdict
  end } bind def
/KicadFont /Helvetica reencodefont definefont pop
/KicadFont-Bold /Helvetica-Bold reencodefont definefont pop
/KicadFont-Oblique /Helvetica-Oblique reencodefont definefont pop
/KicadFont-BoldOblique /Helvetica-BoldOblique reencodefont definefont pop
%%EndProlog
%%Page: 1 1
%%BeginPageSetup
gsave
0.0072 0.0072 scale
linemode1
82680 0 translate 90 rotate
51.6968 setlinewidth
%%EndPageSetup
0 0 0 setrgbcolor
20.3531 setlinewidth
newpath
79321.8 75690 moveto
79321.8 39054.5 lineto
stroke
0 0 0 setrgbcolor
newpath
40651 77725.3 moveto
77286.5 77725.3 lineto
stroke
0 0 0 setrgbcolor
77286.5 75690 2035.31 -0 90 arc0
0 0 0 setrgbcolor
77286.5 39054.5 2035.31 -90 -0 arc0
0 0 0 setrgbcolor
newpath
40651 37019.2 moveto
77286.5 37019.2 lineto
stroke
0 0 0 setrgbcolor
40651 39054.5 2035.31 180 270 arc0
0 0 0 setrgbcolor
newpath
38615.7 75690 moveto
38615.7 39054.5 lineto
stroke
0 0 0 setrgbcolor
40651 75690 2035.31 90 180 arc0
78.7399 setlinewidth
newpath
67852.9 75576.1 moveto
68463.4 74965.5 lineto
stroke
newpath
68463.4 75576.1 moveto
67852.9 74965.5 lineto
stroke
newpath
69827.1 75576.1 moveto
70437.7 74965.5 lineto
stroke
newpath
70437.7 75576.1 moveto
69827.1 74965.5 lineto
stroke
53982.2 75177.1 315.473 cir0
newpath
42686.3 43287.9 moveto
42686.3 42555.2 lineto
stroke
newpath
42319.9 42921.6 moveto
43052.6 42921.6 lineto
stroke
newpath
42686.3 39624.4 moveto
42686.3 38891.7 lineto
stroke
newpath
42319.9 39258 moveto
43052.6 39258 lineto
stroke
newpath
68295.1 76245.1 moveto
68295.1 76763.2 lineto
67777 76763.2 lineto
67777 76245.1 lineto
68295.1 76245.1 lineto
poly0
newpath
70513.6 76245.1 moveto
70513.6 76763.2 lineto
69995.5 76763.2 lineto
69995.5 76245.1 lineto
70513.6 76245.1 lineto
poly0
newpath
46756.9 75140.5 moveto
47306.4 75690 lineto
46756.9 76239.6 lineto
46207.4 75690 lineto
46756.9 75140.5 lineto
poly0
newpath
46756.9 56822.7 moveto
47306.4 57372.3 lineto
46756.9 57921.8 lineto
46207.4 57372.3 lineto
46756.9 56822.7 lineto
poly0
newpath
46756.9 44610.9 moveto
47306.4 45160.4 lineto
46756.9 45709.9 lineto
46207.4 45160.4 lineto
46756.9 44610.9 lineto
poly0
newpath
58968.7 75140.5 moveto
59518.3 75690 lineto
58968.7 76239.6 lineto
58419.2 75690 lineto
58968.7 75140.5 lineto
poly0
newpath
58968.7 44203.8 moveto
59518.3 44753.4 lineto
58968.7 45302.9 lineto
58419.2 44753.4 lineto
58968.7 44203.8 lineto
poly0
newpath
77286.5 75140.5 moveto
77836 75690 lineto
77286.5 76239.6 lineto
76737 75690 lineto
77286.5 75140.5 lineto
poly0
newpath
77286.5 56822.7 moveto
77836 57372.3 lineto
77286.5 57921.8 lineto
76737 57372.3 lineto
77286.5 56822.7 lineto
poly0
newpath
77286.5 44610.9 moveto
77836 45160.4 lineto
77286.5 45709.9 lineto
76737 45160.4 lineto
77286.5 44610.9 lineto
poly0
118.11 setlinewidth
0 0 0 setrgbcolor
0 0 0 setrgbcolor
newpath
38725.7 35175.5 moveto
38725.7 36356.6 lineto
39006.9 36356.6 lineto
39175.6 36300.3 lineto
39288.1 36187.9 lineto
39344.4 36075.4 lineto
39400.6 35850.4 lineto
39400.6 35681.7 lineto
39344.4 35456.7 lineto
39288.1 35344.2 lineto
39175.6 35231.7 lineto
39006.9 35175.5 lineto
38725.7 35175.5 lineto
stroke
newpath
39906.8 35175.5 moveto
39906.8 35962.9 lineto
stroke
newpath
39906.8 35737.9 moveto
39963 35850.4 lineto
40019.3 35906.6 lineto
40131.8 35962.9 lineto
40244.2 35962.9 lineto
stroke
newpath
40637.9 35175.5 moveto
40637.9 35962.9 lineto
stroke
newpath
40637.9 36356.6 moveto
40581.7 36300.3 lineto
40637.9 36244.1 lineto
40694.2 36300.3 lineto
40637.9 36356.6 lineto
40637.9 36244.1 lineto
stroke
newpath
41369.1 35175.5 moveto
41256.6 35231.7 lineto
41200.4 35344.2 lineto
41200.4 36356.6 lineto
stroke
newpath
41987.8 35175.5 moveto
41875.3 35231.7 lineto
41819 35344.2 lineto
41819 36356.6 lineto
stroke
newpath
43337.6 35175.5 moveto
43337.6 36356.6 lineto
43731.3 35512.9 lineto
44125 36356.6 lineto
44125 35175.5 lineto
stroke
newpath
45193.6 35175.5 moveto
45193.6 35794.2 lineto
45137.4 35906.6 lineto
45024.9 35962.9 lineto
44799.9 35962.9 lineto
44687.4 35906.6 lineto
stroke
newpath
45193.6 35231.7 moveto
45081.1 35175.5 lineto
44799.9 35175.5 lineto
44687.4 35231.7 lineto
44631.2 35344.2 lineto
44631.2 35456.7 lineto
44687.4 35569.2 lineto
44799.9 35625.4 lineto
45081.1 35625.4 lineto
45193.6 35681.7 lineto
stroke
newpath
45756.1 35962.9 moveto
45756.1 34781.8 lineto
stroke
newpath
45756.1 35906.6 moveto
45868.5 35962.9 lineto
46093.5 35962.9 lineto
46206 35906.6 lineto
46262.2 35850.4 lineto
46318.5 35737.9 lineto
46318.5 35400.5 lineto
46262.2 35288 lineto
46206 35231.7 lineto
46093.5 35175.5 lineto
45868.5 35175.5 lineto
45756.1 35231.7 lineto
stroke
newpath
46824.7 35288 moveto
46880.9 35231.7 lineto
46824.7 35175.5 lineto
46768.4 35231.7 lineto
46824.7 35288 lineto
46824.7 35175.5 lineto
stroke
newpath
46824.7 35906.6 moveto
46880.9 35850.4 lineto
46824.7 35794.2 lineto
46768.4 35850.4 lineto
46824.7 35906.6 lineto
46824.7 35794.2 lineto
stroke
newpath
36987.4 33534.8 moveto
37598 32924.2 lineto
stroke
newpath
37598 33534.8 moveto
36987.4 32924.2 lineto
stroke
0 0 0 setrgbcolor
0 0 0 setrgbcolor
newpath
39344.4 32695.2 moveto
38669.4 32695.2 lineto
stroke
newpath
39006.9 32695.2 moveto
39006.9 33876.3 lineto
38894.4 33707.5 lineto
38781.9 33595.1 lineto
38669.4 33538.8 lineto
stroke
newpath
39850.5 32807.7 moveto
39906.8 32751.4 lineto
39850.5 32695.2 lineto
39794.3 32751.4 lineto
39850.5 32807.7 lineto
39850.5 32695.2 lineto
stroke
newpath
40975.4 33876.3 moveto
40413 33876.3 lineto
40356.7 33313.8 lineto
40413 33370.1 lineto
40525.5 33426.3 lineto
40806.7 33426.3 lineto
40919.2 33370.1 lineto
40975.4 33313.8 lineto
41031.6 33201.4 lineto
41031.6 32920.1 lineto
40975.4 32807.7 lineto
40919.2 32751.4 lineto
40806.7 32695.2 lineto
40525.5 32695.2 lineto
40413 32751.4 lineto
40356.7 32807.7 lineto
stroke
newpath
41762.8 33876.3 moveto
41875.3 33876.3 lineto
41987.8 33820 lineto
42044 33763.8 lineto
42100.3 33651.3 lineto
42156.5 33426.3 lineto
42156.5 33145.1 lineto
42100.3 32920.1 lineto
42044 32807.7 lineto
41987.8 32751.4 lineto
41875.3 32695.2 lineto
41762.8 32695.2 lineto
41650.3 32751.4 lineto
41594.1 32807.7 lineto
41537.8 32920.1 lineto
41481.6 33145.1 lineto
41481.6 33426.3 lineto
41537.8 33651.3 lineto
41594.1 33763.8 lineto
41650.3 33820 lineto
41762.8 33876.3 lineto
stroke
newpath
42887.7 33876.3 moveto
43000.1 33876.3 lineto
43112.6 33820 lineto
43168.9 33763.8 lineto
43225.1 33651.3 lineto
43281.4 33426.3 lineto
43281.4 33145.1 lineto
43225.1 32920.1 lineto
43168.9 32807.7 lineto
43112.6 32751.4 lineto
43000.1 32695.2 lineto
42887.7 32695.2 lineto
42775.2 32751.4 lineto
42718.9 32807.7 lineto
42662.7 32920.1 lineto
42606.4 33145.1 lineto
42606.4 33426.3 lineto
42662.7 33651.3 lineto
42718.9 33763.8 lineto
42775.2 33820 lineto
42887.7 33876.3 lineto
stroke
newpath
43787.5 32695.2 moveto
43787.5 33482.6 lineto
stroke
newpath
43787.5 33370.1 moveto
43843.8 33426.3 lineto
43956.3 33482.6 lineto
44125 33482.6 lineto
44237.5 33426.3 lineto
44293.7 33313.8 lineto
44293.7 32695.2 lineto
stroke
newpath
44293.7 33313.8 moveto
44350 33426.3 lineto
44462.5 33482.6 lineto
44631.2 33482.6 lineto
44743.7 33426.3 lineto
44799.9 33313.8 lineto
44799.9 32695.2 lineto
stroke
newpath
45362.4 32695.2 moveto
45362.4 33482.6 lineto
stroke
newpath
45362.4 33370.1 moveto
45418.6 33426.3 lineto
45531.1 33482.6 lineto
45699.8 33482.6 lineto
45812.3 33426.3 lineto
45868.5 33313.8 lineto
45868.5 32695.2 lineto
stroke
newpath
45868.5 33313.8 moveto
45924.8 33426.3 lineto
46037.3 33482.6 lineto
46206 33482.6 lineto
46318.5 33426.3 lineto
46374.7 33313.8 lineto
46374.7 32695.2 lineto
stroke
newpath
48680.7 33932.5 moveto
47668.3 32414 lineto
stroke
newpath
50199.2 33876.3 moveto
50311.7 33876.3 lineto
50424.2 33820 lineto
50480.5 33763.8 lineto
50536.7 33651.3 lineto
50592.9 33426.3 lineto
50592.9 33145.1 lineto
50536.7 32920.1 lineto
50480.5 32807.7 lineto
50424.2 32751.4 lineto
50311.7 32695.2 lineto
50199.2 32695.2 lineto
50086.8 32751.4 lineto
50030.5 32807.7 lineto
49974.3 32920.1 lineto
49918 33145.1 lineto
49918 33426.3 lineto
49974.3 33651.3 lineto
50030.5 33763.8 lineto
50086.8 33820 lineto
50199.2 33876.3 lineto
stroke
newpath
51099.1 32807.7 moveto
51155.4 32751.4 lineto
51099.1 32695.2 lineto
51042.9 32751.4 lineto
51099.1 32807.7 lineto
51099.1 32695.2 lineto
stroke
newpath
51886.5 33876.3 moveto
51999 33876.3 lineto
52111.5 33820 lineto
52167.8 33763.8 lineto
52224 33651.3 lineto
52280.2 33426.3 lineto
52280.2 33145.1 lineto
52224 32920.1 lineto
52167.8 32807.7 lineto
52111.5 32751.4 lineto
51999 32695.2 lineto
51886.5 32695.2 lineto
51774 32751.4 lineto
51717.8 32807.7 lineto
51661.6 32920.1 lineto
51605.3 33145.1 lineto
51605.3 33426.3 lineto
51661.6 33651.3 lineto
51717.8 33763.8 lineto
51774 33820 lineto
51886.5 33876.3 lineto
stroke
newpath
53348.9 33876.3 moveto
52786.4 33876.3 lineto
52730.2 33313.8 lineto
52786.4 33370.1 lineto
52898.9 33426.3 lineto
53180.1 33426.3 lineto
53292.6 33370.1 lineto
53348.9 33313.8 lineto
53405.1 33201.4 lineto
53405.1 32920.1 lineto
53348.9 32807.7 lineto
53292.6 32751.4 lineto
53180.1 32695.2 lineto
52898.9 32695.2 lineto
52786.4 32751.4 lineto
52730.2 32807.7 lineto
stroke
newpath
53967.5 32695.2 moveto
54192.5 32695.2 lineto
54305 32751.4 lineto
54361.2 32807.7 lineto
54473.7 32976.4 lineto
54530 33201.4 lineto
54530 33651.3 lineto
54473.7 33763.8 lineto
54417.5 33820 lineto
54305 33876.3 lineto
54080 33876.3 lineto
53967.5 33820 lineto
53911.3 33763.8 lineto
53855 33651.3 lineto
53855 33370.1 lineto
53911.3 33257.6 lineto
53967.5 33201.4 lineto
54080 33145.1 lineto
54305 33145.1 lineto
54417.5 33201.4 lineto
54473.7 33257.6 lineto
54530 33370.1 lineto
stroke
newpath
55654.8 32695.2 moveto
54979.9 32695.2 lineto
stroke
newpath
55317.4 32695.2 moveto
55317.4 33876.3 lineto
55204.9 33707.5 lineto
55092.4 33595.1 lineto
54979.9 33538.8 lineto
stroke
newpath
56104.8 33876.3 moveto
56104.8 33651.3 lineto
stroke
newpath
56554.7 33876.3 moveto
56554.7 33651.3 lineto
stroke
newpath
58298.2 32245.2 moveto
58242 32301.5 lineto
58129.5 32470.2 lineto
58073.3 32582.7 lineto
58017 32751.4 lineto
57960.8 33032.6 lineto
57960.8 33257.6 lineto
58017 33538.8 lineto
58073.3 33707.5 lineto
58129.5 33820 lineto
58242 33988.8 lineto
58298.2 34045 lineto
stroke
newpath
58691.9 33763.8 moveto
58748.2 33820 lineto
58860.7 33876.3 lineto
59141.9 33876.3 lineto
59254.4 33820 lineto
59310.6 33763.8 lineto
59366.9 33651.3 lineto
59366.9 33538.8 lineto
59310.6 33370.1 lineto
58635.7 32695.2 lineto
59366.9 32695.2 lineto
stroke
newpath
60772.9 32695.2 moveto
60772.9 33876.3 lineto
stroke
newpath
61279.1 32695.2 moveto
61279.1 33313.8 lineto
61222.9 33426.3 lineto
61110.4 33482.6 lineto
60941.7 33482.6 lineto
60829.2 33426.3 lineto
60772.9 33370.1 lineto
stroke
newpath
62010.3 32695.2 moveto
61897.8 32751.4 lineto
61841.5 32807.7 lineto
61785.3 32920.1 lineto
61785.3 33257.6 lineto
61841.5 33370.1 lineto
61897.8 33426.3 lineto
62010.3 33482.6 lineto
62179 33482.6 lineto
62291.5 33426.3 lineto
62347.7 33370.1 lineto
62404 33257.6 lineto
62404 32920.1 lineto
62347.7 32807.7 lineto
62291.5 32751.4 lineto
62179 32695.2 lineto
62010.3 32695.2 lineto
stroke
newpath
63078.9 32695.2 moveto
62966.4 32751.4 lineto
62910.2 32863.9 lineto
62910.2 33876.3 lineto
stroke
newpath
63978.8 32751.4 moveto
63866.3 32695.2 lineto
63641.3 32695.2 lineto
63528.8 32751.4 lineto
63472.6 32863.9 lineto
63472.6 33313.8 lineto
63528.8 33426.3 lineto
63641.3 33482.6 lineto
63866.3 33482.6 lineto
63978.8 33426.3 lineto
64035 33313.8 lineto
64035 33201.4 lineto
63472.6 33088.9 lineto
stroke
newpath
64485 32751.4 moveto
64597.4 32695.2 lineto
64822.4 32695.2 lineto
64934.9 32751.4 lineto
64991.1 32863.9 lineto
64991.1 32920.1 lineto
64934.9 33032.6 lineto
64822.4 33088.9 lineto
64653.7 33088.9 lineto
64541.2 33145.1 lineto
64485 33257.6 lineto
64485 33313.8 lineto
64541.2 33426.3 lineto
64653.7 33482.6 lineto
64822.4 33482.6 lineto
64934.9 33426.3 lineto
stroke
newpath
65384.8 32245.2 moveto
65441.1 32301.5 lineto
65553.6 32470.2 lineto
65609.8 32582.7 lineto
65666.1 32751.4 lineto
65722.3 33032.6 lineto
65722.3 33257.6 lineto
65666.1 33538.8 lineto
65609.8 33707.5 lineto
65553.6 33820 lineto
65441.1 33988.8 lineto
65384.8 34045 lineto
stroke
newpath
67522.1 32245.2 moveto
67465.8 32301.5 lineto
67353.4 32470.2 lineto
67297.1 32582.7 lineto
67240.9 32751.4 lineto
67184.6 33032.6 lineto
67184.6 33257.6 lineto
67240.9 33538.8 lineto
67297.1 33707.5 lineto
67353.4 33820 lineto
67465.8 33988.8 lineto
67522.1 34045 lineto
stroke
newpath
67972 33482.6 moveto
67972 32695.2 lineto
stroke
newpath
67972 33370.1 moveto
68028.3 33426.3 lineto
68140.8 33482.6 lineto
68309.5 33482.6 lineto
68422 33426.3 lineto
68478.2 33313.8 lineto
68478.2 32695.2 lineto
stroke
newpath
69209.4 32695.2 moveto
69096.9 32751.4 lineto
69040.6 32807.7 lineto
68984.4 32920.1 lineto
68984.4 33257.6 lineto
69040.6 33370.1 lineto
69096.9 33426.3 lineto
69209.4 33482.6 lineto
69378.1 33482.6 lineto
69490.6 33426.3 lineto
69546.8 33370.1 lineto
69603.1 33257.6 lineto
69603.1 32920.1 lineto
69546.8 32807.7 lineto
69490.6 32751.4 lineto
69378.1 32695.2 lineto
69209.4 32695.2 lineto
stroke
newpath
69940.5 33482.6 moveto
70390.5 33482.6 lineto
stroke
newpath
70109.3 33876.3 moveto
70109.3 32863.9 lineto
70165.5 32751.4 lineto
70278 32695.2 lineto
70390.5 32695.2 lineto
stroke
newpath
71684.1 33482.6 moveto
71684.1 32301.5 lineto
stroke
newpath
71684.1 33426.3 moveto
71796.5 33482.6 lineto
72021.5 33482.6 lineto
72134 33426.3 lineto
72190.2 33370.1 lineto
72246.5 33257.6 lineto
72246.5 32920.1 lineto
72190.2 32807.7 lineto
72134 32751.4 lineto
72021.5 32695.2 lineto
71796.5 32695.2 lineto
71684.1 32751.4 lineto
stroke
newpath
72921.4 32695.2 moveto
72808.9 32751.4 lineto
72752.7 32863.9 lineto
72752.7 33876.3 lineto
stroke
newpath
73877.5 32695.2 moveto
73877.5 33313.8 lineto
73821.3 33426.3 lineto
73708.8 33482.6 lineto
73483.8 33482.6 lineto
73371.4 33426.3 lineto
stroke
newpath
73877.5 32751.4 moveto
73765.1 32695.2 lineto
73483.8 32695.2 lineto
73371.4 32751.4 lineto
73315.1 32863.9 lineto
73315.1 32976.4 lineto
73371.4 33088.9 lineto
73483.8 33145.1 lineto
73765.1 33145.1 lineto
73877.5 33201.4 lineto
stroke
newpath
74271.2 33482.6 moveto
74721.2 33482.6 lineto
stroke
newpath
74440 33876.3 moveto
74440 32863.9 lineto
74496.2 32751.4 lineto
74608.7 32695.2 lineto
74721.2 32695.2 lineto
stroke
newpath
75564.8 32751.4 moveto
75452.3 32695.2 lineto
75227.4 32695.2 lineto
75114.9 32751.4 lineto
75058.6 32863.9 lineto
75058.6 33313.8 lineto
75114.9 33426.3 lineto
75227.4 33482.6 lineto
75452.3 33482.6 lineto
75564.8 33426.3 lineto
75621.1 33313.8 lineto
75621.1 33201.4 lineto
75058.6 33088.9 lineto
stroke
newpath
76633.4 32695.2 moveto
76633.4 33876.3 lineto
stroke
newpath
76633.4 32751.4 moveto
76521 32695.2 lineto
76296 32695.2 lineto
76183.5 32751.4 lineto
76127.3 32807.7 lineto
76071 32920.1 lineto
76071 33257.6 lineto
76127.3 33370.1 lineto
76183.5 33426.3 lineto
76296 33482.6 lineto
76521 33482.6 lineto
76633.4 33426.3 lineto
stroke
newpath
77083.4 32245.2 moveto
77139.6 32301.5 lineto
77252.1 32470.2 lineto
77308.4 32582.7 lineto
77364.6 32751.4 lineto
77420.8 33032.6 lineto
77420.8 33257.6 lineto
77364.6 33538.8 lineto
77308.4 33707.5 lineto
77252.1 33820 lineto
77139.6 33988.8 lineto
77083.4 34045 lineto
stroke
37282.5 31670.4 315.473 cir0
0 0 0 setrgbcolor
0 0 0 setrgbcolor
newpath
39344.4 31136.1 moveto
38669.4 31136.1 lineto
stroke
newpath
39006.9 31136.1 moveto
39006.9 32317.2 lineto
38894.4 32148.5 lineto
38781.9 32036 lineto
38669.4 31979.8 lineto
stroke
newpath
39850.5 31248.6 moveto
39906.8 31192.4 lineto
39850.5 31136.1 lineto
39794.3 31192.4 lineto
39850.5 31248.6 lineto
39850.5 31136.1 lineto
stroke
newpath
40975.4 32317.2 moveto
40413 32317.2 lineto
40356.7 31754.8 lineto
40413 31811 lineto
40525.5 31867.3 lineto
40806.7 31867.3 lineto
40919.2 31811 lineto
40975.4 31754.8 lineto
41031.6 31642.3 lineto
41031.6 31361.1 lineto
40975.4 31248.6 lineto
40919.2 31192.4 lineto
40806.7 31136.1 lineto
40525.5 31136.1 lineto
40413 31192.4 lineto
40356.7 31248.6 lineto
stroke
newpath
42100.3 32317.2 moveto
41537.8 32317.2 lineto
41481.6 31754.8 lineto
41537.8 31811 lineto
41650.3 31867.3 lineto
41931.5 31867.3 lineto
42044 31811 lineto
42100.3 31754.8 lineto
42156.5 31642.3 lineto
42156.5 31361.1 lineto
42100.3 31248.6 lineto
42044 31192.4 lineto
41931.5 31136.1 lineto
41650.3 31136.1 lineto
41537.8 31192.4 lineto
41481.6 31248.6 lineto
stroke
newpath
42887.7 32317.2 moveto
43000.1 32317.2 lineto
43112.6 32261 lineto
43168.9 32204.7 lineto
43225.1 32092.2 lineto
43281.4 31867.3 lineto
43281.4 31586.1 lineto
43225.1 31361.1 lineto
43168.9 31248.6 lineto
43112.6 31192.4 lineto
43000.1 31136.1 lineto
42887.7 31136.1 lineto
42775.2 31192.4 lineto
42718.9 31248.6 lineto
42662.7 31361.1 lineto
42606.4 31586.1 lineto
42606.4 31867.3 lineto
42662.7 32092.2 lineto
42718.9 32204.7 lineto
42775.2 32261 lineto
42887.7 32317.2 lineto
stroke
newpath
43787.5 31136.1 moveto
43787.5 31923.5 lineto
stroke
newpath
43787.5 31811 moveto
43843.8 31867.3 lineto
43956.3 31923.5 lineto
44125 31923.5 lineto
44237.5 31867.3 lineto
44293.7 31754.8 lineto
44293.7 31136.1 lineto
stroke
newpath
44293.7 31754.8 moveto
44350 31867.3 lineto
44462.5 31923.5 lineto
44631.2 31923.5 lineto
44743.7 31867.3 lineto
44799.9 31754.8 lineto
44799.9 31136.1 lineto
stroke
newpath
45362.4 31136.1 moveto
45362.4 31923.5 lineto
stroke
newpath
45362.4 31811 moveto
45418.6 31867.3 lineto
45531.1 31923.5 lineto
45699.8 31923.5 lineto
45812.3 31867.3 lineto
45868.5 31754.8 lineto
45868.5 31136.1 lineto
stroke
newpath
45868.5 31754.8 moveto
45924.8 31867.3 lineto
46037.3 31923.5 lineto
46206 31923.5 lineto
46318.5 31867.3 lineto
46374.7 31754.8 lineto
46374.7 31136.1 lineto
stroke
newpath
48680.7 32373.5 moveto
47668.3 30854.9 lineto
stroke
newpath
50199.2 32317.2 moveto
50311.7 32317.2 lineto
50424.2 32261 lineto
50480.5 32204.7 lineto
50536.7 32092.2 lineto
50592.9 31867.3 lineto
50592.9 31586.1 lineto
50536.7 31361.1 lineto
50480.5 31248.6 lineto
50424.2 31192.4 lineto
50311.7 31136.1 lineto
50199.2 31136.1 lineto
50086.8 31192.4 lineto
50030.5 31248.6 lineto
49974.3 31361.1 lineto
49918 31586.1 lineto
49918 31867.3 lineto
49974.3 32092.2 lineto
50030.5 32204.7 lineto
50086.8 32261 lineto
50199.2 32317.2 lineto
stroke
newpath
51099.1 31248.6 moveto
51155.4 31192.4 lineto
51099.1 31136.1 lineto
51042.9 31192.4 lineto
51099.1 31248.6 lineto
51099.1 31136.1 lineto
stroke
newpath
51886.5 32317.2 moveto
51999 32317.2 lineto
52111.5 32261 lineto
52167.8 32204.7 lineto
52224 32092.2 lineto
52280.2 31867.3 lineto
52280.2 31586.1 lineto
52224 31361.1 lineto
52167.8 31248.6 lineto
52111.5 31192.4 lineto
51999 31136.1 lineto
51886.5 31136.1 lineto
51774 31192.4 lineto
51717.8 31248.6 lineto
51661.6 31361.1 lineto
51605.3 31586.1 lineto
51605.3 31867.3 lineto
51661.6 32092.2 lineto
51717.8 32204.7 lineto
51774 32261 lineto
51886.5 32317.2 lineto
stroke
newpath
53292.6 32317.2 moveto
53067.6 32317.2 lineto
52955.2 32261 lineto
52898.9 32204.7 lineto
52786.4 32036 lineto
52730.2 31811 lineto
52730.2 31361.1 lineto
52786.4 31248.6 lineto
52842.7 31192.4 lineto
52955.2 31136.1 lineto
53180.1 31136.1 lineto
53292.6 31192.4 lineto
53348.9 31248.6 lineto
53405.1 31361.1 lineto
53405.1 31642.3 lineto
53348.9 31754.8 lineto
53292.6 31811 lineto
53180.1 31867.3 lineto
52955.2 31867.3 lineto
52842.7 31811 lineto
52786.4 31754.8 lineto
52730.2 31642.3 lineto
stroke
newpath
54530 31136.1 moveto
53855 31136.1 lineto
stroke
newpath
54192.5 31136.1 moveto
54192.5 32317.2 lineto
54080 32148.5 lineto
53967.5 32036 lineto
53855 31979.8 lineto
stroke
newpath
55261.1 32317.2 moveto
55373.6 32317.2 lineto
55486.1 32261 lineto
55542.3 32204.7 lineto
55598.6 32092.2 lineto
55654.8 31867.3 lineto
55654.8 31586.1 lineto
55598.6 31361.1 lineto
55542.3 31248.6 lineto
55486.1 31192.4 lineto
55373.6 31136.1 lineto
55261.1 31136.1 lineto
55148.6 31192.4 lineto
55092.4 31248.6 lineto
55036.1 31361.1 lineto
54979.9 31586.1 lineto
54979.9 31867.3 lineto
55036.1 32092.2 lineto
55092.4 32204.7 lineto
55148.6 32261 lineto
55261.1 32317.2 lineto
stroke
newpath
56104.8 32317.2 moveto
56104.8 32092.2 lineto
stroke
newpath
56554.7 32317.2 moveto
56554.7 32092.2 lineto
stroke
newpath
58298.2 30686.2 moveto
58242 30742.4 lineto
58129.5 30911.1 lineto
58073.3 31023.6 lineto
58017 31192.4 lineto
57960.8 31473.6 lineto
57960.8 31698.5 lineto
58017 31979.8 lineto
58073.3 32148.5 lineto
58129.5 32261 lineto
58242 32429.7 lineto
58298.2 32485.9 lineto
stroke
newpath
59366.9 31136.1 moveto
58691.9 31136.1 lineto
stroke
newpath
59029.4 31136.1 moveto
59029.4 32317.2 lineto
58916.9 32148.5 lineto
58804.4 32036 lineto
58691.9 31979.8 lineto
stroke
newpath
60772.9 31136.1 moveto
60772.9 32317.2 lineto
stroke
newpath
61279.1 31136.1 moveto
61279.1 31754.8 lineto
61222.9 31867.3 lineto
61110.4 31923.5 lineto
60941.7 31923.5 lineto
60829.2 31867.3 lineto
60772.9 31811 lineto
stroke
newpath
62010.3 31136.1 moveto
61897.8 31192.4 lineto
61841.5 31248.6 lineto
61785.3 31361.1 lineto
61785.3 31698.5 lineto
61841.5 31811 lineto
61897.8 31867.3 lineto
62010.3 31923.5 lineto
62179 31923.5 lineto
62291.5 31867.3 lineto
62347.7 31811 lineto
62404 31698.5 lineto
62404 31361.1 lineto
62347.7 31248.6 lineto
62291.5 31192.4 lineto
62179 31136.1 lineto
62010.3 31136.1 lineto
stroke
newpath
63078.9 31136.1 moveto
62966.4 31192.4 lineto
62910.2 31304.8 lineto
62910.2 32317.2 lineto
stroke
newpath
63978.8 31192.4 moveto
63866.3 31136.1 lineto
63641.3 31136.1 lineto
63528.8 31192.4 lineto
63472.6 31304.8 lineto
63472.6 31754.8 lineto
63528.8 31867.3 lineto
63641.3 31923.5 lineto
63866.3 31923.5 lineto
63978.8 31867.3 lineto
64035 31754.8 lineto
64035 31642.3 lineto
63472.6 31529.8 lineto
stroke
newpath
64428.7 30686.2 moveto
64485 30742.4 lineto
64597.4 30911.1 lineto
64653.7 31023.6 lineto
64709.9 31192.4 lineto
64766.2 31473.6 lineto
64766.2 31698.5 lineto
64709.9 31979.8 lineto
64653.7 32148.5 lineto
64597.4 32261 lineto
64485 32429.7 lineto
64428.7 32485.9 lineto
stroke
newpath
66566 30686.2 moveto
66509.7 30742.4 lineto
66397.2 30911.1 lineto
66341 31023.6 lineto
66284.7 31192.4 lineto
66228.5 31473.6 lineto
66228.5 31698.5 lineto
66284.7 31979.8 lineto
66341 32148.5 lineto
66397.2 32261 lineto
66509.7 32429.7 lineto
66566 32485.9 lineto
stroke
newpath
67015.9 31923.5 moveto
67015.9 31136.1 lineto
stroke
newpath
67015.9 31811 moveto
67072.1 31867.3 lineto
67184.6 31923.5 lineto
67353.4 31923.5 lineto
67465.8 31867.3 lineto
67522.1 31754.8 lineto
67522.1 31136.1 lineto
stroke
newpath
68253.2 31136.1 moveto
68140.8 31192.4 lineto
68084.5 31248.6 lineto
68028.3 31361.1 lineto
68028.3 31698.5 lineto
68084.5 31811 lineto
68140.8 31867.3 lineto
68253.2 31923.5 lineto
68422 31923.5 lineto
68534.5 31867.3 lineto
68590.7 31811 lineto
68646.9 31698.5 lineto
68646.9 31361.1 lineto
68590.7 31248.6 lineto
68534.5 31192.4 lineto
68422 31136.1 lineto
68253.2 31136.1 lineto
stroke
newpath
68984.4 31923.5 moveto
69434.3 31923.5 lineto
stroke
newpath
69153.1 32317.2 moveto
69153.1 31304.8 lineto
69209.4 31192.4 lineto
69321.9 31136.1 lineto
69434.3 31136.1 lineto
stroke
newpath
70727.9 31923.5 moveto
70727.9 30742.4 lineto
stroke
newpath
70727.9 31867.3 moveto
70840.4 31923.5 lineto
71065.4 31923.5 lineto
71177.9 31867.3 lineto
71234.1 31811 lineto
71290.4 31698.5 lineto
71290.4 31361.1 lineto
71234.1 31248.6 lineto
71177.9 31192.4 lineto
71065.4 31136.1 lineto
70840.4 31136.1 lineto
70727.9 31192.4 lineto
stroke
newpath
71965.3 31136.1 moveto
71852.8 31192.4 lineto
71796.5 31304.8 lineto
71796.5 32317.2 lineto
stroke
newpath
72921.4 31136.1 moveto
72921.4 31754.8 lineto
72865.2 31867.3 lineto
72752.7 31923.5 lineto
72527.7 31923.5 lineto
72415.2 31867.3 lineto
stroke
newpath
72921.4 31192.4 moveto
72808.9 31136.1 lineto
72527.7 31136.1 lineto
72415.2 31192.4 lineto
72359 31304.8 lineto
72359 31417.3 lineto
72415.2 31529.8 lineto
72527.7 31586.1 lineto
72808.9 31586.1 lineto
72921.4 31642.3 lineto
stroke
newpath
73315.1 31923.5 moveto
73765.1 31923.5 lineto
stroke
newpath
73483.8 32317.2 moveto
73483.8 31304.8 lineto
73540.1 31192.4 lineto
73652.6 31136.1 lineto
73765.1 31136.1 lineto
stroke
newpath
74608.7 31192.4 moveto
74496.2 31136.1 lineto
74271.2 31136.1 lineto
74158.8 31192.4 lineto
74102.5 31304.8 lineto
74102.5 31754.8 lineto
74158.8 31867.3 lineto
74271.2 31923.5 lineto
74496.2 31923.5 lineto
74608.7 31867.3 lineto
74664.9 31754.8 lineto
74664.9 31642.3 lineto
74102.5 31529.8 lineto
stroke
newpath
75677.3 31136.1 moveto
75677.3 32317.2 lineto
stroke
newpath
75677.3 31192.4 moveto
75564.8 31136.1 lineto
75339.9 31136.1 lineto
75227.4 31192.4 lineto
75171.1 31248.6 lineto
75114.9 31361.1 lineto
75114.9 31698.5 lineto
75171.1 31811 lineto
75227.4 31867.3 lineto
75339.9 31923.5 lineto
75564.8 31923.5 lineto
75677.3 31867.3 lineto
stroke
newpath
76127.3 30686.2 moveto
76183.5 30742.4 lineto
76296 30911.1 lineto
76352.2 31023.6 lineto
76408.5 31192.4 lineto
76464.7 31473.6 lineto
76464.7 31698.5 lineto
76408.5 31979.8 lineto
76352.2 32148.5 lineto
76296 32261 lineto
76183.5 32429.7 lineto
76127.3 32485.9 lineto
stroke
newpath
37231.7 30477.7 moveto
37231.7 29745 lineto
stroke
newpath
36865.3 30111.4 moveto
37598 30111.4 lineto
stroke
0 0 0 setrgbcolor
0 0 0 setrgbcolor
newpath
39344.4 29577.1 moveto
38669.4 29577.1 lineto
stroke
newpath
39006.9 29577.1 moveto
39006.9 30758.2 lineto
38894.4 30589.4 lineto
38781.9 30476.9 lineto
38669.4 30420.7 lineto
stroke
newpath
39850.5 29689.5 moveto
39906.8 29633.3 lineto
39850.5 29577.1 lineto
39794.3 29633.3 lineto
39850.5 29689.5 lineto
39850.5 29577.1 lineto
stroke
newpath
40581.7 30252 moveto
40469.2 30308.2 lineto
40413 30364.5 lineto
40356.7 30476.9 lineto
40356.7 30533.2 lineto
40413 30645.7 lineto
40469.2 30701.9 lineto
40581.7 30758.2 lineto
40806.7 30758.2 lineto
40919.2 30701.9 lineto
40975.4 30645.7 lineto
41031.6 30533.2 lineto
41031.6 30476.9 lineto
40975.4 30364.5 lineto
40919.2 30308.2 lineto
40806.7 30252 lineto
40581.7 30252 lineto
40469.2 30195.7 lineto
40413 30139.5 lineto
40356.7 30027 lineto
40356.7 29802 lineto
40413 29689.5 lineto
40469.2 29633.3 lineto
40581.7 29577.1 lineto
40806.7 29577.1 lineto
40919.2 29633.3 lineto
40975.4 29689.5 lineto
41031.6 29802 lineto
41031.6 30027 lineto
40975.4 30139.5 lineto
40919.2 30195.7 lineto
40806.7 30252 lineto
stroke
newpath
41762.8 30758.2 moveto
41875.3 30758.2 lineto
41987.8 30701.9 lineto
42044 30645.7 lineto
42100.3 30533.2 lineto
42156.5 30308.2 lineto
42156.5 30027 lineto
42100.3 29802 lineto
42044 29689.5 lineto
41987.8 29633.3 lineto
41875.3 29577.1 lineto
41762.8 29577.1 lineto
41650.3 29633.3 lineto
41594.1 29689.5 lineto
41537.8 29802 lineto
41481.6 30027 lineto
41481.6 30308.2 lineto
41537.8 30533.2 lineto
41594.1 30645.7 lineto
41650.3 30701.9 lineto
41762.8 30758.2 lineto
stroke
newpath
42887.7 30758.2 moveto
43000.1 30758.2 lineto
43112.6 30701.9 lineto
43168.9 30645.7 lineto
43225.1 30533.2 lineto
43281.4 30308.2 lineto
43281.4 30027 lineto
43225.1 29802 lineto
43168.9 29689.5 lineto
43112.6 29633.3 lineto
43000.1 29577.1 lineto
42887.7 29577.1 lineto
42775.2 29633.3 lineto
42718.9 29689.5 lineto
42662.7 29802 lineto
42606.4 30027 lineto
42606.4 30308.2 lineto
42662.7 30533.2 lineto
42718.9 30645.7 lineto
42775.2 30701.9 lineto
42887.7 30758.2 lineto
stroke
newpath
43787.5 29577.1 moveto
43787.5 30364.5 lineto
stroke
newpath
43787.5 30252 moveto
43843.8 30308.2 lineto
43956.3 30364.5 lineto
44125 30364.5 lineto
44237.5 30308.2 lineto
44293.7 30195.7 lineto
44293.7 29577.1 lineto
stroke
newpath
44293.7 30195.7 moveto
44350 30308.2 lineto
44462.5 30364.5 lineto
44631.2 30364.5 lineto
44743.7 30308.2 lineto
44799.9 30195.7 lineto
44799.9 29577.1 lineto
stroke
newpath
45362.4 29577.1 moveto
45362.4 30364.5 lineto
stroke
newpath
45362.4 30252 moveto
45418.6 30308.2 lineto
45531.1 30364.5 lineto
45699.8 30364.5 lineto
45812.3 30308.2 lineto
45868.5 30195.7 lineto
45868.5 29577.1 lineto
stroke
newpath
45868.5 30195.7 moveto
45924.8 30308.2 lineto
46037.3 30364.5 lineto
46206 30364.5 lineto
46318.5 30308.2 lineto
46374.7 30195.7 lineto
46374.7 29577.1 lineto
stroke
newpath
48680.7 30814.4 moveto
47668.3 29295.8 lineto
stroke
newpath
50199.2 30758.2 moveto
50311.7 30758.2 lineto
50424.2 30701.9 lineto
50480.5 30645.7 lineto
50536.7 30533.2 lineto
50592.9 30308.2 lineto
50592.9 30027 lineto
50536.7 29802 lineto
50480.5 29689.5 lineto
50424.2 29633.3 lineto
50311.7 29577.1 lineto
50199.2 29577.1 lineto
50086.8 29633.3 lineto
50030.5 29689.5 lineto
49974.3 29802 lineto
49918 30027 lineto
49918 30308.2 lineto
49974.3 30533.2 lineto
50030.5 30645.7 lineto
50086.8 30701.9 lineto
50199.2 30758.2 lineto
stroke
newpath
51099.1 29689.5 moveto
51155.4 29633.3 lineto
51099.1 29577.1 lineto
51042.9 29633.3 lineto
51099.1 29689.5 lineto
51099.1 29577.1 lineto
stroke
newpath
51886.5 30758.2 moveto
51999 30758.2 lineto
52111.5 30701.9 lineto
52167.8 30645.7 lineto
52224 30533.2 lineto
52280.2 30308.2 lineto
52280.2 30027 lineto
52224 29802 lineto
52167.8 29689.5 lineto
52111.5 29633.3 lineto
51999 29577.1 lineto
51886.5 29577.1 lineto
51774 29633.3 lineto
51717.8 29689.5 lineto
51661.6 29802 lineto
51605.3 30027 lineto
51605.3 30308.2 lineto
51661.6 30533.2 lineto
51717.8 30645.7 lineto
51774 30701.9 lineto
51886.5 30758.2 lineto
stroke
newpath
52673.9 30758.2 moveto
53461.3 30758.2 lineto
52955.2 29577.1 lineto
stroke
newpath
54136.3 30758.2 moveto
54248.7 30758.2 lineto
54361.2 30701.9 lineto
54417.5 30645.7 lineto
54473.7 30533.2 lineto
54530 30308.2 lineto
54530 30027 lineto
54473.7 29802 lineto
54417.5 29689.5 lineto
54361.2 29633.3 lineto
54248.7 29577.1 lineto
54136.3 29577.1 lineto
54023.8 29633.3 lineto
53967.5 29689.5 lineto
53911.3 29802 lineto
53855 30027 lineto
53855 30308.2 lineto
53911.3 30533.2 lineto
53967.5 30645.7 lineto
54023.8 30701.9 lineto
54136.3 30758.2 lineto
stroke
newpath
55092.4 29577.1 moveto
55317.4 29577.1 lineto
55429.8 29633.3 lineto
55486.1 29689.5 lineto
55598.6 29858.3 lineto
55654.8 30083.2 lineto
55654.8 30533.2 lineto
55598.6 30645.7 lineto
55542.3 30701.9 lineto
55429.8 30758.2 lineto
55204.9 30758.2 lineto
55092.4 30701.9 lineto
55036.1 30645.7 lineto
54979.9 30533.2 lineto
54979.9 30252 lineto
55036.1 30139.5 lineto
55092.4 30083.2 lineto
55204.9 30027 lineto
55429.8 30027 lineto
55542.3 30083.2 lineto
55598.6 30139.5 lineto
55654.8 30252 lineto
stroke
newpath
56104.8 30758.2 moveto
56104.8 30533.2 lineto
stroke
newpath
56554.7 30758.2 moveto
56554.7 30533.2 lineto
stroke
newpath
58298.2 29127.1 moveto
58242 29183.4 lineto
58129.5 29352.1 lineto
58073.3 29464.6 lineto
58017 29633.3 lineto
57960.8 29914.5 lineto
57960.8 30139.5 lineto
58017 30420.7 lineto
58073.3 30589.4 lineto
58129.5 30701.9 lineto
58242 30870.7 lineto
58298.2 30926.9 lineto
stroke
newpath
58691.9 30645.7 moveto
58748.2 30701.9 lineto
58860.7 30758.2 lineto
59141.9 30758.2 lineto
59254.4 30701.9 lineto
59310.6 30645.7 lineto
59366.9 30533.2 lineto
59366.9 30420.7 lineto
59310.6 30252 lineto
58635.7 29577.1 lineto
59366.9 29577.1 lineto
stroke
newpath
60772.9 29577.1 moveto
60772.9 30758.2 lineto
stroke
newpath
61279.1 29577.1 moveto
61279.1 30195.7 lineto
61222.9 30308.2 lineto
61110.4 30364.5 lineto
60941.7 30364.5 lineto
60829.2 30308.2 lineto
60772.9 30252 lineto
stroke
newpath
62010.3 29577.1 moveto
61897.8 29633.3 lineto
61841.5 29689.5 lineto
61785.3 29802 lineto
61785.3 30139.5 lineto
61841.5 30252 lineto
61897.8 30308.2 lineto
62010.3 30364.5 lineto
62179 30364.5 lineto
62291.5 30308.2 lineto
62347.7 30252 lineto
62404 30139.5 lineto
62404 29802 lineto
62347.7 29689.5 lineto
62291.5 29633.3 lineto
62179 29577.1 lineto
62010.3 29577.1 lineto
stroke
newpath
63078.9 29577.1 moveto
62966.4 29633.3 lineto
62910.2 29745.8 lineto
62910.2 30758.2 lineto
stroke
newpath
63978.8 29633.3 moveto
63866.3 29577.1 lineto
63641.3 29577.1 lineto
63528.8 29633.3 lineto
63472.6 29745.8 lineto
63472.6 30195.7 lineto
63528.8 30308.2 lineto
63641.3 30364.5 lineto
63866.3 30364.5 lineto
63978.8 30308.2 lineto
64035 30195.7 lineto
64035 30083.2 lineto
63472.6 29970.8 lineto
stroke
newpath
64485 29633.3 moveto
64597.4 29577.1 lineto
64822.4 29577.1 lineto
64934.9 29633.3 lineto
64991.1 29745.8 lineto
64991.1 29802 lineto
64934.9 29914.5 lineto
64822.4 29970.8 lineto
64653.7 29970.8 lineto
64541.2 30027 lineto
64485 30139.5 lineto
64485 30195.7 lineto
64541.2 30308.2 lineto
64653.7 30364.5 lineto
64822.4 30364.5 lineto
64934.9 30308.2 lineto
stroke
newpath
65384.8 29127.1 moveto
65441.1 29183.4 lineto
65553.6 29352.1 lineto
65609.8 29464.6 lineto
65666.1 29633.3 lineto
65722.3 29914.5 lineto
65722.3 30139.5 lineto
65666.1 30420.7 lineto
65609.8 30589.4 lineto
65553.6 30701.9 lineto
65441.1 30870.7 lineto
65384.8 30926.9 lineto
stroke
newpath
67522.1 29127.1 moveto
67465.8 29183.4 lineto
67353.4 29352.1 lineto
67297.1 29464.6 lineto
67240.9 29633.3 lineto
67184.6 29914.5 lineto
67184.6 30139.5 lineto
67240.9 30420.7 lineto
67297.1 30589.4 lineto
67353.4 30701.9 lineto
67465.8 30870.7 lineto
67522.1 30926.9 lineto
stroke
newpath
67972 30364.5 moveto
67972 29577.1 lineto
stroke
newpath
67972 30252 moveto
68028.3 30308.2 lineto
68140.8 30364.5 lineto
68309.5 30364.5 lineto
68422 30308.2 lineto
68478.2 30195.7 lineto
68478.2 29577.1 lineto
stroke
newpath
69209.4 29577.1 moveto
69096.9 29633.3 lineto
69040.6 29689.5 lineto
68984.4 29802 lineto
68984.4 30139.5 lineto
69040.6 30252 lineto
69096.9 30308.2 lineto
69209.4 30364.5 lineto
69378.1 30364.5 lineto
69490.6 30308.2 lineto
69546.8 30252 lineto
69603.1 30139.5 lineto
69603.1 29802 lineto
69546.8 29689.5 lineto
69490.6 29633.3 lineto
69378.1 29577.1 lineto
69209.4 29577.1 lineto
stroke
newpath
69940.5 30364.5 moveto
70390.5 30364.5 lineto
stroke
newpath
70109.3 30758.2 moveto
70109.3 29745.8 lineto
70165.5 29633.3 lineto
70278 29577.1 lineto
70390.5 29577.1 lineto
stroke
newpath
71684.1 30364.5 moveto
71684.1 29183.4 lineto
stroke
newpath
71684.1 30308.2 moveto
71796.5 30364.5 lineto
72021.5 30364.5 lineto
72134 30308.2 lineto
72190.2 30252 lineto
72246.5 30139.5 lineto
72246.5 29802 lineto
72190.2 29689.5 lineto
72134 29633.3 lineto
72021.5 29577.1 lineto
71796.5 29577.1 lineto
71684.1 29633.3 lineto
stroke
newpath
72921.4 29577.1 moveto
72808.9 29633.3 lineto
72752.7 29745.8 lineto
72752.7 30758.2 lineto
stroke
newpath
73877.5 29577.1 moveto
73877.5 30195.7 lineto
73821.3 30308.2 lineto
73708.8 30364.5 lineto
73483.8 30364.5 lineto
73371.4 30308.2 lineto
stroke
newpath
73877.5 29633.3 moveto
73765.1 29577.1 lineto
73483.8 29577.1 lineto
73371.4 29633.3 lineto
73315.1 29745.8 lineto
73315.1 29858.3 lineto
73371.4 29970.8 lineto
73483.8 30027 lineto
73765.1 30027 lineto
73877.5 30083.2 lineto
stroke
newpath
74271.2 30364.5 moveto
74721.2 30364.5 lineto
stroke
newpath
74440 30758.2 moveto
74440 29745.8 lineto
74496.2 29633.3 lineto
74608.7 29577.1 lineto
74721.2 29577.1 lineto
stroke
newpath
75564.8 29633.3 moveto
75452.3 29577.1 lineto
75227.4 29577.1 lineto
75114.9 29633.3 lineto
75058.6 29745.8 lineto
75058.6 30195.7 lineto
75114.9 30308.2 lineto
75227.4 30364.5 lineto
75452.3 30364.5 lineto
75564.8 30308.2 lineto
75621.1 30195.7 lineto
75621.1 30083.2 lineto
75058.6 29970.8 lineto
stroke
newpath
76633.4 29577.1 moveto
76633.4 30758.2 lineto
stroke
newpath
76633.4 29633.3 moveto
76521 29577.1 lineto
76296 29577.1 lineto
76183.5 29633.3 lineto
76127.3 29689.5 lineto
76071 29802 lineto
76071 30139.5 lineto
76127.3 30252 lineto
76183.5 30308.2 lineto
76296 30364.5 lineto
76521 30364.5 lineto
76633.4 30308.2 lineto
stroke
newpath
77083.4 29127.1 moveto
77139.6 29183.4 lineto
77252.1 29352.1 lineto
77308.4 29464.6 lineto
77364.6 29633.3 lineto
77420.8 29914.5 lineto
77420.8 30139.5 lineto
77364.6 30420.7 lineto
77308.4 30589.4 lineto
77252.1 30701.9 lineto
77139.6 30870.7 lineto
77083.4 30926.9 lineto
stroke
newpath
37490.7 28293.3 moveto
37490.7 28811.4 lineto
36972.6 28811.4 lineto
36972.6 28293.3 lineto
37490.7 28293.3 lineto
poly0
0 0 0 setrgbcolor
0 0 0 setrgbcolor
newpath
39344.4 28018 moveto
38669.4 28018 lineto
stroke
newpath
39006.9 28018 moveto
39006.9 29199.1 lineto
38894.4 29030.4 lineto
38781.9 28917.9 lineto
38669.4 28861.7 lineto
stroke
newpath
39850.5 28130.5 moveto
39906.8 28074.2 lineto
39850.5 28018 lineto
39794.3 28074.2 lineto
39850.5 28130.5 lineto
39850.5 28018 lineto
stroke
newpath
40581.7 28692.9 moveto
40469.2 28749.2 lineto
40413 28805.4 lineto
40356.7 28917.9 lineto
40356.7 28974.1 lineto
40413 29086.6 lineto
40469.2 29142.9 lineto
40581.7 29199.1 lineto
40806.7 29199.1 lineto
40919.2 29142.9 lineto
40975.4 29086.6 lineto
41031.6 28974.1 lineto
41031.6 28917.9 lineto
40975.4 28805.4 lineto
40919.2 28749.2 lineto
40806.7 28692.9 lineto
40581.7 28692.9 lineto
40469.2 28636.7 lineto
40413 28580.4 lineto
40356.7 28468 lineto
40356.7 28243 lineto
40413 28130.5 lineto
40469.2 28074.2 lineto
40581.7 28018 lineto
40806.7 28018 lineto
40919.2 28074.2 lineto
40975.4 28130.5 lineto
41031.6 28243 lineto
41031.6 28468 lineto
40975.4 28580.4 lineto
40919.2 28636.7 lineto
40806.7 28692.9 lineto
stroke
newpath
41762.8 29199.1 moveto
41875.3 29199.1 lineto
41987.8 29142.9 lineto
42044 29086.6 lineto
42100.3 28974.1 lineto
42156.5 28749.2 lineto
42156.5 28468 lineto
42100.3 28243 lineto
42044 28130.5 lineto
41987.8 28074.2 lineto
41875.3 28018 lineto
41762.8 28018 lineto
41650.3 28074.2 lineto
41594.1 28130.5 lineto
41537.8 28243 lineto
41481.6 28468 lineto
41481.6 28749.2 lineto
41537.8 28974.1 lineto
41594.1 29086.6 lineto
41650.3 29142.9 lineto
41762.8 29199.1 lineto
stroke
newpath
42887.7 29199.1 moveto
43000.1 29199.1 lineto
43112.6 29142.9 lineto
43168.9 29086.6 lineto
43225.1 28974.1 lineto
43281.4 28749.2 lineto
43281.4 28468 lineto
43225.1 28243 lineto
43168.9 28130.5 lineto
43112.6 28074.2 lineto
43000.1 28018 lineto
42887.7 28018 lineto
42775.2 28074.2 lineto
42718.9 28130.5 lineto
42662.7 28243 lineto
42606.4 28468 lineto
42606.4 28749.2 lineto
42662.7 28974.1 lineto
42718.9 29086.6 lineto
42775.2 29142.9 lineto
42887.7 29199.1 lineto
stroke
newpath
43787.5 28018 moveto
43787.5 28805.4 lineto
stroke
newpath
43787.5 28692.9 moveto
43843.8 28749.2 lineto
43956.3 28805.4 lineto
44125 28805.4 lineto
44237.5 28749.2 lineto
44293.7 28636.7 lineto
44293.7 28018 lineto
stroke
newpath
44293.7 28636.7 moveto
44350 28749.2 lineto
44462.5 28805.4 lineto
44631.2 28805.4 lineto
44743.7 28749.2 lineto
44799.9 28636.7 lineto
44799.9 28018 lineto
stroke
newpath
45362.4 28018 moveto
45362.4 28805.4 lineto
stroke
newpath
45362.4 28692.9 moveto
45418.6 28749.2 lineto
45531.1 28805.4 lineto
45699.8 28805.4 lineto
45812.3 28749.2 lineto
45868.5 28636.7 lineto
45868.5 28018 lineto
stroke
newpath
45868.5 28636.7 moveto
45924.8 28749.2 lineto
46037.3 28805.4 lineto
46206 28805.4 lineto
46318.5 28749.2 lineto
46374.7 28636.7 lineto
46374.7 28018 lineto
stroke
newpath
48680.7 29255.4 moveto
47668.3 27736.8 lineto
stroke
newpath
50199.2 29199.1 moveto
50311.7 29199.1 lineto
50424.2 29142.9 lineto
50480.5 29086.6 lineto
50536.7 28974.1 lineto
50592.9 28749.2 lineto
50592.9 28468 lineto
50536.7 28243 lineto
50480.5 28130.5 lineto
50424.2 28074.2 lineto
50311.7 28018 lineto
50199.2 28018 lineto
50086.8 28074.2 lineto
50030.5 28130.5 lineto
49974.3 28243 lineto
49918 28468 lineto
49918 28749.2 lineto
49974.3 28974.1 lineto
50030.5 29086.6 lineto
50086.8 29142.9 lineto
50199.2 29199.1 lineto
stroke
newpath
51099.1 28130.5 moveto
51155.4 28074.2 lineto
51099.1 28018 lineto
51042.9 28074.2 lineto
51099.1 28130.5 lineto
51099.1 28018 lineto
stroke
newpath
51886.5 29199.1 moveto
51999 29199.1 lineto
52111.5 29142.9 lineto
52167.8 29086.6 lineto
52224 28974.1 lineto
52280.2 28749.2 lineto
52280.2 28468 lineto
52224 28243 lineto
52167.8 28130.5 lineto
52111.5 28074.2 lineto
51999 28018 lineto
51886.5 28018 lineto
51774 28074.2 lineto
51717.8 28130.5 lineto
51661.6 28243 lineto
51605.3 28468 lineto
51605.3 28749.2 lineto
51661.6 28974.1 lineto
51717.8 29086.6 lineto
51774 29142.9 lineto
51886.5 29199.1 lineto
stroke
newpath
52673.9 29199.1 moveto
53461.3 29199.1 lineto
52955.2 28018 lineto
stroke
newpath
54136.3 29199.1 moveto
54248.7 29199.1 lineto
54361.2 29142.9 lineto
54417.5 29086.6 lineto
54473.7 28974.1 lineto
54530 28749.2 lineto
54530 28468 lineto
54473.7 28243 lineto
54417.5 28130.5 lineto
54361.2 28074.2 lineto
54248.7 28018 lineto
54136.3 28018 lineto
54023.8 28074.2 lineto
53967.5 28130.5 lineto
53911.3 28243 lineto
53855 28468 lineto
53855 28749.2 lineto
53911.3 28974.1 lineto
53967.5 29086.6 lineto
54023.8 29142.9 lineto
54136.3 29199.1 lineto
stroke
newpath
55092.4 28018 moveto
55317.4 28018 lineto
55429.8 28074.2 lineto
55486.1 28130.5 lineto
55598.6 28299.2 lineto
55654.8 28524.2 lineto
55654.8 28974.1 lineto
55598.6 29086.6 lineto
55542.3 29142.9 lineto
55429.8 29199.1 lineto
55204.9 29199.1 lineto
55092.4 29142.9 lineto
55036.1 29086.6 lineto
54979.9 28974.1 lineto
54979.9 28692.9 lineto
55036.1 28580.4 lineto
55092.4 28524.2 lineto
55204.9 28468 lineto
55429.8 28468 lineto
55542.3 28524.2 lineto
55598.6 28580.4 lineto
55654.8 28692.9 lineto
stroke
newpath
56104.8 29199.1 moveto
56104.8 28974.1 lineto
stroke
newpath
56554.7 29199.1 moveto
56554.7 28974.1 lineto
stroke
newpath
58298.2 27568.1 moveto
58242 27624.3 lineto
58129.5 27793 lineto
58073.3 27905.5 lineto
58017 28074.2 lineto
57960.8 28355.5 lineto
57960.8 28580.4 lineto
58017 28861.7 lineto
58073.3 29030.4 lineto
58129.5 29142.9 lineto
58242 29311.6 lineto
58298.2 29367.8 lineto
stroke
newpath
58691.9 29086.6 moveto
58748.2 29142.9 lineto
58860.7 29199.1 lineto
59141.9 29199.1 lineto
59254.4 29142.9 lineto
59310.6 29086.6 lineto
59366.9 28974.1 lineto
59366.9 28861.7 lineto
59310.6 28692.9 lineto
58635.7 28018 lineto
59366.9 28018 lineto
stroke
newpath
60772.9 28018 moveto
60772.9 29199.1 lineto
stroke
newpath
61279.1 28018 moveto
61279.1 28636.7 lineto
61222.9 28749.2 lineto
61110.4 28805.4 lineto
60941.7 28805.4 lineto
60829.2 28749.2 lineto
60772.9 28692.9 lineto
stroke
newpath
62010.3 28018 moveto
61897.8 28074.2 lineto
61841.5 28130.5 lineto
61785.3 28243 lineto
61785.3 28580.4 lineto
61841.5 28692.9 lineto
61897.8 28749.2 lineto
62010.3 28805.4 lineto
62179 28805.4 lineto
62291.5 28749.2 lineto
62347.7 28692.9 lineto
62404 28580.4 lineto
62404 28243 lineto
62347.7 28130.5 lineto
62291.5 28074.2 lineto
62179 28018 lineto
62010.3 28018 lineto
stroke
newpath
63078.9 28018 moveto
62966.4 28074.2 lineto
62910.2 28186.7 lineto
62910.2 29199.1 lineto
stroke
newpath
63978.8 28074.2 moveto
63866.3 28018 lineto
63641.3 28018 lineto
63528.8 28074.2 lineto
63472.6 28186.7 lineto
63472.6 28636.7 lineto
63528.8 28749.2 lineto
63641.3 28805.4 lineto
63866.3 28805.4 lineto
63978.8 28749.2 lineto
64035 28636.7 lineto
64035 28524.2 lineto
63472.6 28411.7 lineto
stroke
newpath
64485 28074.2 moveto
64597.4 28018 lineto
64822.4 28018 lineto
64934.9 28074.2 lineto
64991.1 28186.7 lineto
64991.1 28243 lineto
64934.9 28355.5 lineto
64822.4 28411.7 lineto
64653.7 28411.7 lineto
64541.2 28468 lineto
64485 28580.4 lineto
64485 28636.7 lineto
64541.2 28749.2 lineto
64653.7 28805.4 lineto
64822.4 28805.4 lineto
64934.9 28749.2 lineto
stroke
newpath
65384.8 27568.1 moveto
65441.1 27624.3 lineto
65553.6 27793 lineto
65609.8 27905.5 lineto
65666.1 28074.2 lineto
65722.3 28355.5 lineto
65722.3 28580.4 lineto
65666.1 28861.7 lineto
65609.8 29030.4 lineto
65553.6 29142.9 lineto
65441.1 29311.6 lineto
65384.8 29367.8 lineto
stroke
newpath
67522.1 27568.1 moveto
67465.8 27624.3 lineto
67353.4 27793 lineto
67297.1 27905.5 lineto
67240.9 28074.2 lineto
67184.6 28355.5 lineto
67184.6 28580.4 lineto
67240.9 28861.7 lineto
67297.1 29030.4 lineto
67353.4 29142.9 lineto
67465.8 29311.6 lineto
67522.1 29367.8 lineto
stroke
newpath
67972 28805.4 moveto
67972 28018 lineto
stroke
newpath
67972 28692.9 moveto
68028.3 28749.2 lineto
68140.8 28805.4 lineto
68309.5 28805.4 lineto
68422 28749.2 lineto
68478.2 28636.7 lineto
68478.2 28018 lineto
stroke
newpath
69209.4 28018 moveto
69096.9 28074.2 lineto
69040.6 28130.5 lineto
68984.4 28243 lineto
68984.4 28580.4 lineto
69040.6 28692.9 lineto
69096.9 28749.2 lineto
69209.4 28805.4 lineto
69378.1 28805.4 lineto
69490.6 28749.2 lineto
69546.8 28692.9 lineto
69603.1 28580.4 lineto
69603.1 28243 lineto
69546.8 28130.5 lineto
69490.6 28074.2 lineto
69378.1 28018 lineto
69209.4 28018 lineto
stroke
newpath
69940.5 28805.4 moveto
70390.5 28805.4 lineto
stroke
newpath
70109.3 29199.1 moveto
70109.3 28186.7 lineto
70165.5 28074.2 lineto
70278 28018 lineto
70390.5 28018 lineto
stroke
newpath
71684.1 28805.4 moveto
71684.1 27624.3 lineto
stroke
newpath
71684.1 28749.2 moveto
71796.5 28805.4 lineto
72021.5 28805.4 lineto
72134 28749.2 lineto
72190.2 28692.9 lineto
72246.5 28580.4 lineto
72246.5 28243 lineto
72190.2 28130.5 lineto
72134 28074.2 lineto
72021.5 28018 lineto
71796.5 28018 lineto
71684.1 28074.2 lineto
stroke
newpath
72921.4 28018 moveto
72808.9 28074.2 lineto
72752.7 28186.7 lineto
72752.7 29199.1 lineto
stroke
newpath
73877.5 28018 moveto
73877.5 28636.7 lineto
73821.3 28749.2 lineto
73708.8 28805.4 lineto
73483.8 28805.4 lineto
73371.4 28749.2 lineto
stroke
newpath
73877.5 28074.2 moveto
73765.1 28018 lineto
73483.8 28018 lineto
73371.4 28074.2 lineto
73315.1 28186.7 lineto
73315.1 28299.2 lineto
73371.4 28411.7 lineto
73483.8 28468 lineto
73765.1 28468 lineto
73877.5 28524.2 lineto
stroke
newpath
74271.2 28805.4 moveto
74721.2 28805.4 lineto
stroke
newpath
74440 29199.1 moveto
74440 28186.7 lineto
74496.2 28074.2 lineto
74608.7 28018 lineto
74721.2 28018 lineto
stroke
newpath
75564.8 28074.2 moveto
75452.3 28018 lineto
75227.4 28018 lineto
75114.9 28074.2 lineto
75058.6 28186.7 lineto
75058.6 28636.7 lineto
75114.9 28749.2 lineto
75227.4 28805.4 lineto
75452.3 28805.4 lineto
75564.8 28749.2 lineto
75621.1 28636.7 lineto
75621.1 28524.2 lineto
75058.6 28411.7 lineto
stroke
newpath
76633.4 28018 moveto
76633.4 29199.1 lineto
stroke
newpath
76633.4 28074.2 moveto
76521 28018 lineto
76296 28018 lineto
76183.5 28074.2 lineto
76127.3 28130.5 lineto
76071 28243 lineto
76071 28580.4 lineto
76127.3 28692.9 lineto
76183.5 28749.2 lineto
76296 28805.4 lineto
76521 28805.4 lineto
76633.4 28749.2 lineto
stroke
newpath
77083.4 27568.1 moveto
77139.6 27624.3 lineto
77252.1 27793 lineto
77308.4 27905.5 lineto
77364.6 28074.2 lineto
77420.8 28355.5 lineto
77420.8 28580.4 lineto
77364.6 28861.7 lineto
77308.4 29030.4 lineto
77252.1 29142.9 lineto
77139.6 29311.6 lineto
77083.4 29367.8 lineto
stroke
newpath
37048.5 26443.7 moveto
37598 26993.3 lineto
37048.5 27542.8 lineto
36498.9 26993.3 lineto
37048.5 26443.7 lineto
poly0
0 0 0 setrgbcolor
0 0 0 setrgbcolor
newpath
38669.4 27527.6 moveto
38725.7 27583.8 lineto
38838.2 27640.1 lineto
39119.4 27640.1 lineto
39231.9 27583.8 lineto
39288.1 27527.6 lineto
39344.4 27415.1 lineto
39344.4 27302.6 lineto
39288.1 27133.9 lineto
38613.2 26459 lineto
39344.4 26459 lineto
stroke
newpath
39850.5 26571.4 moveto
39906.8 26515.2 lineto
39850.5 26459 lineto
39794.3 26515.2 lineto
39850.5 26571.4 lineto
39850.5 26459 lineto
stroke
newpath
40300.5 27640.1 moveto
41087.9 27640.1 lineto
40581.7 26459 lineto
stroke
newpath
41762.8 27640.1 moveto
41875.3 27640.1 lineto
41987.8 27583.8 lineto
42044 27527.6 lineto
42100.3 27415.1 lineto
42156.5 27190.1 lineto
42156.5 26908.9 lineto
42100.3 26683.9 lineto
42044 26571.4 lineto
41987.8 26515.2 lineto
41875.3 26459 lineto
41762.8 26459 lineto
41650.3 26515.2 lineto
41594.1 26571.4 lineto
41537.8 26683.9 lineto
41481.6 26908.9 lineto
41481.6 27190.1 lineto
41537.8 27415.1 lineto
41594.1 27527.6 lineto
41650.3 27583.8 lineto
41762.8 27640.1 lineto
stroke
newpath
42887.7 27640.1 moveto
43000.1 27640.1 lineto
43112.6 27583.8 lineto
43168.9 27527.6 lineto
43225.1 27415.1 lineto
43281.4 27190.1 lineto
43281.4 26908.9 lineto
43225.1 26683.9 lineto
43168.9 26571.4 lineto
43112.6 26515.2 lineto
43000.1 26459 lineto
42887.7 26459 lineto
42775.2 26515.2 lineto
42718.9 26571.4 lineto
42662.7 26683.9 lineto
42606.4 26908.9 lineto
42606.4 27190.1 lineto
42662.7 27415.1 lineto
42718.9 27527.6 lineto
42775.2 27583.8 lineto
42887.7 27640.1 lineto
stroke
newpath
43787.5 26459 moveto
43787.5 27246.4 lineto
stroke
newpath
43787.5 27133.9 moveto
43843.8 27190.1 lineto
43956.3 27246.4 lineto
44125 27246.4 lineto
44237.5 27190.1 lineto
44293.7 27077.6 lineto
44293.7 26459 lineto
stroke
newpath
44293.7 27077.6 moveto
44350 27190.1 lineto
44462.5 27246.4 lineto
44631.2 27246.4 lineto
44743.7 27190.1 lineto
44799.9 27077.6 lineto
44799.9 26459 lineto
stroke
newpath
45362.4 26459 moveto
45362.4 27246.4 lineto
stroke
newpath
45362.4 27133.9 moveto
45418.6 27190.1 lineto
45531.1 27246.4 lineto
45699.8 27246.4 lineto
45812.3 27190.1 lineto
45868.5 27077.6 lineto
45868.5 26459 lineto
stroke
newpath
45868.5 27077.6 moveto
45924.8 27190.1 lineto
46037.3 27246.4 lineto
46206 27246.4 lineto
46318.5 27190.1 lineto
46374.7 27077.6 lineto
46374.7 26459 lineto
stroke
newpath
48680.7 27696.3 moveto
47668.3 26177.7 lineto
stroke
newpath
50199.2 27640.1 moveto
50311.7 27640.1 lineto
50424.2 27583.8 lineto
50480.5 27527.6 lineto
50536.7 27415.1 lineto
50592.9 27190.1 lineto
50592.9 26908.9 lineto
50536.7 26683.9 lineto
50480.5 26571.4 lineto
50424.2 26515.2 lineto
50311.7 26459 lineto
50199.2 26459 lineto
50086.8 26515.2 lineto
50030.5 26571.4 lineto
49974.3 26683.9 lineto
49918 26908.9 lineto
49918 27190.1 lineto
49974.3 27415.1 lineto
50030.5 27527.6 lineto
50086.8 27583.8 lineto
50199.2 27640.1 lineto
stroke
newpath
51099.1 26571.4 moveto
51155.4 26515.2 lineto
51099.1 26459 lineto
51042.9 26515.2 lineto
51099.1 26571.4 lineto
51099.1 26459 lineto
stroke
newpath
52280.2 26459 moveto
51605.3 26459 lineto
stroke
newpath
51942.8 26459 moveto
51942.8 27640.1 lineto
51830.3 27471.3 lineto
51717.8 27358.8 lineto
51605.3 27302.6 lineto
stroke
newpath
53011.4 27640.1 moveto
53123.9 27640.1 lineto
53236.4 27583.8 lineto
53292.6 27527.6 lineto
53348.9 27415.1 lineto
53405.1 27190.1 lineto
53405.1 26908.9 lineto
53348.9 26683.9 lineto
53292.6 26571.4 lineto
53236.4 26515.2 lineto
53123.9 26459 lineto
53011.4 26459 lineto
52898.9 26515.2 lineto
52842.7 26571.4 lineto
52786.4 26683.9 lineto
52730.2 26908.9 lineto
52730.2 27190.1 lineto
52786.4 27415.1 lineto
52842.7 27527.6 lineto
52898.9 27583.8 lineto
53011.4 27640.1 lineto
stroke
newpath
54417.5 27640.1 moveto
54192.5 27640.1 lineto
54080 27583.8 lineto
54023.8 27527.6 lineto
53911.3 27358.8 lineto
53855 27133.9 lineto
53855 26683.9 lineto
53911.3 26571.4 lineto
53967.5 26515.2 lineto
54080 26459 lineto
54305 26459 lineto
54417.5 26515.2 lineto
54473.7 26571.4 lineto
54530 26683.9 lineto
54530 26965.1 lineto
54473.7 27077.6 lineto
54417.5 27133.9 lineto
54305 27190.1 lineto
54080 27190.1 lineto
53967.5 27133.9 lineto
53911.3 27077.6 lineto
53855 26965.1 lineto
stroke
newpath
54923.7 27640.1 moveto
55654.8 27640.1 lineto
55261.1 27190.1 lineto
55429.8 27190.1 lineto
55542.3 27133.9 lineto
55598.6 27077.6 lineto
55654.8 26965.1 lineto
55654.8 26683.9 lineto
55598.6 26571.4 lineto
55542.3 26515.2 lineto
55429.8 26459 lineto
55092.4 26459 lineto
54979.9 26515.2 lineto
54923.7 26571.4 lineto
stroke
newpath
56104.8 27640.1 moveto
56104.8 27415.1 lineto
stroke
newpath
56554.7 27640.1 moveto
56554.7 27415.1 lineto
stroke
newpath
58298.2 26009 moveto
58242 26065.3 lineto
58129.5 26234 lineto
58073.3 26346.5 lineto
58017 26515.2 lineto
57960.8 26796.4 lineto
57960.8 27021.4 lineto
58017 27302.6 lineto
58073.3 27471.3 lineto
58129.5 27583.8 lineto
58242 27752.5 lineto
58298.2 27808.8 lineto
stroke
newpath
58916.9 27133.9 moveto
58804.4 27190.1 lineto
58748.2 27246.4 lineto
58691.9 27358.8 lineto
58691.9 27415.1 lineto
58748.2 27527.6 lineto
58804.4 27583.8 lineto
58916.9 27640.1 lineto
59141.9 27640.1 lineto
59254.4 27583.8 lineto
59310.6 27527.6 lineto
59366.9 27415.1 lineto
59366.9 27358.8 lineto
59310.6 27246.4 lineto
59254.4 27190.1 lineto
59141.9 27133.9 lineto
58916.9 27133.9 lineto
58804.4 27077.6 lineto
58748.2 27021.4 lineto
58691.9 26908.9 lineto
58691.9 26683.9 lineto
58748.2 26571.4 lineto
58804.4 26515.2 lineto
58916.9 26459 lineto
59141.9 26459 lineto
59254.4 26515.2 lineto
59310.6 26571.4 lineto
59366.9 26683.9 lineto
59366.9 26908.9 lineto
59310.6 27021.4 lineto
59254.4 27077.6 lineto
59141.9 27133.9 lineto
stroke
newpath
60772.9 26459 moveto
60772.9 27640.1 lineto
stroke
newpath
61279.1 26459 moveto
61279.1 27077.6 lineto
61222.9 27190.1 lineto
61110.4 27246.4 lineto
60941.7 27246.4 lineto
60829.2 27190.1 lineto
60772.9 27133.9 lineto
stroke
newpath
62010.3 26459 moveto
61897.8 26515.2 lineto
61841.5 26571.4 lineto
61785.3 26683.9 lineto
61785.3 27021.4 lineto
61841.5 27133.9 lineto
61897.8 27190.1 lineto
62010.3 27246.4 lineto
62179 27246.4 lineto
62291.5 27190.1 lineto
62347.7 27133.9 lineto
62404 27021.4 lineto
62404 26683.9 lineto
62347.7 26571.4 lineto
62291.5 26515.2 lineto
62179 26459 lineto
62010.3 26459 lineto
stroke
newpath
63078.9 26459 moveto
62966.4 26515.2 lineto
62910.2 26627.7 lineto
62910.2 27640.1 lineto
stroke
newpath
63978.8 26515.2 moveto
63866.3 26459 lineto
63641.3 26459 lineto
63528.8 26515.2 lineto
63472.6 26627.7 lineto
63472.6 27077.6 lineto
63528.8 27190.1 lineto
63641.3 27246.4 lineto
63866.3 27246.4 lineto
63978.8 27190.1 lineto
64035 27077.6 lineto
64035 26965.1 lineto
63472.6 26852.7 lineto
stroke
newpath
64485 26515.2 moveto
64597.4 26459 lineto
64822.4 26459 lineto
64934.9 26515.2 lineto
64991.1 26627.7 lineto
64991.1 26683.9 lineto
64934.9 26796.4 lineto
64822.4 26852.7 lineto
64653.7 26852.7 lineto
64541.2 26908.9 lineto
64485 27021.4 lineto
64485 27077.6 lineto
64541.2 27190.1 lineto
64653.7 27246.4 lineto
64822.4 27246.4 lineto
64934.9 27190.1 lineto
stroke
newpath
65384.8 26009 moveto
65441.1 26065.3 lineto
65553.6 26234 lineto
65609.8 26346.5 lineto
65666.1 26515.2 lineto
65722.3 26796.4 lineto
65722.3 27021.4 lineto
65666.1 27302.6 lineto
65609.8 27471.3 lineto
65553.6 27583.8 lineto
65441.1 27752.5 lineto
65384.8 27808.8 lineto
stroke
newpath
67522.1 26009 moveto
67465.8 26065.3 lineto
67353.4 26234 lineto
67297.1 26346.5 lineto
67240.9 26515.2 lineto
67184.6 26796.4 lineto
67184.6 27021.4 lineto
67240.9 27302.6 lineto
67297.1 27471.3 lineto
67353.4 27583.8 lineto
67465.8 27752.5 lineto
67522.1 27808.8 lineto
stroke
newpath
67972 27246.4 moveto
67972 26459 lineto
stroke
newpath
67972 27133.9 moveto
68028.3 27190.1 lineto
68140.8 27246.4 lineto
68309.5 27246.4 lineto
68422 27190.1 lineto
68478.2 27077.6 lineto
68478.2 26459 lineto
stroke
newpath
69209.4 26459 moveto
69096.9 26515.2 lineto
69040.6 26571.4 lineto
68984.4 26683.9 lineto
68984.4 27021.4 lineto
69040.6 27133.9 lineto
69096.9 27190.1 lineto
69209.4 27246.4 lineto
69378.1 27246.4 lineto
69490.6 27190.1 lineto
69546.8 27133.9 lineto
69603.1 27021.4 lineto
69603.1 26683.9 lineto
69546.8 26571.4 lineto
69490.6 26515.2 lineto
69378.1 26459 lineto
69209.4 26459 lineto
stroke
newpath
69940.5 27246.4 moveto
70390.5 27246.4 lineto
stroke
newpath
70109.3 27640.1 moveto
70109.3 26627.7 lineto
70165.5 26515.2 lineto
70278 26459 lineto
70390.5 26459 lineto
stroke
newpath
71684.1 27246.4 moveto
71684.1 26065.3 lineto
stroke
newpath
71684.1 27190.1 moveto
71796.5 27246.4 lineto
72021.5 27246.4 lineto
72134 27190.1 lineto
72190.2 27133.9 lineto
72246.5 27021.4 lineto
72246.5 26683.9 lineto
72190.2 26571.4 lineto
72134 26515.2 lineto
72021.5 26459 lineto
71796.5 26459 lineto
71684.1 26515.2 lineto
stroke
newpath
72921.4 26459 moveto
72808.9 26515.2 lineto
72752.7 26627.7 lineto
72752.7 27640.1 lineto
stroke
newpath
73877.5 26459 moveto
73877.5 27077.6 lineto
73821.3 27190.1 lineto
73708.8 27246.4 lineto
73483.8 27246.4 lineto
73371.4 27190.1 lineto
stroke
newpath
73877.5 26515.2 moveto
73765.1 26459 lineto
73483.8 26459 lineto
73371.4 26515.2 lineto
73315.1 26627.7 lineto
73315.1 26740.2 lineto
73371.4 26852.7 lineto
73483.8 26908.9 lineto
73765.1 26908.9 lineto
73877.5 26965.1 lineto
stroke
newpath
74271.2 27246.4 moveto
74721.2 27246.4 lineto
stroke
newpath
74440 27640.1 moveto
74440 26627.7 lineto
74496.2 26515.2 lineto
74608.7 26459 lineto
74721.2 26459 lineto
stroke
newpath
75564.8 26515.2 moveto
75452.3 26459 lineto
75227.4 26459 lineto
75114.9 26515.2 lineto
75058.6 26627.7 lineto
75058.6 27077.6 lineto
75114.9 27190.1 lineto
75227.4 27246.4 lineto
75452.3 27246.4 lineto
75564.8 27190.1 lineto
75621.1 27077.6 lineto
75621.1 26965.1 lineto
75058.6 26852.7 lineto
stroke
newpath
76633.4 26459 moveto
76633.4 27640.1 lineto
stroke
newpath
76633.4 26515.2 moveto
76521 26459 lineto
76296 26459 lineto
76183.5 26515.2 lineto
76127.3 26571.4 lineto
76071 26683.9 lineto
76071 27021.4 lineto
76127.3 27133.9 lineto
76183.5 27190.1 lineto
76296 27246.4 lineto
76521 27246.4 lineto
76633.4 27190.1 lineto
stroke
newpath
77083.4 26009 moveto
77139.6 26065.3 lineto
77252.1 26234 lineto
77308.4 26346.5 lineto
77364.6 26515.2 lineto
77420.8 26796.4 lineto
77420.8 27021.4 lineto
77364.6 27302.6 lineto
77308.4 27471.3 lineto
77252.1 27583.8 lineto
77139.6 27752.5 lineto
77083.4 27808.8 lineto
stroke
showpage
grestore
%%EOF
