M48
; DRILL file {KiCad (5.1.10-1-10_14)} date Monday, September 13, 2021 at 03:20:21 PM
; FORMAT={-:-/ absolute / inch / decimal}
; #@! TF.CreationDate,2021-09-13T15:20:21-05:00
; #@! TF.GenerationSoftware,Kicad,Pcbnew,(5.1.10-1-10_14)
; #@! TF.FileFunction,NonPlated,1,2,NPTH
FMAT,2
INCH
T1C0.0591
T2C0.0610
T3C0.0709
T4C0.0709
T5C0.1063
%
G90
G05
T1
X2.8573Y-0.2374
X3.0482Y-0.2374
T2
X1.4862Y-0.2465
T3
X0.3937Y-3.3661
X0.3937Y-3.7205
T4
X2.8455Y-0.1181
X3.06Y-0.1181
T5
X0.7874Y-0.1969
X0.7874Y-1.9685
X0.7874Y-3.1496
X1.9685Y-0.1969
X1.9685Y-3.189
X3.7402Y-0.1969
X3.7402Y-1.9685
X3.7402Y-3.1496
T0
M30
