%TF.GenerationSoftware,KiCad,Pcbnew,(5.1.10-1-10_14)*%
%TF.CreationDate,2021-09-13T15:20:23-05:00*%
%TF.ProjectId,PWM_Control,50574d5f-436f-46e7-9472-6f6c2e6b6963,rev?*%
%TF.SameCoordinates,Original*%
%TF.FileFunction,Soldermask,Top*%
%TF.FilePolarity,Negative*%
%FSLAX46Y46*%
G04 Gerber Fmt 4.6, Leading zero omitted, Abs format (unit mm)*
G04 Created by KiCad (PCBNEW (5.1.10-1-10_14)) date 2021-09-13 15:20:23*
%MOMM*%
%LPD*%
G01*
G04 APERTURE LIST*
%ADD10C,1.507998*%
%ADD11C,3.810000*%
%ADD12C,1.665000*%
%ADD13C,1.750000*%
%ADD14C,2.700000*%
%ADD15C,1.799996*%
%ADD16C,1.707896*%
%ADD17R,1.500000X1.050000*%
%ADD18O,1.500000X1.050000*%
%ADD19O,1.700000X1.700000*%
%ADD20R,1.700000X3.500000*%
%ADD21R,1.700000X1.700000*%
%ADD22O,1.500000X1.500000*%
%ADD23O,1.800000X1.800000*%
%ADD24R,3.500000X1.700000*%
%ADD25R,1.750000X1.750000*%
%ADD26O,1.400000X1.400000*%
%ADD27C,1.400000*%
%ADD28O,0.850000X0.850000*%
%ADD29R,0.850000X0.850000*%
%ADD30C,1.381000*%
%ADD31C,1.800000*%
%ADD32R,1.800000X1.800000*%
G04 APERTURE END LIST*
D10*
%TO.C,S1*%
X95500000Y-34500002D03*
X90999999Y-34500002D03*
X90999999Y-28000000D03*
X95500000Y-28000000D03*
%TD*%
D11*
%TO.C,J1*%
X42800000Y-52500000D03*
X42800000Y-34720000D03*
D12*
X55500000Y-34720000D03*
X55500000Y-37260000D03*
X55500000Y-39800000D03*
X55500000Y-42340000D03*
X55500000Y-44880000D03*
X55500000Y-47420000D03*
X55500000Y-49960000D03*
X55500000Y-52500000D03*
%TD*%
D13*
%TO.C,PS1*%
X48040000Y-23000000D03*
X42960000Y-23000000D03*
X45500000Y-23000000D03*
%TD*%
D14*
%TO.C,H8*%
X95000000Y-50000000D03*
%TD*%
%TO.C,H7*%
X20000000Y-50000000D03*
%TD*%
D15*
%TO.C,S2*%
X10000000Y-85500000D03*
X10000000Y-94500000D03*
D16*
X3750000Y-92500000D03*
X3750000Y-87500000D03*
X16250000Y-87500000D03*
X16250000Y-92500000D03*
%TD*%
D14*
%TO.C,H6*%
X50000000Y-5000000D03*
%TD*%
%TO.C,H5*%
X50000000Y-81000000D03*
%TD*%
%TO.C,H4*%
X95000000Y-80000000D03*
%TD*%
%TO.C,H3*%
X20000000Y-80000000D03*
%TD*%
%TO.C,H2*%
X95000000Y-5000000D03*
%TD*%
%TO.C,H1*%
X20000000Y-5000000D03*
%TD*%
D17*
%TO.C,U2*%
X95000000Y-15000000D03*
D18*
X95000000Y-17540000D03*
X95000000Y-16270000D03*
%TD*%
D19*
%TO.C,U1*%
X77540000Y-50900000D03*
D20*
X77540000Y-51800000D03*
D21*
X75000000Y-50900000D03*
D20*
X75000000Y-51800000D03*
D19*
X72460000Y-50900000D03*
D20*
X72460000Y-51800000D03*
D22*
X77425000Y-6030000D03*
X72575000Y-6030000D03*
D23*
X77725000Y-3000000D03*
X72275000Y-3000000D03*
D24*
X84790000Y-51130000D03*
X84790000Y-48590000D03*
X84790000Y-46050000D03*
X84790000Y-43510000D03*
X84790000Y-40970000D03*
X84790000Y-38430000D03*
X84790000Y-35890000D03*
X84790000Y-33350000D03*
X84790000Y-30810000D03*
X84790000Y-28270000D03*
X84790000Y-25730000D03*
X84790000Y-23190000D03*
X84790000Y-20650000D03*
X84790000Y-18110000D03*
X84790000Y-15570000D03*
X84790000Y-13030000D03*
X84790000Y-10490000D03*
X84790000Y-7950000D03*
X84790000Y-5410000D03*
X84790000Y-2870000D03*
X65210000Y-51130000D03*
X65210000Y-48590000D03*
X65210000Y-46050000D03*
X65210000Y-43510000D03*
X65210000Y-40970000D03*
X65210000Y-38430000D03*
X65210000Y-35890000D03*
X65210000Y-33350000D03*
X65210000Y-30810000D03*
X65210000Y-28270000D03*
X65210000Y-25730000D03*
X65210000Y-23190000D03*
X65210000Y-20650000D03*
X65210000Y-18110000D03*
X65210000Y-15570000D03*
X65210000Y-13030000D03*
X65210000Y-10490000D03*
X65210000Y-7950000D03*
X65210000Y-5410000D03*
X65210000Y-2870000D03*
D19*
X83890000Y-2870000D03*
X83890000Y-5410000D03*
D21*
X83890000Y-7950000D03*
D19*
X83890000Y-10490000D03*
X83890000Y-13030000D03*
X83890000Y-15570000D03*
X83890000Y-18110000D03*
D21*
X83890000Y-20650000D03*
D19*
X83890000Y-23190000D03*
X83890000Y-25730000D03*
X83890000Y-28270000D03*
X83890000Y-30810000D03*
D21*
X83890000Y-33350000D03*
D19*
X83890000Y-35890000D03*
X83890000Y-38430000D03*
X83890000Y-40970000D03*
X83890000Y-43510000D03*
D21*
X83890000Y-46050000D03*
D19*
X83890000Y-48590000D03*
X83890000Y-51130000D03*
X66110000Y-51130000D03*
X66110000Y-48590000D03*
D21*
X66110000Y-46050000D03*
D19*
X66110000Y-43510000D03*
X66110000Y-40970000D03*
X66110000Y-38430000D03*
X66110000Y-35890000D03*
D21*
X66110000Y-33350000D03*
D19*
X66110000Y-30810000D03*
X66110000Y-28270000D03*
X66110000Y-25730000D03*
X66110000Y-23190000D03*
D21*
X66110000Y-20650000D03*
D19*
X66110000Y-18110000D03*
X66110000Y-15570000D03*
X66110000Y-13030000D03*
X66110000Y-10490000D03*
D21*
X66110000Y-7950000D03*
D19*
X66110000Y-5410000D03*
X66110000Y-2870000D03*
%TD*%
D14*
%TO.C,RV2*%
X25400000Y-85800000D03*
X90600000Y-85800000D03*
X26600000Y-94200000D03*
X89400000Y-94200000D03*
D13*
X21250000Y-91750000D03*
X94750000Y-88250000D03*
D25*
X94750000Y-91750000D03*
%TD*%
D14*
%TO.C,RV1*%
X5800000Y-76100000D03*
X5800000Y-10900000D03*
X14200000Y-74900000D03*
X14200000Y-12100000D03*
D13*
X11750000Y-80250000D03*
X8250000Y-6750000D03*
D25*
X11750000Y-6750000D03*
%TD*%
D26*
%TO.C,R1*%
X58500000Y-21880000D03*
D27*
X58500000Y-29500000D03*
%TD*%
D28*
%TO.C,JP2*%
X52000000Y-12500000D03*
X52000000Y-11500000D03*
D29*
X52000000Y-10500000D03*
%TD*%
D28*
%TO.C,JP1*%
X52000000Y-17500000D03*
X52000000Y-16500000D03*
D29*
X52000000Y-15500000D03*
%TD*%
D30*
%TO.C,J2*%
X36350000Y-4460000D03*
X35080000Y-7000000D03*
X33810000Y-4460000D03*
X32540000Y-7000000D03*
X31270000Y-4460000D03*
X30000000Y-7000000D03*
%TD*%
D31*
%TO.C,D2*%
X56460000Y-11500000D03*
D32*
X59000000Y-11500000D03*
%TD*%
D31*
%TO.C,D1*%
X56460000Y-16500000D03*
D32*
X59000000Y-16500000D03*
%TD*%
M02*
