EESchema Schematic File Version 4
EELAYER 30 0
EELAYER END
$Descr USLetter 11000 8500
encoding utf-8
Sheet 1 1
Title "LED_Driver"
Date ""
Rev "1"
Comp ""
Comment1 ""
Comment2 ""
Comment3 ""
Comment4 ""
$EndDescr
$Comp
L _Terminal_2:TBL005A-500-02GY-2WT J1
U 1 1 6126C661
P 800 1300
F 0 "J1" H 718 975 50  0000 C CNN
F 1 "Screw_Terminal_01x02" H 718 1066 50  0000 C CNN
F 2 "_kicad_mod:Terminal_2" H 800 1300 50  0001 C CNN
F 3 "~" H 800 1300 50  0001 C CNN
	1    800  1300
	-1   0    0    1   
$EndComp
$Comp
L Device:Fuse F1
U 1 1 6126D70A
P 1500 1200
F 0 "F1" V 1303 1200 50  0000 C CNN
F 1 "10A" V 1394 1200 50  0000 C CNN
F 2 "_kicad_mod:fuse_5x20" V 1430 1200 50  0001 C CNN
F 3 "~" H 1500 1200 50  0001 C CNN
	1    1500 1200
	0    1    1    0   
$EndComp
$Comp
L Device:D D1
U 1 1 6126E56F
P 1800 1350
F 0 "D1" V 1754 1430 50  0000 L CNN
F 1 "14V" V 1845 1430 50  0000 L CNN
F 2 "Diode_THT:D_DO-35_SOD27_P7.62mm_Horizontal" H 1800 1350 50  0001 C CNN
F 3 "~" H 1800 1350 50  0001 C CNN
	1    1800 1350
	0    1    1    0   
$EndComp
$Comp
L Transistor_FET:IRLB8721PBF Q1
U 1 1 6127221D
P 4650 1300
F 0 "Q1" H 4854 1346 50  0000 L CNN
F 1 "IRLB8721PBF" H 4854 1255 50  0000 L CNN
F 2 "Package_TO_SOT_THT:TO-220-3_Vertical" H 4900 1225 50  0001 L CIN
F 3 "http://www.infineon.com/dgdl/irlb8721pbf.pdf?fileId=5546d462533600a40153566056732591" H 4650 1300 50  0001 L CNN
	1    4650 1300
	1    0    0    -1  
$EndComp
$Comp
L Device:C C1
U 1 1 612C1BF4
P 4100 1350
F 0 "C1" H 4215 1396 50  0000 L CNN
F 1 "1mF" H 4215 1305 50  0000 L CNN
F 2 "_kicad_mod:CAPPRD500W60D1000H1300" H 4138 1200 50  0001 C CNN
F 3 "~" H 4100 1350 50  0001 C CNN
	1    4100 1350
	1    0    0    -1  
$EndComp
$Comp
L Device:R R1
U 1 1 612C2463
P 3800 1350
F 0 "R1" H 3870 1396 50  0000 L CNN
F 1 "10k" H 3870 1305 50  0000 L CNN
F 2 "Resistor_THT:R_Axial_DIN0204_L3.6mm_D1.6mm_P7.62mm_Horizontal" V 3730 1350 50  0001 C CNN
F 3 "~" H 3800 1350 50  0001 C CNN
	1    3800 1350
	1    0    0    -1  
$EndComp
$Comp
L Device:R R4
U 1 1 612CC555
P 4450 1750
F 0 "R4" H 4520 1796 50  0000 L CNN
F 1 "2.2" H 4520 1705 50  0000 L CNN
F 2 "Resistor_THT:R_Axial_DIN0207_L6.3mm_D2.5mm_P10.16mm_Horizontal" V 4380 1750 50  0001 C CNN
F 3 "~" H 4450 1750 50  0001 C CNN
	1    4450 1750
	1    0    0    -1  
$EndComp
$Comp
L Device:CP C6
U 1 1 612CEAAE
P 8700 1150
F 0 "C6" H 8818 1196 50  0000 L CNN
F 1 "4.7uF" H 8818 1105 50  0000 L CNN
F 2 "Capacitor_THT:CP_Radial_D5.0mm_P2.00mm" H 8738 1000 50  0001 C CNN
F 3 "~" H 8700 1150 50  0001 C CNN
	1    8700 1150
	-1   0    0    -1  
$EndComp
$Comp
L Device:C C4
U 1 1 612CEE18
P 8350 1150
F 0 "C4" H 8465 1196 50  0000 L CNN
F 1 "0.1uF" H 8465 1105 50  0000 L CNN
F 2 "Capacitor_THT:C_Rect_L7.2mm_W2.5mm_P5.00mm_FKS2_FKP2_MKS2_MKP2" H 8388 1000 50  0001 C CNN
F 3 "~" H 8350 1150 50  0001 C CNN
	1    8350 1150
	-1   0    0    -1  
$EndComp
$Comp
L _Terminal_8:TBL005A-500-08GY-2WT J2
U 1 1 612E02CD
P 6250 1550
F 0 "J2" V 6467 1496 50  0000 C CNN
F 1 "Screw_Terminal_01x12" V 6376 1496 50  0000 C CNN
F 2 "_kicad_mod:Terminal_8" H 6250 1550 50  0001 C CNN
F 3 "~" H 6250 1550 50  0001 C CNN
	1    6250 1550
	1    0    0    -1  
$EndComp
Wire Wire Line
	1650 1200 1800 1200
Connection ~ 1800 1200
$Comp
L power:VCOM #PWR0101
U 1 1 612EE76E
P 2200 1500
F 0 "#PWR0101" H 2200 1350 50  0001 C CNN
F 1 "VCOM" V 2215 1628 50  0000 L CNN
F 2 "" H 2200 1500 50  0001 C CNN
F 3 "" H 2200 1500 50  0001 C CNN
	1    2200 1500
	0    1    1    0   
$EndComp
$Comp
L power:VCC #PWR0102
U 1 1 612EF0BE
P 2200 1200
F 0 "#PWR0102" H 2200 1050 50  0001 C CNN
F 1 "VCC" V 2215 1328 50  0000 L CNN
F 2 "" H 2200 1200 50  0001 C CNN
F 3 "" H 2200 1200 50  0001 C CNN
	1    2200 1200
	0    1    1    0   
$EndComp
$Comp
L power:VCC #PWR0103
U 1 1 612F2442
P 6000 950
F 0 "#PWR0103" H 6000 800 50  0001 C CNN
F 1 "VCC" V 6015 1078 50  0000 L CNN
F 2 "" H 6000 950 50  0001 C CNN
F 3 "" H 6000 950 50  0001 C CNN
	1    6000 950 
	0    1    1    0   
$EndComp
Text Notes 600  750  0    100  ~ 0
Power Input Section
$Comp
L power:VCC #PWR0104
U 1 1 612F8657
P 3600 1200
F 0 "#PWR0104" H 3600 1050 50  0001 C CNN
F 1 "VCC" V 3615 1327 50  0000 L CNN
F 2 "" H 3600 1200 50  0001 C CNN
F 3 "" H 3600 1200 50  0001 C CNN
	1    3600 1200
	0    -1   -1   0   
$EndComp
Wire Wire Line
	3600 1200 3800 1200
Wire Wire Line
	3800 1200 4100 1200
Connection ~ 3800 1200
$Comp
L power:VCOM #PWR0105
U 1 1 612F94BA
P 3600 1500
F 0 "#PWR0105" H 3600 1350 50  0001 C CNN
F 1 "VCOM" V 3615 1628 50  0000 L CNN
F 2 "" H 3600 1500 50  0001 C CNN
F 3 "" H 3600 1500 50  0001 C CNN
	1    3600 1500
	0    -1   -1   0   
$EndComp
Wire Wire Line
	3600 1500 3800 1500
Wire Wire Line
	3800 1500 4100 1500
Connection ~ 3800 1500
Wire Wire Line
	4750 1500 4100 1500
Connection ~ 4100 1500
Wire Wire Line
	4450 1300 4450 1600
Text GLabel 4300 1900 0    50   Input ~ 0
LED1-GateDriver
Wire Wire Line
	4300 1900 4450 1900
$Comp
L Transistor_FET:IRLB8721PBF Q2
U 1 1 61319328
P 4650 2250
F 0 "Q2" H 4854 2296 50  0000 L CNN
F 1 "IRLB8721PBF" H 4854 2205 50  0000 L CNN
F 2 "Package_TO_SOT_THT:TO-220-3_Vertical" H 4900 2175 50  0001 L CIN
F 3 "http://www.infineon.com/dgdl/irlb8721pbf.pdf?fileId=5546d462533600a40153566056732591" H 4650 2250 50  0001 L CNN
	1    4650 2250
	1    0    0    -1  
$EndComp
$Comp
L Device:C C2
U 1 1 6131932E
P 4100 2300
F 0 "C2" H 4215 2346 50  0000 L CNN
F 1 "1mF" H 4215 2255 50  0000 L CNN
F 2 "_kicad_mod:CAPPRD500W60D1000H1300" H 4138 2150 50  0001 C CNN
F 3 "~" H 4100 2300 50  0001 C CNN
	1    4100 2300
	1    0    0    -1  
$EndComp
$Comp
L Device:R R5
U 1 1 6131933A
P 4450 2700
F 0 "R5" H 4520 2746 50  0000 L CNN
F 1 "2.2" H 4520 2655 50  0000 L CNN
F 2 "Resistor_THT:R_Axial_DIN0207_L6.3mm_D2.5mm_P10.16mm_Horizontal" V 4380 2700 50  0001 C CNN
F 3 "~" H 4450 2700 50  0001 C CNN
	1    4450 2700
	1    0    0    -1  
$EndComp
$Comp
L power:VCC #PWR0106
U 1 1 61319340
P 3600 2150
F 0 "#PWR0106" H 3600 2000 50  0001 C CNN
F 1 "VCC" V 3615 2277 50  0000 L CNN
F 2 "" H 3600 2150 50  0001 C CNN
F 3 "" H 3600 2150 50  0001 C CNN
	1    3600 2150
	0    -1   -1   0   
$EndComp
$Comp
L power:VCOM #PWR0107
U 1 1 61319349
P 3600 2450
F 0 "#PWR0107" H 3600 2300 50  0001 C CNN
F 1 "VCOM" V 3615 2578 50  0000 L CNN
F 2 "" H 3600 2450 50  0001 C CNN
F 3 "" H 3600 2450 50  0001 C CNN
	1    3600 2450
	0    -1   -1   0   
$EndComp
Wire Wire Line
	4750 2450 4100 2450
Connection ~ 4100 2450
Wire Wire Line
	4450 2250 4450 2550
Text GLabel 4300 2850 0    50   Input ~ 0
LED2-GateDriver
Wire Wire Line
	4300 2850 4450 2850
Wire Wire Line
	5750 950  6000 950 
Text Notes 3500 800  0    100  ~ 0
LED Driver
$Comp
L power:VCOM #PWR0110
U 1 1 6132601C
P 9200 1700
F 0 "#PWR0110" H 9200 1550 50  0001 C CNN
F 1 "VCOM" V 9215 1828 50  0000 L CNN
F 2 "" H 9200 1700 50  0001 C CNN
F 3 "" H 9200 1700 50  0001 C CNN
	1    9200 1700
	0    1    1    0   
$EndComp
Wire Wire Line
	9050 1700 9200 1700
Wire Wire Line
	8700 1000 8350 1000
Wire Wire Line
	8350 1300 8700 1300
$Comp
L power:VCOM #PWR0111
U 1 1 61337BF1
P 8900 1300
F 0 "#PWR0111" H 8900 1150 50  0001 C CNN
F 1 "VCOM" V 8915 1428 50  0000 L CNN
F 2 "" H 8900 1300 50  0001 C CNN
F 3 "" H 8900 1300 50  0001 C CNN
	1    8900 1300
	0    1    -1   0   
$EndComp
$Comp
L power:VCC #PWR0112
U 1 1 61339DEA
P 8900 1000
F 0 "#PWR0112" H 8900 850 50  0001 C CNN
F 1 "VCC" V 8915 1127 50  0000 L CNN
F 2 "" H 8900 1000 50  0001 C CNN
F 3 "" H 8900 1000 50  0001 C CNN
	1    8900 1000
	0    1    -1   0   
$EndComp
Text GLabel 9600 1900 2    50   Input ~ 0
LED1-GateDriver
Text GLabel 7500 1900 0    50   Input ~ 0
LED1-PWM
Wire Wire Line
	7500 1900 7750 1900
Text GLabel 7500 2100 0    50   Input ~ 0
LED2-PWM
Wire Wire Line
	7500 2100 7750 2100
Text GLabel 9600 2350 2    50   Input ~ 0
LED2-GateDriver
Wire Wire Line
	9150 2350 9150 2100
Wire Wire Line
	9150 2100 9050 2100
Text GLabel 7350 4850 0    50   Input ~ 0
LED2-PWM
$Comp
L power:VCOM #PWR0119
U 1 1 6139FE91
P 8150 4950
F 0 "#PWR0119" H 8150 4800 50  0001 C CNN
F 1 "VCOM" V 8165 5078 50  0000 L CNN
F 2 "" H 8150 4950 50  0001 C CNN
F 3 "" H 8150 4950 50  0001 C CNN
	1    8150 4950
	0    1    1    0   
$EndComp
Text GLabel 7350 4950 0    50   Input ~ 0
LED1-PWM
$Comp
L power:VCOM #PWR0121
U 1 1 613A0C72
P 8150 4850
F 0 "#PWR0121" H 8150 4700 50  0001 C CNN
F 1 "VCOM" V 8165 4978 50  0000 L CNN
F 2 "" H 8150 4850 50  0001 C CNN
F 3 "" H 8150 4850 50  0001 C CNN
	1    8150 4850
	0    1    1    0   
$EndComp
$Comp
L power:VCOM #PWR0122
U 1 1 613A0F34
P 8150 4750
F 0 "#PWR0122" H 8150 4600 50  0001 C CNN
F 1 "VCOM" V 8165 4878 50  0000 L CNN
F 2 "" H 8150 4750 50  0001 C CNN
F 3 "" H 8150 4750 50  0001 C CNN
	1    8150 4750
	0    1    1    0   
$EndComp
$Comp
L power:VCC #PWR0123
U 1 1 613A17AD
P 7350 4750
F 0 "#PWR0123" H 7350 4600 50  0001 C CNN
F 1 "VCC" V 7365 4877 50  0000 L CNN
F 2 "" H 7350 4750 50  0001 C CNN
F 3 "" H 7350 4750 50  0001 C CNN
	1    7350 4750
	0    -1   -1   0   
$EndComp
Wire Wire Line
	1200 1400 1200 1500
Wire Wire Line
	1200 1500 1800 1500
Connection ~ 1800 1500
Wire Wire Line
	1350 1200 1200 1200
Wire Wire Line
	1200 1200 1200 1300
NoConn ~ 9050 2300
NoConn ~ 7750 2300
Wire Wire Line
	7750 1700 7750 1000
Wire Wire Line
	7750 1000 8350 1000
Connection ~ 8350 1000
Wire Wire Line
	9050 1900 9600 1900
Wire Wire Line
	9150 2350 9600 2350
Wire Wire Line
	8900 1300 8700 1300
Connection ~ 8700 1300
Wire Wire Line
	8700 1000 8900 1000
Connection ~ 8700 1000
$Comp
L _6pin_header:2178710-6 J3
U 1 1 61590568
P 7350 4750
F 0 "J3" H 7750 5015 50  0000 C CNN
F 1 "2178710-6" H 7750 4924 50  0000 C CNN
F 2 "_kicad_mod:6pin_header" H 8000 4850 50  0001 L CNN
F 3 "https://www.te.com/commerce/DocumentDelivery/DDEController?Action=showdoc&DocId=Customer+Drawing%7F2178710%7FA%7Fpdf%7FEnglish%7FENG_CD_2178710_A_pdf_c-2178710_drw.pdf%7F2178710-6" H 8000 4750 50  0001 L CNN
F 4 "AMP - TE CONNECTIVITY - 2178710-6 - CONNECTOR, RCPT, 6POS, 2ROW, 1.27MM" H 8000 4650 50  0001 L CNN "Description"
F 5 "4.2" H 8000 4550 50  0001 L CNN "Height"
F 6 "571-2178710-6" H 8000 4450 50  0001 L CNN "Mouser Part Number"
F 7 "https://www.mouser.co.uk/ProductDetail/TE-Connectivity/2178710-6?qs=tddCKBGf4%252BNTSMNMr%252BRjYw%3D%3D" H 8000 4350 50  0001 L CNN "Mouser Price/Stock"
F 8 "TE Connectivity" H 8000 4250 50  0001 L CNN "Manufacturer_Name"
F 9 "2178710-6" H 8000 4150 50  0001 L CNN "Manufacturer_Part_Number"
	1    7350 4750
	1    0    0    -1  
$EndComp
Wire Wire Line
	1800 1200 2200 1200
Wire Wire Line
	1800 1500 2200 1500
Wire Wire Line
	3600 2150 4100 2150
Wire Wire Line
	3600 2450 4100 2450
Wire Wire Line
	5750 1550 5850 1550
Wire Wire Line
	5750 1550 5750 1750
Wire Wire Line
	5750 1750 5850 1750
Wire Wire Line
	5850 1650 5650 1650
Wire Wire Line
	5650 1650 5650 1750
Wire Wire Line
	5650 1850 5850 1850
Wire Wire Line
	5650 1750 4750 1750
Connection ~ 5650 1750
Wire Wire Line
	5650 1750 5650 1850
Wire Wire Line
	4750 1750 4750 2050
$Comp
L Mechanical:MountingHole H1
U 1 1 6130FC14
P 1600 3700
F 0 "H1" H 1700 3746 50  0000 L CNN
F 1 "MountingHole" H 1700 3655 50  0000 L CNN
F 2 "MountingHole:MountingHole_2.7mm_M2.5" H 1600 3700 50  0001 C CNN
F 3 "~" H 1600 3700 50  0001 C CNN
	1    1600 3700
	1    0    0    -1  
$EndComp
$Comp
L Mechanical:MountingHole H2
U 1 1 613101D6
P 1600 4000
F 0 "H2" H 1700 4046 50  0000 L CNN
F 1 "MountingHole" H 1700 3955 50  0000 L CNN
F 2 "MountingHole:MountingHole_2.7mm_M2.5" H 1600 4000 50  0001 C CNN
F 3 "~" H 1600 4000 50  0001 C CNN
	1    1600 4000
	1    0    0    -1  
$EndComp
$Comp
L Mechanical:MountingHole H3
U 1 1 61310345
P 1600 4300
F 0 "H3" H 1700 4346 50  0000 L CNN
F 1 "MountingHole" H 1700 4255 50  0000 L CNN
F 2 "MountingHole:MountingHole_2.7mm_M2.5" H 1600 4300 50  0001 C CNN
F 3 "~" H 1600 4300 50  0001 C CNN
	1    1600 4300
	1    0    0    -1  
$EndComp
$Comp
L Mechanical:MountingHole H4
U 1 1 61310702
P 1600 4550
F 0 "H4" H 1700 4596 50  0000 L CNN
F 1 "MountingHole" H 1700 4505 50  0000 L CNN
F 2 "MountingHole:MountingHole_2.7mm_M2.5" H 1600 4550 50  0001 C CNN
F 3 "~" H 1600 4550 50  0001 C CNN
	1    1600 4550
	1    0    0    -1  
$EndComp
Wire Wire Line
	5750 1550 5750 1450
Wire Wire Line
	5750 1450 5850 1450
Connection ~ 5750 1550
Wire Wire Line
	5750 1450 5750 1250
Wire Wire Line
	5750 1250 5850 1250
Connection ~ 5750 1450
Wire Wire Line
	5750 1250 5750 950 
Connection ~ 5750 1250
Wire Wire Line
	5850 1150 5650 1150
Wire Wire Line
	5650 1150 5650 1250
Wire Wire Line
	5650 1350 5850 1350
Wire Wire Line
	5650 1250 5250 1250
Wire Wire Line
	5250 1250 5250 1100
Wire Wire Line
	5250 1100 4750 1100
Connection ~ 5650 1250
Wire Wire Line
	5650 1250 5650 1350
$Comp
L _gate_driver:IRS4427 U1
U 1 1 612EABC7
P 7950 1600
F 0 "U1" H 8400 1767 50  0000 C CNN
F 1 "IRS4427" H 8400 1676 50  0000 C CNN
F 2 "_kicad_mod:gate_driver" H 7950 1600 50  0001 L BNN
F 3 "" H 7950 1600 50  0001 L BNN
	1    7950 1600
	1    0    0    -1  
$EndComp
$EndSCHEMATC
