(kicad_pcb (version 20171130) (host pcbnew "(5.1.10-1-10_14)")

  (general
    (thickness 1.6)
    (drawings 20)
    (tracks 93)
    (zones 0)
    (modules 19)
    (nets 12)
  )

  (page A4)
  (layers
    (0 F.Cu signal)
    (31 B.Cu signal)
    (32 B.Adhes user)
    (33 F.Adhes user)
    (34 B.Paste user)
    (35 F.Paste user)
    (36 B.SilkS user)
    (37 F.SilkS user)
    (38 B.Mask user)
    (39 F.Mask user)
    (40 Dwgs.User user)
    (41 Cmts.User user)
    (42 Eco1.User user)
    (43 Eco2.User user)
    (44 Edge.Cuts user)
    (45 Margin user)
    (46 B.CrtYd user)
    (47 F.CrtYd user)
    (48 B.Fab user)
    (49 F.Fab user hide)
  )

  (setup
    (last_trace_width 0.25)
    (user_trace_width 0.5)
    (user_trace_width 1)
    (trace_clearance 0.2)
    (zone_clearance 0.508)
    (zone_45_only no)
    (trace_min 0.2)
    (via_size 0.8)
    (via_drill 0.4)
    (via_min_size 0.4)
    (via_min_drill 0.3)
    (uvia_size 0.3)
    (uvia_drill 0.1)
    (uvias_allowed no)
    (uvia_min_size 0.2)
    (uvia_min_drill 0.1)
    (edge_width 0.05)
    (segment_width 0.2)
    (pcb_text_width 0.3)
    (pcb_text_size 1.5 1.5)
    (mod_edge_width 0.12)
    (mod_text_size 1 1)
    (mod_text_width 0.15)
    (pad_size 1.524 1.524)
    (pad_drill 0.762)
    (pad_to_mask_clearance 0)
    (aux_axis_origin 0 0)
    (grid_origin 25.4 25.654)
    (visible_elements FFFFFF7F)
    (pcbplotparams
      (layerselection 0x010fc_ffffffff)
      (usegerberextensions false)
      (usegerberattributes true)
      (usegerberadvancedattributes true)
      (creategerberjobfile true)
      (excludeedgelayer true)
      (linewidth 0.100000)
      (plotframeref false)
      (viasonmask false)
      (mode 1)
      (useauxorigin false)
      (hpglpennumber 1)
      (hpglpenspeed 20)
      (hpglpendiameter 15.000000)
      (psnegative false)
      (psa4output false)
      (plotreference true)
      (plotvalue true)
      (plotinvisibletext false)
      (padsonsilk false)
      (subtractmaskfromsilk false)
      (outputformat 1)
      (mirror false)
      (drillshape 0)
      (scaleselection 1)
      (outputdirectory "/Users/jeffrey/Desktop/__LED_Warm-Cool/PCB_for_ordering/LED_Driver/"))
  )

  (net 0 "")
  (net 1 VCC)
  (net 2 LED1-GateDriver)
  (net 3 LED2-GateDriver)
  (net 4 "Net-(F1-Pad2)")
  (net 5 "Net-(Q1-Pad1)")
  (net 6 "Net-(Q2-Pad1)")
  (net 7 LED2-PWM)
  (net 8 LED1-PWM)
  (net 9 "Net-(J2-Pad6_A)")
  (net 10 VCOM)
  (net 11 "Net-(J2-Pad1_A)")

  (net_class Default "This is the default net class."
    (clearance 0.2)
    (trace_width 0.25)
    (via_dia 0.8)
    (via_drill 0.4)
    (uvia_dia 0.3)
    (uvia_drill 0.1)
    (add_net LED1-GateDriver)
    (add_net LED1-PWM)
    (add_net LED2-GateDriver)
    (add_net LED2-PWM)
    (add_net "Net-(F1-Pad2)")
    (add_net "Net-(J2-Pad1_A)")
    (add_net "Net-(J2-Pad6_A)")
    (add_net "Net-(Q1-Pad1)")
    (add_net "Net-(Q2-Pad1)")
    (add_net VCC)
    (add_net VCOM)
  )

  (module _kicad_mod:CAPPRD500W60D1000H1300 (layer F.Cu) (tedit 612E874A) (tstamp 61303697)
    (at 72.4 47.154)
    (path /6131932E)
    (fp_text reference C2 (at 0 -2.5) (layer F.SilkS)
      (effects (font (size 1 1) (thickness 0.15)))
    )
    (fp_text value 1mF (at 0 2.5) (layer F.SilkS)
      (effects (font (size 1 1) (thickness 0.15)))
    )
    (fp_circle (center -5.75 0) (end -5.65 0) (layer F.Fab) (width 0.2))
    (fp_circle (center -5.75 0) (end -5.65 0) (layer F.SilkS) (width 0.2))
    (fp_circle (center 0 0) (end 5.25 0) (layer F.CrtYd) (width 0.05))
    (fp_circle (center 0 0) (end 5 0) (layer F.SilkS) (width 0.127))
    (fp_circle (center 0 0) (end 5 0) (layer F.Fab) (width 0.127))
    (pad 2 thru_hole circle (at 2.5 0) (size 1.2 1.2) (drill 0.85) (layers *.Cu *.Mask)
      (net 10 VCOM))
    (pad 1 thru_hole rect (at -2.5 0) (size 1.2 1.2) (drill 0.85) (layers *.Cu *.Mask)
      (net 1 VCC))
  )

  (module _kicad_mod:Terminal_2 (layer F.Cu) (tedit 6126B507) (tstamp 6130FAA3)
    (at 41.4 62.654 180)
    (path /6126C661)
    (fp_text reference J1 (at -1.5 -3.25) (layer F.SilkS)
      (effects (font (size 1.4 1.4) (thickness 0.15)))
    )
    (fp_text value Screw_Terminal_01x02 (at 17.186 11.361) (layer F.Fab) hide
      (effects (font (size 1.4 1.4) (thickness 0.15)))
    )
    (fp_circle (center 0 -6) (end 0.1 -6) (layer F.Fab) (width 0.2))
    (fp_circle (center 0 -6) (end 0.1 -6) (layer F.SilkS) (width 0.2))
    (fp_line (start 8.1 -5.25) (end 8.1 10.25) (layer F.CrtYd) (width 0.05))
    (fp_line (start -3.4 10.25) (end -3.4 -5.25) (layer F.CrtYd) (width 0.05))
    (fp_line (start 8.1 10.25) (end -3.4 10.25) (layer F.CrtYd) (width 0.05))
    (fp_line (start -3.4 -5.25) (end 8.1 -5.25) (layer F.CrtYd) (width 0.05))
    (fp_line (start 7.85 10) (end -3.15 10) (layer F.SilkS) (width 0.127))
    (fp_line (start -3.15 -5) (end 7.85 -5) (layer F.SilkS) (width 0.127))
    (fp_line (start 7.85 -5) (end 7.85 10) (layer F.SilkS) (width 0.127))
    (fp_line (start -3.15 10) (end -3.15 -5) (layer F.SilkS) (width 0.127))
    (fp_line (start 7.85 10) (end -3.15 10) (layer F.Fab) (width 0.127))
    (fp_line (start 7.85 -5) (end 7.85 10) (layer F.Fab) (width 0.127))
    (fp_line (start -3.15 -5) (end 7.85 -5) (layer F.Fab) (width 0.127))
    (fp_line (start -3.15 10) (end -3.15 -5) (layer F.Fab) (width 0.127))
    (pad 2_B thru_hole circle (at 5 5 180) (size 1.95 1.95) (drill 1.3) (layers *.Cu *.Mask)
      (net 4 "Net-(F1-Pad2)"))
    (pad 1_B thru_hole rect (at 0 5 180) (size 1.95 1.95) (drill 1.3) (layers *.Cu *.Mask)
      (net 10 VCOM))
    (pad 2_A thru_hole circle (at 5 0 180) (size 1.95 1.95) (drill 1.3) (layers *.Cu *.Mask)
      (net 4 "Net-(F1-Pad2)"))
    (pad 1_A thru_hole rect (at 0 0 180) (size 1.95 1.95) (drill 1.3) (layers *.Cu *.Mask)
      (net 10 VCOM))
  )

  (module Diode_THT:D_DO-35_SOD27_P7.62mm_Horizontal (layer F.Cu) (tedit 5AE50CD5) (tstamp 61310443)
    (at 31.9 55.154 180)
    (descr "Diode, DO-35_SOD27 series, Axial, Horizontal, pin pitch=7.62mm, , length*diameter=4*2mm^2, , http://www.diodes.com/_files/packages/DO-35.pdf")
    (tags "Diode DO-35_SOD27 series Axial Horizontal pin pitch 7.62mm  length 4mm diameter 2mm")
    (path /6126E56F)
    (fp_text reference D1 (at 6.25 -2.12) (layer F.SilkS)
      (effects (font (size 1 1) (thickness 0.15)))
    )
    (fp_text value 14V (at 3.81 2.12) (layer F.Fab) hide
      (effects (font (size 1 1) (thickness 0.15)))
    )
    (fp_line (start 8.67 -1.25) (end -1.05 -1.25) (layer F.CrtYd) (width 0.05))
    (fp_line (start 8.67 1.25) (end 8.67 -1.25) (layer F.CrtYd) (width 0.05))
    (fp_line (start -1.05 1.25) (end 8.67 1.25) (layer F.CrtYd) (width 0.05))
    (fp_line (start -1.05 -1.25) (end -1.05 1.25) (layer F.CrtYd) (width 0.05))
    (fp_line (start 2.29 -1.12) (end 2.29 1.12) (layer F.SilkS) (width 0.12))
    (fp_line (start 2.53 -1.12) (end 2.53 1.12) (layer F.SilkS) (width 0.12))
    (fp_line (start 2.41 -1.12) (end 2.41 1.12) (layer F.SilkS) (width 0.12))
    (fp_line (start 6.58 0) (end 5.93 0) (layer F.SilkS) (width 0.12))
    (fp_line (start 1.04 0) (end 1.69 0) (layer F.SilkS) (width 0.12))
    (fp_line (start 5.93 -1.12) (end 1.69 -1.12) (layer F.SilkS) (width 0.12))
    (fp_line (start 5.93 1.12) (end 5.93 -1.12) (layer F.SilkS) (width 0.12))
    (fp_line (start 1.69 1.12) (end 5.93 1.12) (layer F.SilkS) (width 0.12))
    (fp_line (start 1.69 -1.12) (end 1.69 1.12) (layer F.SilkS) (width 0.12))
    (fp_line (start 2.31 -1) (end 2.31 1) (layer F.Fab) (width 0.1))
    (fp_line (start 2.51 -1) (end 2.51 1) (layer F.Fab) (width 0.1))
    (fp_line (start 2.41 -1) (end 2.41 1) (layer F.Fab) (width 0.1))
    (fp_line (start 7.62 0) (end 5.81 0) (layer F.Fab) (width 0.1))
    (fp_line (start 0 0) (end 1.81 0) (layer F.Fab) (width 0.1))
    (fp_line (start 5.81 -1) (end 1.81 -1) (layer F.Fab) (width 0.1))
    (fp_line (start 5.81 1) (end 5.81 -1) (layer F.Fab) (width 0.1))
    (fp_line (start 1.81 1) (end 5.81 1) (layer F.Fab) (width 0.1))
    (fp_line (start 1.81 -1) (end 1.81 1) (layer F.Fab) (width 0.1))
    (fp_text user K (at 0 -1.8) (layer F.Fab)
      (effects (font (size 1 1) (thickness 0.15)))
    )
    (fp_text user K (at 0 -1.8) (layer F.Fab)
      (effects (font (size 1 1) (thickness 0.15)))
    )
    (fp_text user %R (at 4.11 0) (layer F.Fab)
      (effects (font (size 0.8 0.8) (thickness 0.12)))
    )
    (pad 2 thru_hole oval (at 7.62 0 180) (size 1.6 1.6) (drill 0.8) (layers *.Cu *.Mask)
      (net 10 VCOM))
    (pad 1 thru_hole rect (at 0 0 180) (size 1.6 1.6) (drill 0.8) (layers *.Cu *.Mask)
      (net 1 VCC))
    (model ${KISYS3DMOD}/Diode_THT.3dshapes/D_DO-35_SOD27_P7.62mm_Horizontal.wrl
      (at (xyz 0 0 0))
      (scale (xyz 1 1 1))
      (rotate (xyz 0 0 0))
    )
  )

  (module _kicad_mod:6pin_header (layer F.Cu) (tedit 0) (tstamp 61306CF7)
    (at 68.15 62.914 180)
    (descr 2178710-6-2)
    (tags Connector)
    (path /61590568)
    (fp_text reference J3 (at 3.425 -1.27) (layer F.SilkS)
      (effects (font (size 1.27 1.27) (thickness 0.254)))
    )
    (fp_text value 2178710-6 (at 3.425 -1.27) (layer F.SilkS) hide
      (effects (font (size 1.27 1.27) (thickness 0.254)))
    )
    (fp_line (start -1.675 -3.87) (end 8.025 -3.87) (layer F.Fab) (width 0.2))
    (fp_line (start 8.025 -3.87) (end 8.025 1.33) (layer F.Fab) (width 0.2))
    (fp_line (start 8.025 1.33) (end -1.675 1.33) (layer F.Fab) (width 0.2))
    (fp_line (start -1.675 1.33) (end -1.675 -3.87) (layer F.Fab) (width 0.2))
    (fp_line (start -2.675 -4.87) (end 9.525 -4.87) (layer F.CrtYd) (width 0.1))
    (fp_line (start 9.525 -4.87) (end 9.525 2.33) (layer F.CrtYd) (width 0.1))
    (fp_line (start 9.525 2.33) (end -2.675 2.33) (layer F.CrtYd) (width 0.1))
    (fp_line (start -2.675 2.33) (end -2.675 -4.87) (layer F.CrtYd) (width 0.1))
    (fp_line (start 8.025 0.23) (end 8.025 1.23) (layer F.SilkS) (width 0.1))
    (fp_line (start 8.025 1.23) (end 8.025 1.33) (layer F.SilkS) (width 0.1))
    (fp_line (start 8.025 1.33) (end -1.675 1.33) (layer F.SilkS) (width 0.1))
    (fp_line (start -1.675 1.33) (end -1.675 -3.87) (layer F.SilkS) (width 0.1))
    (fp_line (start -1.675 -3.87) (end 8.025 -3.87) (layer F.SilkS) (width 0.1))
    (fp_line (start 8.025 -3.87) (end 8.025 -1.77) (layer F.SilkS) (width 0.1))
    (fp_text user %R (at 3.425 -1.27) (layer F.Fab)
      (effects (font (size 1.27 1.27) (thickness 0.254)))
    )
    (pad MH1 np_thru_hole circle (at 7.75 -0.74 180) (size 1.55 0) (drill 1.55) (layers *.Cu *.Mask))
    (pad 6 thru_hole circle (at 6.35 -2.54 180) (size 1.381 1.381) (drill 0.85) (layers *.Cu *.Mask)
      (net 10 VCOM))
    (pad 5 thru_hole circle (at 5.08 0 180) (size 1.381 1.381) (drill 0.85) (layers *.Cu *.Mask)
      (net 8 LED1-PWM))
    (pad 4 thru_hole circle (at 3.81 -2.54 180) (size 1.381 1.381) (drill 0.85) (layers *.Cu *.Mask)
      (net 10 VCOM))
    (pad 3 thru_hole circle (at 2.54 0 180) (size 1.381 1.381) (drill 0.85) (layers *.Cu *.Mask)
      (net 7 LED2-PWM))
    (pad 2 thru_hole circle (at 1.27 -2.54 180) (size 1.381 1.381) (drill 0.85) (layers *.Cu *.Mask)
      (net 10 VCOM))
    (pad 1 thru_hole circle (at 0 0 180) (size 1.381 1.381) (drill 0.85) (layers *.Cu *.Mask)
      (net 1 VCC))
    (model 2178710-6.stp
      (offset (xyz 3.160000038372284 1.269999961853019 4.050000129909852))
      (scale (xyz 1 1 1))
      (rotate (xyz 0 0 0))
    )
  )

  (module Resistor_THT:R_Axial_DIN0204_L3.6mm_D1.6mm_P7.62mm_Horizontal (layer F.Cu) (tedit 5AE5139B) (tstamp 61303757)
    (at 31.9 59.154 180)
    (descr "Resistor, Axial_DIN0204 series, Axial, Horizontal, pin pitch=7.62mm, 0.167W, length*diameter=3.6*1.6mm^2, http://cdn-reichelt.de/documents/datenblatt/B400/1_4W%23YAG.pdf")
    (tags "Resistor Axial_DIN0204 series Axial Horizontal pin pitch 7.62mm 0.167W length 3.6mm diameter 1.6mm")
    (path /612C2463)
    (fp_text reference R1 (at 6.5 -2 180) (layer F.SilkS)
      (effects (font (size 1 1) (thickness 0.15)))
    )
    (fp_text value 10k (at 3.75 0 180) (layer F.SilkS)
      (effects (font (size 1 1) (thickness 0.15)))
    )
    (fp_line (start 8.57 -1.05) (end -0.95 -1.05) (layer F.CrtYd) (width 0.05))
    (fp_line (start 8.57 1.05) (end 8.57 -1.05) (layer F.CrtYd) (width 0.05))
    (fp_line (start -0.95 1.05) (end 8.57 1.05) (layer F.CrtYd) (width 0.05))
    (fp_line (start -0.95 -1.05) (end -0.95 1.05) (layer F.CrtYd) (width 0.05))
    (fp_line (start 6.68 0) (end 5.73 0) (layer F.SilkS) (width 0.12))
    (fp_line (start 0.94 0) (end 1.89 0) (layer F.SilkS) (width 0.12))
    (fp_line (start 5.73 -0.92) (end 1.89 -0.92) (layer F.SilkS) (width 0.12))
    (fp_line (start 5.73 0.92) (end 5.73 -0.92) (layer F.SilkS) (width 0.12))
    (fp_line (start 1.89 0.92) (end 5.73 0.92) (layer F.SilkS) (width 0.12))
    (fp_line (start 1.89 -0.92) (end 1.89 0.92) (layer F.SilkS) (width 0.12))
    (fp_line (start 7.62 0) (end 5.61 0) (layer F.Fab) (width 0.1))
    (fp_line (start 0 0) (end 2.01 0) (layer F.Fab) (width 0.1))
    (fp_line (start 5.61 -0.8) (end 2.01 -0.8) (layer F.Fab) (width 0.1))
    (fp_line (start 5.61 0.8) (end 5.61 -0.8) (layer F.Fab) (width 0.1))
    (fp_line (start 2.01 0.8) (end 5.61 0.8) (layer F.Fab) (width 0.1))
    (fp_line (start 2.01 -0.8) (end 2.01 0.8) (layer F.Fab) (width 0.1))
    (fp_text user %R (at 3.81 0) (layer F.Fab)
      (effects (font (size 0.72 0.72) (thickness 0.108)))
    )
    (pad 2 thru_hole oval (at 7.62 0 180) (size 1.4 1.4) (drill 0.7) (layers *.Cu *.Mask)
      (net 10 VCOM))
    (pad 1 thru_hole circle (at 0 0 180) (size 1.4 1.4) (drill 0.7) (layers *.Cu *.Mask)
      (net 1 VCC))
    (model ${KISYS3DMOD}/Resistor_THT.3dshapes/R_Axial_DIN0204_L3.6mm_D1.6mm_P7.62mm_Horizontal.wrl
      (at (xyz 0 0 0))
      (scale (xyz 1 1 1))
      (rotate (xyz 0 0 0))
    )
  )

  (module Package_TO_SOT_THT:TO-220-3_Vertical (layer F.Cu) (tedit 5AC8BA0D) (tstamp 6130771D)
    (at 24.4 33.114 270)
    (descr "TO-220-3, Vertical, RM 2.54mm, see https://www.vishay.com/docs/66542/to-220-1.pdf")
    (tags "TO-220-3 Vertical RM 2.54mm")
    (path /6127221D)
    (fp_text reference Q1 (at -1.21 -2.5 90) (layer F.SilkS)
      (effects (font (size 1 1) (thickness 0.15)))
    )
    (fp_text value IRLB8721PBF (at 2.54 2.5 90) (layer F.Fab) hide
      (effects (font (size 1 1) (thickness 0.15)))
    )
    (fp_line (start 7.79 -3.4) (end -2.71 -3.4) (layer F.CrtYd) (width 0.05))
    (fp_line (start 7.79 1.51) (end 7.79 -3.4) (layer F.CrtYd) (width 0.05))
    (fp_line (start -2.71 1.51) (end 7.79 1.51) (layer F.CrtYd) (width 0.05))
    (fp_line (start -2.71 -3.4) (end -2.71 1.51) (layer F.CrtYd) (width 0.05))
    (fp_line (start 4.391 -3.27) (end 4.391 -1.76) (layer F.SilkS) (width 0.12))
    (fp_line (start 0.69 -3.27) (end 0.69 -1.76) (layer F.SilkS) (width 0.12))
    (fp_line (start -2.58 -1.76) (end 7.66 -1.76) (layer F.SilkS) (width 0.12))
    (fp_line (start 7.66 -3.27) (end 7.66 1.371) (layer F.SilkS) (width 0.12))
    (fp_line (start -2.58 -3.27) (end -2.58 1.371) (layer F.SilkS) (width 0.12))
    (fp_line (start -2.58 1.371) (end 7.66 1.371) (layer F.SilkS) (width 0.12))
    (fp_line (start -2.58 -3.27) (end 7.66 -3.27) (layer F.SilkS) (width 0.12))
    (fp_line (start 4.39 -3.15) (end 4.39 -1.88) (layer F.Fab) (width 0.1))
    (fp_line (start 0.69 -3.15) (end 0.69 -1.88) (layer F.Fab) (width 0.1))
    (fp_line (start -2.46 -1.88) (end 7.54 -1.88) (layer F.Fab) (width 0.1))
    (fp_line (start 7.54 -3.15) (end -2.46 -3.15) (layer F.Fab) (width 0.1))
    (fp_line (start 7.54 1.25) (end 7.54 -3.15) (layer F.Fab) (width 0.1))
    (fp_line (start -2.46 1.25) (end 7.54 1.25) (layer F.Fab) (width 0.1))
    (fp_line (start -2.46 -3.15) (end -2.46 1.25) (layer F.Fab) (width 0.1))
    (fp_text user NPN (at 2.58 -2.5 90) (layer F.SilkS)
      (effects (font (size 1 1) (thickness 0.15)))
    )
    (pad 3 thru_hole oval (at 5.08 0 270) (size 1.905 2) (drill 1.1) (layers *.Cu *.Mask)
      (net 10 VCOM))
    (pad 2 thru_hole oval (at 2.54 0 270) (size 1.905 2) (drill 1.1) (layers *.Cu *.Mask)
      (net 11 "Net-(J2-Pad1_A)"))
    (pad 1 thru_hole rect (at 0 0 270) (size 1.905 2) (drill 1.1) (layers *.Cu *.Mask)
      (net 5 "Net-(Q1-Pad1)"))
    (model ${KISYS3DMOD}/Package_TO_SOT_THT.3dshapes/TO-220-3_Vertical.wrl
      (at (xyz 0 0 0))
      (scale (xyz 1 1 1))
      (rotate (xyz 0 0 0))
    )
  )

  (module Resistor_THT:R_Axial_DIN0207_L6.3mm_D2.5mm_P10.16mm_Horizontal (layer F.Cu) (tedit 5AE5139B) (tstamp 61310224)
    (at 46.74 54.654)
    (descr "Resistor, Axial_DIN0207 series, Axial, Horizontal, pin pitch=10.16mm, 0.25W = 1/4W, length*diameter=6.3*2.5mm^2, http://cdn-reichelt.de/documents/datenblatt/B400/1_4W%23YAG.pdf")
    (tags "Resistor Axial_DIN0207 series Axial Horizontal pin pitch 10.16mm 0.25W = 1/4W length 6.3mm diameter 2.5mm")
    (path /612CC555)
    (fp_text reference R4 (at 3.16 2.5) (layer F.SilkS)
      (effects (font (size 1 1) (thickness 0.15)))
    )
    (fp_text value 2.2 (at 5.16 0) (layer F.SilkS)
      (effects (font (size 1 1) (thickness 0.15)))
    )
    (fp_line (start 11.21 -1.5) (end -1.05 -1.5) (layer F.CrtYd) (width 0.05))
    (fp_line (start 11.21 1.5) (end 11.21 -1.5) (layer F.CrtYd) (width 0.05))
    (fp_line (start -1.05 1.5) (end 11.21 1.5) (layer F.CrtYd) (width 0.05))
    (fp_line (start -1.05 -1.5) (end -1.05 1.5) (layer F.CrtYd) (width 0.05))
    (fp_line (start 9.12 0) (end 8.35 0) (layer F.SilkS) (width 0.12))
    (fp_line (start 1.04 0) (end 1.81 0) (layer F.SilkS) (width 0.12))
    (fp_line (start 8.35 -1.37) (end 1.81 -1.37) (layer F.SilkS) (width 0.12))
    (fp_line (start 8.35 1.37) (end 8.35 -1.37) (layer F.SilkS) (width 0.12))
    (fp_line (start 1.81 1.37) (end 8.35 1.37) (layer F.SilkS) (width 0.12))
    (fp_line (start 1.81 -1.37) (end 1.81 1.37) (layer F.SilkS) (width 0.12))
    (fp_line (start 10.16 0) (end 8.23 0) (layer F.Fab) (width 0.1))
    (fp_line (start 0 0) (end 1.93 0) (layer F.Fab) (width 0.1))
    (fp_line (start 8.23 -1.25) (end 1.93 -1.25) (layer F.Fab) (width 0.1))
    (fp_line (start 8.23 1.25) (end 8.23 -1.25) (layer F.Fab) (width 0.1))
    (fp_line (start 1.93 1.25) (end 8.23 1.25) (layer F.Fab) (width 0.1))
    (fp_line (start 1.93 -1.25) (end 1.93 1.25) (layer F.Fab) (width 0.1))
    (fp_text user %R (at 5.08 0) (layer F.Fab)
      (effects (font (size 1 1) (thickness 0.15)))
    )
    (pad 2 thru_hole oval (at 10.16 0) (size 1.6 1.6) (drill 0.8) (layers *.Cu *.Mask)
      (net 2 LED1-GateDriver))
    (pad 1 thru_hole circle (at 0 0) (size 1.6 1.6) (drill 0.8) (layers *.Cu *.Mask)
      (net 5 "Net-(Q1-Pad1)"))
    (model ${KISYS3DMOD}/Resistor_THT.3dshapes/R_Axial_DIN0207_L6.3mm_D2.5mm_P10.16mm_Horizontal.wrl
      (at (xyz 0 0 0))
      (scale (xyz 1 1 1))
      (rotate (xyz 0 0 0))
    )
  )

  (module Capacitor_THT:CP_Radial_D5.0mm_P2.00mm (layer F.Cu) (tedit 5AE50EF0) (tstamp 61312CA0)
    (at 60.4 57.154)
    (descr "CP, Radial series, Radial, pin pitch=2.00mm, , diameter=5mm, Electrolytic Capacitor")
    (tags "CP Radial series Radial pin pitch 2.00mm  diameter 5mm Electrolytic Capacitor")
    (path /612CEAAE)
    (fp_text reference C6 (at 5 0.25) (layer F.SilkS)
      (effects (font (size 1 1) (thickness 0.15)))
    )
    (fp_text value 4.7uF (at 6 2) (layer F.SilkS)
      (effects (font (size 1 1) (thickness 0.15)))
    )
    (fp_line (start -1.554775 -1.725) (end -1.554775 -1.225) (layer F.SilkS) (width 0.12))
    (fp_line (start -1.804775 -1.475) (end -1.304775 -1.475) (layer F.SilkS) (width 0.12))
    (fp_line (start 3.601 -0.284) (end 3.601 0.284) (layer F.SilkS) (width 0.12))
    (fp_line (start 3.561 -0.518) (end 3.561 0.518) (layer F.SilkS) (width 0.12))
    (fp_line (start 3.521 -0.677) (end 3.521 0.677) (layer F.SilkS) (width 0.12))
    (fp_line (start 3.481 -0.805) (end 3.481 0.805) (layer F.SilkS) (width 0.12))
    (fp_line (start 3.441 -0.915) (end 3.441 0.915) (layer F.SilkS) (width 0.12))
    (fp_line (start 3.401 -1.011) (end 3.401 1.011) (layer F.SilkS) (width 0.12))
    (fp_line (start 3.361 -1.098) (end 3.361 1.098) (layer F.SilkS) (width 0.12))
    (fp_line (start 3.321 -1.178) (end 3.321 1.178) (layer F.SilkS) (width 0.12))
    (fp_line (start 3.281 -1.251) (end 3.281 1.251) (layer F.SilkS) (width 0.12))
    (fp_line (start 3.241 -1.319) (end 3.241 1.319) (layer F.SilkS) (width 0.12))
    (fp_line (start 3.201 -1.383) (end 3.201 1.383) (layer F.SilkS) (width 0.12))
    (fp_line (start 3.161 -1.443) (end 3.161 1.443) (layer F.SilkS) (width 0.12))
    (fp_line (start 3.121 -1.5) (end 3.121 1.5) (layer F.SilkS) (width 0.12))
    (fp_line (start 3.081 -1.554) (end 3.081 1.554) (layer F.SilkS) (width 0.12))
    (fp_line (start 3.041 -1.605) (end 3.041 1.605) (layer F.SilkS) (width 0.12))
    (fp_line (start 3.001 1.04) (end 3.001 1.653) (layer F.SilkS) (width 0.12))
    (fp_line (start 3.001 -1.653) (end 3.001 -1.04) (layer F.SilkS) (width 0.12))
    (fp_line (start 2.961 1.04) (end 2.961 1.699) (layer F.SilkS) (width 0.12))
    (fp_line (start 2.961 -1.699) (end 2.961 -1.04) (layer F.SilkS) (width 0.12))
    (fp_line (start 2.921 1.04) (end 2.921 1.743) (layer F.SilkS) (width 0.12))
    (fp_line (start 2.921 -1.743) (end 2.921 -1.04) (layer F.SilkS) (width 0.12))
    (fp_line (start 2.881 1.04) (end 2.881 1.785) (layer F.SilkS) (width 0.12))
    (fp_line (start 2.881 -1.785) (end 2.881 -1.04) (layer F.SilkS) (width 0.12))
    (fp_line (start 2.841 1.04) (end 2.841 1.826) (layer F.SilkS) (width 0.12))
    (fp_line (start 2.841 -1.826) (end 2.841 -1.04) (layer F.SilkS) (width 0.12))
    (fp_line (start 2.801 1.04) (end 2.801 1.864) (layer F.SilkS) (width 0.12))
    (fp_line (start 2.801 -1.864) (end 2.801 -1.04) (layer F.SilkS) (width 0.12))
    (fp_line (start 2.761 1.04) (end 2.761 1.901) (layer F.SilkS) (width 0.12))
    (fp_line (start 2.761 -1.901) (end 2.761 -1.04) (layer F.SilkS) (width 0.12))
    (fp_line (start 2.721 1.04) (end 2.721 1.937) (layer F.SilkS) (width 0.12))
    (fp_line (start 2.721 -1.937) (end 2.721 -1.04) (layer F.SilkS) (width 0.12))
    (fp_line (start 2.681 1.04) (end 2.681 1.971) (layer F.SilkS) (width 0.12))
    (fp_line (start 2.681 -1.971) (end 2.681 -1.04) (layer F.SilkS) (width 0.12))
    (fp_line (start 2.641 1.04) (end 2.641 2.004) (layer F.SilkS) (width 0.12))
    (fp_line (start 2.641 -2.004) (end 2.641 -1.04) (layer F.SilkS) (width 0.12))
    (fp_line (start 2.601 1.04) (end 2.601 2.035) (layer F.SilkS) (width 0.12))
    (fp_line (start 2.601 -2.035) (end 2.601 -1.04) (layer F.SilkS) (width 0.12))
    (fp_line (start 2.561 1.04) (end 2.561 2.065) (layer F.SilkS) (width 0.12))
    (fp_line (start 2.561 -2.065) (end 2.561 -1.04) (layer F.SilkS) (width 0.12))
    (fp_line (start 2.521 1.04) (end 2.521 2.095) (layer F.SilkS) (width 0.12))
    (fp_line (start 2.521 -2.095) (end 2.521 -1.04) (layer F.SilkS) (width 0.12))
    (fp_line (start 2.481 1.04) (end 2.481 2.122) (layer F.SilkS) (width 0.12))
    (fp_line (start 2.481 -2.122) (end 2.481 -1.04) (layer F.SilkS) (width 0.12))
    (fp_line (start 2.441 1.04) (end 2.441 2.149) (layer F.SilkS) (width 0.12))
    (fp_line (start 2.441 -2.149) (end 2.441 -1.04) (layer F.SilkS) (width 0.12))
    (fp_line (start 2.401 1.04) (end 2.401 2.175) (layer F.SilkS) (width 0.12))
    (fp_line (start 2.401 -2.175) (end 2.401 -1.04) (layer F.SilkS) (width 0.12))
    (fp_line (start 2.361 1.04) (end 2.361 2.2) (layer F.SilkS) (width 0.12))
    (fp_line (start 2.361 -2.2) (end 2.361 -1.04) (layer F.SilkS) (width 0.12))
    (fp_line (start 2.321 1.04) (end 2.321 2.224) (layer F.SilkS) (width 0.12))
    (fp_line (start 2.321 -2.224) (end 2.321 -1.04) (layer F.SilkS) (width 0.12))
    (fp_line (start 2.281 1.04) (end 2.281 2.247) (layer F.SilkS) (width 0.12))
    (fp_line (start 2.281 -2.247) (end 2.281 -1.04) (layer F.SilkS) (width 0.12))
    (fp_line (start 2.241 1.04) (end 2.241 2.268) (layer F.SilkS) (width 0.12))
    (fp_line (start 2.241 -2.268) (end 2.241 -1.04) (layer F.SilkS) (width 0.12))
    (fp_line (start 2.201 1.04) (end 2.201 2.29) (layer F.SilkS) (width 0.12))
    (fp_line (start 2.201 -2.29) (end 2.201 -1.04) (layer F.SilkS) (width 0.12))
    (fp_line (start 2.161 1.04) (end 2.161 2.31) (layer F.SilkS) (width 0.12))
    (fp_line (start 2.161 -2.31) (end 2.161 -1.04) (layer F.SilkS) (width 0.12))
    (fp_line (start 2.121 1.04) (end 2.121 2.329) (layer F.SilkS) (width 0.12))
    (fp_line (start 2.121 -2.329) (end 2.121 -1.04) (layer F.SilkS) (width 0.12))
    (fp_line (start 2.081 1.04) (end 2.081 2.348) (layer F.SilkS) (width 0.12))
    (fp_line (start 2.081 -2.348) (end 2.081 -1.04) (layer F.SilkS) (width 0.12))
    (fp_line (start 2.041 1.04) (end 2.041 2.365) (layer F.SilkS) (width 0.12))
    (fp_line (start 2.041 -2.365) (end 2.041 -1.04) (layer F.SilkS) (width 0.12))
    (fp_line (start 2.001 1.04) (end 2.001 2.382) (layer F.SilkS) (width 0.12))
    (fp_line (start 2.001 -2.382) (end 2.001 -1.04) (layer F.SilkS) (width 0.12))
    (fp_line (start 1.961 1.04) (end 1.961 2.398) (layer F.SilkS) (width 0.12))
    (fp_line (start 1.961 -2.398) (end 1.961 -1.04) (layer F.SilkS) (width 0.12))
    (fp_line (start 1.921 1.04) (end 1.921 2.414) (layer F.SilkS) (width 0.12))
    (fp_line (start 1.921 -2.414) (end 1.921 -1.04) (layer F.SilkS) (width 0.12))
    (fp_line (start 1.881 1.04) (end 1.881 2.428) (layer F.SilkS) (width 0.12))
    (fp_line (start 1.881 -2.428) (end 1.881 -1.04) (layer F.SilkS) (width 0.12))
    (fp_line (start 1.841 1.04) (end 1.841 2.442) (layer F.SilkS) (width 0.12))
    (fp_line (start 1.841 -2.442) (end 1.841 -1.04) (layer F.SilkS) (width 0.12))
    (fp_line (start 1.801 1.04) (end 1.801 2.455) (layer F.SilkS) (width 0.12))
    (fp_line (start 1.801 -2.455) (end 1.801 -1.04) (layer F.SilkS) (width 0.12))
    (fp_line (start 1.761 1.04) (end 1.761 2.468) (layer F.SilkS) (width 0.12))
    (fp_line (start 1.761 -2.468) (end 1.761 -1.04) (layer F.SilkS) (width 0.12))
    (fp_line (start 1.721 1.04) (end 1.721 2.48) (layer F.SilkS) (width 0.12))
    (fp_line (start 1.721 -2.48) (end 1.721 -1.04) (layer F.SilkS) (width 0.12))
    (fp_line (start 1.68 1.04) (end 1.68 2.491) (layer F.SilkS) (width 0.12))
    (fp_line (start 1.68 -2.491) (end 1.68 -1.04) (layer F.SilkS) (width 0.12))
    (fp_line (start 1.64 1.04) (end 1.64 2.501) (layer F.SilkS) (width 0.12))
    (fp_line (start 1.64 -2.501) (end 1.64 -1.04) (layer F.SilkS) (width 0.12))
    (fp_line (start 1.6 1.04) (end 1.6 2.511) (layer F.SilkS) (width 0.12))
    (fp_line (start 1.6 -2.511) (end 1.6 -1.04) (layer F.SilkS) (width 0.12))
    (fp_line (start 1.56 1.04) (end 1.56 2.52) (layer F.SilkS) (width 0.12))
    (fp_line (start 1.56 -2.52) (end 1.56 -1.04) (layer F.SilkS) (width 0.12))
    (fp_line (start 1.52 1.04) (end 1.52 2.528) (layer F.SilkS) (width 0.12))
    (fp_line (start 1.52 -2.528) (end 1.52 -1.04) (layer F.SilkS) (width 0.12))
    (fp_line (start 1.48 1.04) (end 1.48 2.536) (layer F.SilkS) (width 0.12))
    (fp_line (start 1.48 -2.536) (end 1.48 -1.04) (layer F.SilkS) (width 0.12))
    (fp_line (start 1.44 1.04) (end 1.44 2.543) (layer F.SilkS) (width 0.12))
    (fp_line (start 1.44 -2.543) (end 1.44 -1.04) (layer F.SilkS) (width 0.12))
    (fp_line (start 1.4 1.04) (end 1.4 2.55) (layer F.SilkS) (width 0.12))
    (fp_line (start 1.4 -2.55) (end 1.4 -1.04) (layer F.SilkS) (width 0.12))
    (fp_line (start 1.36 1.04) (end 1.36 2.556) (layer F.SilkS) (width 0.12))
    (fp_line (start 1.36 -2.556) (end 1.36 -1.04) (layer F.SilkS) (width 0.12))
    (fp_line (start 1.32 1.04) (end 1.32 2.561) (layer F.SilkS) (width 0.12))
    (fp_line (start 1.32 -2.561) (end 1.32 -1.04) (layer F.SilkS) (width 0.12))
    (fp_line (start 1.28 1.04) (end 1.28 2.565) (layer F.SilkS) (width 0.12))
    (fp_line (start 1.28 -2.565) (end 1.28 -1.04) (layer F.SilkS) (width 0.12))
    (fp_line (start 1.24 1.04) (end 1.24 2.569) (layer F.SilkS) (width 0.12))
    (fp_line (start 1.24 -2.569) (end 1.24 -1.04) (layer F.SilkS) (width 0.12))
    (fp_line (start 1.2 1.04) (end 1.2 2.573) (layer F.SilkS) (width 0.12))
    (fp_line (start 1.2 -2.573) (end 1.2 -1.04) (layer F.SilkS) (width 0.12))
    (fp_line (start 1.16 1.04) (end 1.16 2.576) (layer F.SilkS) (width 0.12))
    (fp_line (start 1.16 -2.576) (end 1.16 -1.04) (layer F.SilkS) (width 0.12))
    (fp_line (start 1.12 1.04) (end 1.12 2.578) (layer F.SilkS) (width 0.12))
    (fp_line (start 1.12 -2.578) (end 1.12 -1.04) (layer F.SilkS) (width 0.12))
    (fp_line (start 1.08 1.04) (end 1.08 2.579) (layer F.SilkS) (width 0.12))
    (fp_line (start 1.08 -2.579) (end 1.08 -1.04) (layer F.SilkS) (width 0.12))
    (fp_line (start 1.04 -2.58) (end 1.04 -1.04) (layer F.SilkS) (width 0.12))
    (fp_line (start 1.04 1.04) (end 1.04 2.58) (layer F.SilkS) (width 0.12))
    (fp_line (start 1 -2.58) (end 1 -1.04) (layer F.SilkS) (width 0.12))
    (fp_line (start 1 1.04) (end 1 2.58) (layer F.SilkS) (width 0.12))
    (fp_line (start -0.883605 -1.3375) (end -0.883605 -0.8375) (layer F.Fab) (width 0.1))
    (fp_line (start -1.133605 -1.0875) (end -0.633605 -1.0875) (layer F.Fab) (width 0.1))
    (fp_circle (center 1 0) (end 3.75 0) (layer F.CrtYd) (width 0.05))
    (fp_circle (center 1 0) (end 3.62 0) (layer F.SilkS) (width 0.12))
    (fp_circle (center 1 0) (end 3.5 0) (layer F.Fab) (width 0.1))
    (fp_text user %R (at 1 0) (layer F.Fab)
      (effects (font (size 1 1) (thickness 0.15)))
    )
    (pad 2 thru_hole circle (at 2 0) (size 1.6 1.6) (drill 0.8) (layers *.Cu *.Mask)
      (net 10 VCOM))
    (pad 1 thru_hole rect (at 0 0) (size 1.6 1.6) (drill 0.8) (layers *.Cu *.Mask)
      (net 1 VCC))
    (model ${KISYS3DMOD}/Capacitor_THT.3dshapes/CP_Radial_D5.0mm_P2.00mm.wrl
      (at (xyz 0 0 0))
      (scale (xyz 1 1 1))
      (rotate (xyz 0 0 0))
    )
  )

  (module _kicad_mod:gate_driver (layer F.Cu) (tedit 612E7EDD) (tstamp 613101D8)
    (at 51.9 62.964 90)
    (descr "Original name <b>DIP762W46P254L988H533Q8B</b><p>Max Component Height - 5.33mm")
    (path /612EABC7)
    (fp_text reference U1 (at 1.31 2.75 180) (layer F.SilkS)
      (effects (font (size 1.6 1.6) (thickness 0.15)))
    )
    (fp_text value IRS4427 (at 19.524 6.694 90) (layer F.Fab) hide
      (effects (font (size 1.6 1.6) (thickness 0.15)))
    )
    (fp_line (start -2.75 4.95) (end -2.75 -4.95) (layer F.SilkS) (width 0.2))
    (fp_line (start -2.75 -4.95) (end 2.75 -4.95) (layer F.SilkS) (width 0.2))
    (fp_line (start 2.75 4.95) (end 2.75 -4.95) (layer F.SilkS) (width 0.2))
    (fp_line (start -2.75 4.95) (end 2.75 4.95) (layer F.SilkS) (width 0.2))
    (fp_circle (center -4.3 -5.11) (end -4.175 -5.11) (layer F.SilkS) (width 0.25))
    (fp_line (start -4.81 5.71) (end 4.81 5.71) (layer F.CrtYd) (width 0.1))
    (fp_line (start -4.81 -5.71) (end 4.81 -5.71) (layer F.CrtYd) (width 0.1))
    (fp_line (start 4.81 5.71) (end 4.81 -5.71) (layer F.CrtYd) (width 0.1))
    (fp_line (start -4.81 5.71) (end -4.81 -5.71) (layer F.CrtYd) (width 0.1))
    (fp_line (start -0.5 0) (end 0.5 0) (layer Dwgs.User) (width 0.1))
    (fp_line (start 0 0.5) (end 0 -0.5) (layer Dwgs.User) (width 0.1))
    (fp_line (start -3.303 4.94) (end -3.303 -4.94) (layer F.Fab) (width 0.1))
    (fp_line (start -3.303 -4.94) (end 3.303 -4.94) (layer F.Fab) (width 0.1))
    (fp_line (start 3.303 4.94) (end 3.303 -4.94) (layer F.Fab) (width 0.1))
    (fp_line (start -3.303 4.94) (end 3.303 4.94) (layer F.Fab) (width 0.1))
    (fp_circle (center -2.515 -4.14) (end -2.0155 -4.14) (layer F.Fab) (width 0.1))
    (pad 8 thru_hole circle (at 3.81 -3.81 90) (size 1.5 1.5) (drill 0.9) (layers *.Cu *.Mask))
    (pad 7 thru_hole circle (at 3.81 -1.27 90) (size 1.5 1.5) (drill 0.9) (layers *.Cu *.Mask)
      (net 2 LED1-GateDriver))
    (pad 6 thru_hole circle (at 3.81 1.27 90) (size 1.5 1.5) (drill 0.9) (layers *.Cu *.Mask)
      (net 1 VCC))
    (pad 5 thru_hole circle (at 3.81 3.81 90) (size 1.5 1.5) (drill 0.9) (layers *.Cu *.Mask)
      (net 3 LED2-GateDriver))
    (pad 4 thru_hole circle (at -3.81 3.81 90) (size 1.5 1.5) (drill 0.9) (layers *.Cu *.Mask)
      (net 7 LED2-PWM))
    (pad 3 thru_hole circle (at -3.81 1.27 90) (size 1.5 1.5) (drill 0.9) (layers *.Cu *.Mask)
      (net 10 VCOM))
    (pad 2 thru_hole circle (at -3.81 -1.27 90) (size 1.5 1.5) (drill 0.9) (layers *.Cu *.Mask)
      (net 8 LED1-PWM))
    (pad 1 thru_hole rect (at -3.81 -3.81 90) (size 1.5 1.5) (drill 0.9) (layers *.Cu *.Mask))
  )

  (module Resistor_THT:R_Axial_DIN0207_L6.3mm_D2.5mm_P10.16mm_Horizontal (layer F.Cu) (tedit 5AE5139B) (tstamp 61310191)
    (at 76.06 54.654 180)
    (descr "Resistor, Axial_DIN0207 series, Axial, Horizontal, pin pitch=10.16mm, 0.25W = 1/4W, length*diameter=6.3*2.5mm^2, http://cdn-reichelt.de/documents/datenblatt/B400/1_4W%23YAG.pdf")
    (tags "Resistor Axial_DIN0207 series Axial Horizontal pin pitch 10.16mm 0.25W = 1/4W length 6.3mm diameter 2.5mm")
    (path /6131933A)
    (fp_text reference R5 (at 0.16 -2.5) (layer F.SilkS)
      (effects (font (size 1 1) (thickness 0.15)))
    )
    (fp_text value 2.2 (at 5.41 0) (layer F.SilkS)
      (effects (font (size 1 1) (thickness 0.15)))
    )
    (fp_line (start 11.21 -1.5) (end -1.05 -1.5) (layer F.CrtYd) (width 0.05))
    (fp_line (start 11.21 1.5) (end 11.21 -1.5) (layer F.CrtYd) (width 0.05))
    (fp_line (start -1.05 1.5) (end 11.21 1.5) (layer F.CrtYd) (width 0.05))
    (fp_line (start -1.05 -1.5) (end -1.05 1.5) (layer F.CrtYd) (width 0.05))
    (fp_line (start 9.12 0) (end 8.35 0) (layer F.SilkS) (width 0.12))
    (fp_line (start 1.04 0) (end 1.81 0) (layer F.SilkS) (width 0.12))
    (fp_line (start 8.35 -1.37) (end 1.81 -1.37) (layer F.SilkS) (width 0.12))
    (fp_line (start 8.35 1.37) (end 8.35 -1.37) (layer F.SilkS) (width 0.12))
    (fp_line (start 1.81 1.37) (end 8.35 1.37) (layer F.SilkS) (width 0.12))
    (fp_line (start 1.81 -1.37) (end 1.81 1.37) (layer F.SilkS) (width 0.12))
    (fp_line (start 10.16 0) (end 8.23 0) (layer F.Fab) (width 0.1))
    (fp_line (start 0 0) (end 1.93 0) (layer F.Fab) (width 0.1))
    (fp_line (start 8.23 -1.25) (end 1.93 -1.25) (layer F.Fab) (width 0.1))
    (fp_line (start 8.23 1.25) (end 8.23 -1.25) (layer F.Fab) (width 0.1))
    (fp_line (start 1.93 1.25) (end 8.23 1.25) (layer F.Fab) (width 0.1))
    (fp_line (start 1.93 -1.25) (end 1.93 1.25) (layer F.Fab) (width 0.1))
    (fp_text user %R (at 5.08 0) (layer F.Fab)
      (effects (font (size 1 1) (thickness 0.15)))
    )
    (pad 2 thru_hole oval (at 10.16 0 180) (size 1.6 1.6) (drill 0.8) (layers *.Cu *.Mask)
      (net 3 LED2-GateDriver))
    (pad 1 thru_hole circle (at 0 0 180) (size 1.6 1.6) (drill 0.8) (layers *.Cu *.Mask)
      (net 6 "Net-(Q2-Pad1)"))
    (model ${KISYS3DMOD}/Resistor_THT.3dshapes/R_Axial_DIN0207_L6.3mm_D2.5mm_P10.16mm_Horizontal.wrl
      (at (xyz 0 0 0))
      (scale (xyz 1 1 1))
      (rotate (xyz 0 0 0))
    )
  )

  (module _kicad_mod:fuse_5x20 (layer F.Cu) (tedit 0) (tstamp 613147FF)
    (at 47.4 46.654 180)
    (descr 4527)
    (tags "Undefined or Miscellaneous")
    (path /6126D70A)
    (fp_text reference F1 (at -0.318 -0.073) (layer F.SilkS)
      (effects (font (size 1.27 1.27) (thickness 0.254)))
    )
    (fp_text value 10A (at -0.318 -0.073) (layer F.SilkS) hide
      (effects (font (size 1.27 1.27) (thickness 0.254)))
    )
    (fp_line (start 12.08 4.85) (end -12.08 4.85) (layer F.SilkS) (width 0.2))
    (fp_line (start 12.08 -4.85) (end 12.08 4.85) (layer F.SilkS) (width 0.2))
    (fp_line (start -12.08 -4.85) (end 12.08 -4.85) (layer F.SilkS) (width 0.2))
    (fp_line (start -12.08 4.85) (end -12.08 -4.85) (layer F.SilkS) (width 0.2))
    (fp_line (start -12.08 4.85) (end -12.08 -4.85) (layer F.Fab) (width 0.2))
    (fp_line (start 12.08 4.85) (end -12.08 4.85) (layer F.Fab) (width 0.2))
    (fp_line (start 12.08 -4.85) (end 12.08 4.85) (layer F.Fab) (width 0.2))
    (fp_line (start -12.08 -4.85) (end 12.08 -4.85) (layer F.Fab) (width 0.2))
    (fp_text user %R (at -0.318 -0.073) (layer F.Fab)
      (effects (font (size 1.27 1.27) (thickness 0.254)))
    )
    (pad 2 thru_hole circle (at 10.92 0 180) (size 1.97 1.97) (drill 1.32) (layers *.Cu *.Mask)
      (net 4 "Net-(F1-Pad2)"))
    (pad 1 thru_hole circle (at -10.92 0 180) (size 1.97 1.97) (drill 1.32) (layers *.Cu *.Mask)
      (net 1 VCC))
    (model 4527.stp
      (offset (xyz 0 0 6.300000096118386))
      (scale (xyz 1 1 1))
      (rotate (xyz -90 0 0))
    )
  )

  (module Capacitor_THT:C_Rect_L7.2mm_W2.5mm_P5.00mm_FKS2_FKP2_MKS2_MKP2 (layer F.Cu) (tedit 5AE50EF0) (tstamp 61310157)
    (at 62.4 46.654 270)
    (descr "C, Rect series, Radial, pin pitch=5.00mm, , length*width=7.2*2.5mm^2, Capacitor, http://www.wima.com/EN/WIMA_FKS_2.pdf")
    (tags "C Rect series Radial pin pitch 5.00mm  length 7.2mm width 2.5mm Capacitor")
    (path /612CEE18)
    (fp_text reference C4 (at 3.5 -2.75 180) (layer F.SilkS)
      (effects (font (size 1 1) (thickness 0.15)))
    )
    (fp_text value 0.1uF (at 5 -3.75 180) (layer F.SilkS)
      (effects (font (size 1 1) (thickness 0.15)))
    )
    (fp_line (start 6.35 -1.5) (end -1.35 -1.5) (layer F.CrtYd) (width 0.05))
    (fp_line (start 6.35 1.5) (end 6.35 -1.5) (layer F.CrtYd) (width 0.05))
    (fp_line (start -1.35 1.5) (end 6.35 1.5) (layer F.CrtYd) (width 0.05))
    (fp_line (start -1.35 -1.5) (end -1.35 1.5) (layer F.CrtYd) (width 0.05))
    (fp_line (start 6.22 -1.37) (end 6.22 1.37) (layer F.SilkS) (width 0.12))
    (fp_line (start -1.22 -1.37) (end -1.22 1.37) (layer F.SilkS) (width 0.12))
    (fp_line (start -1.22 1.37) (end 6.22 1.37) (layer F.SilkS) (width 0.12))
    (fp_line (start -1.22 -1.37) (end 6.22 -1.37) (layer F.SilkS) (width 0.12))
    (fp_line (start 6.1 -1.25) (end -1.1 -1.25) (layer F.Fab) (width 0.1))
    (fp_line (start 6.1 1.25) (end 6.1 -1.25) (layer F.Fab) (width 0.1))
    (fp_line (start -1.1 1.25) (end 6.1 1.25) (layer F.Fab) (width 0.1))
    (fp_line (start -1.1 -1.25) (end -1.1 1.25) (layer F.Fab) (width 0.1))
    (fp_text user %R (at 2.5 0 90) (layer F.Fab)
      (effects (font (size 1 1) (thickness 0.15)))
    )
    (pad 2 thru_hole circle (at 5 0 270) (size 1.6 1.6) (drill 0.8) (layers *.Cu *.Mask)
      (net 10 VCOM))
    (pad 1 thru_hole circle (at 0 0 270) (size 1.6 1.6) (drill 0.8) (layers *.Cu *.Mask)
      (net 1 VCC))
    (model ${KISYS3DMOD}/Capacitor_THT.3dshapes/C_Rect_L7.2mm_W2.5mm_P5.00mm_FKS2_FKP2_MKS2_MKP2.wrl
      (at (xyz 0 0 0))
      (scale (xyz 1 1 1))
      (rotate (xyz 0 0 0))
    )
  )

  (module _kicad_mod:CAPPRD500W60D1000H1300 (layer F.Cu) (tedit 612E874A) (tstamp 61303643)
    (at 28.4 47.154 180)
    (path /612C1BF4)
    (fp_text reference C1 (at 0 2.25) (layer F.SilkS)
      (effects (font (size 1 1) (thickness 0.15)))
    )
    (fp_text value 1mF (at 0 -2) (layer F.SilkS)
      (effects (font (size 1 1) (thickness 0.15)))
    )
    (fp_circle (center -5.75 0) (end -5.65 0) (layer F.Fab) (width 0.2))
    (fp_circle (center -5.75 0) (end -5.65 0) (layer F.SilkS) (width 0.2))
    (fp_circle (center 0 0) (end 5.25 0) (layer F.CrtYd) (width 0.05))
    (fp_circle (center 0 0) (end 5 0) (layer F.SilkS) (width 0.127))
    (fp_circle (center 0 0) (end 5 0) (layer F.Fab) (width 0.127))
    (pad 2 thru_hole circle (at 2.5 0 180) (size 1.2 1.2) (drill 0.85) (layers *.Cu *.Mask)
      (net 10 VCOM))
    (pad 1 thru_hole rect (at -2.5 0 180) (size 1.2 1.2) (drill 0.85) (layers *.Cu *.Mask)
      (net 1 VCC))
  )

  (module _kicad_mod:Terminal_8 (layer F.Cu) (tedit 6126B4FD) (tstamp 6130FB27)
    (at 32.9 30.654)
    (path /612E02CD)
    (fp_text reference J2 (at 0.295 -6.889) (layer F.Fab)
      (effects (font (size 1.4 1.4) (thickness 0.15)))
    )
    (fp_text value Screw_Terminal_01x12 (at 17.186 11.361) (layer F.Fab) hide
      (effects (font (size 1.4 1.4) (thickness 0.15)))
    )
    (fp_line (start -3.15 10) (end -3.15 -5) (layer F.Fab) (width 0.127))
    (fp_line (start -3.15 -5) (end 37.85 -5) (layer F.Fab) (width 0.127))
    (fp_line (start 37.85 -5) (end 37.85 10) (layer F.Fab) (width 0.127))
    (fp_line (start 37.85 10) (end -3.15 10) (layer F.Fab) (width 0.127))
    (fp_line (start -3.15 10) (end -3.15 -5) (layer F.SilkS) (width 0.127))
    (fp_line (start 37.85 -5) (end 37.85 10) (layer F.SilkS) (width 0.127))
    (fp_line (start -3.15 -5) (end 37.85 -5) (layer F.SilkS) (width 0.127))
    (fp_line (start 37.85 10) (end -3.15 10) (layer F.SilkS) (width 0.127))
    (fp_line (start -3.4 -5.25) (end 38.1 -5.25) (layer F.CrtYd) (width 0.05))
    (fp_line (start 38.1 10.25) (end -3.4 10.25) (layer F.CrtYd) (width 0.05))
    (fp_line (start -3.4 10.25) (end -3.4 -5.25) (layer F.CrtYd) (width 0.05))
    (fp_line (start 38.1 -5.25) (end 38.1 10.25) (layer F.CrtYd) (width 0.05))
    (fp_circle (center 0 -6) (end 0.1 -6) (layer F.SilkS) (width 0.2))
    (fp_circle (center 0 -6) (end 0.1 -6) (layer F.Fab) (width 0.2))
    (pad 8_B thru_hole circle (at 35 5) (size 1.95 1.95) (drill 1.3) (layers *.Cu *.Mask)
      (net 9 "Net-(J2-Pad6_A)"))
    (pad 7_B thru_hole circle (at 30 5) (size 1.95 1.95) (drill 1.3) (layers *.Cu *.Mask)
      (net 1 VCC))
    (pad 6_B thru_hole circle (at 25 5) (size 1.95 1.95) (drill 1.3) (layers *.Cu *.Mask)
      (net 9 "Net-(J2-Pad6_A)"))
    (pad 5_B thru_hole circle (at 20 5) (size 1.95 1.95) (drill 1.3) (layers *.Cu *.Mask)
      (net 1 VCC))
    (pad 4_B thru_hole circle (at 15 5) (size 1.95 1.95) (drill 1.3) (layers *.Cu *.Mask)
      (net 1 VCC))
    (pad 3_B thru_hole circle (at 10 5) (size 1.95 1.95) (drill 1.3) (layers *.Cu *.Mask)
      (net 11 "Net-(J2-Pad1_A)"))
    (pad 2_B thru_hole circle (at 5 5) (size 1.95 1.95) (drill 1.3) (layers *.Cu *.Mask)
      (net 1 VCC))
    (pad 1_B thru_hole rect (at 0 5) (size 1.95 1.95) (drill 1.3) (layers *.Cu *.Mask)
      (net 11 "Net-(J2-Pad1_A)"))
    (pad 8_A thru_hole circle (at 35 0) (size 1.95 1.95) (drill 1.3) (layers *.Cu *.Mask)
      (net 9 "Net-(J2-Pad6_A)"))
    (pad 7_A thru_hole circle (at 30 0) (size 1.95 1.95) (drill 1.3) (layers *.Cu *.Mask)
      (net 1 VCC))
    (pad 6_A thru_hole circle (at 25 0) (size 1.95 1.95) (drill 1.3) (layers *.Cu *.Mask)
      (net 9 "Net-(J2-Pad6_A)"))
    (pad 5_A thru_hole circle (at 20 0) (size 1.95 1.95) (drill 1.3) (layers *.Cu *.Mask)
      (net 1 VCC))
    (pad 4_A thru_hole circle (at 15 0) (size 1.95 1.95) (drill 1.3) (layers *.Cu *.Mask)
      (net 1 VCC))
    (pad 3_A thru_hole circle (at 10 0) (size 1.95 1.95) (drill 1.3) (layers *.Cu *.Mask)
      (net 11 "Net-(J2-Pad1_A)"))
    (pad 2_A thru_hole circle (at 5 0) (size 1.95 1.95) (drill 1.3) (layers *.Cu *.Mask)
      (net 1 VCC))
    (pad 1_A thru_hole rect (at 0 0) (size 1.95 1.95) (drill 1.3) (layers *.Cu *.Mask)
      (net 11 "Net-(J2-Pad1_A)"))
  )

  (module MountingHole:MountingHole_2.7mm_M2.5 (layer F.Cu) (tedit 56D1B4CB) (tstamp 6130EDB6)
    (at 75.4 25.654)
    (descr "Mounting Hole 2.7mm, no annular, M2.5")
    (tags "mounting hole 2.7mm no annular m2.5")
    (path /61310702)
    (attr virtual)
    (fp_text reference H4 (at 0 -3.7) (layer F.Fab)
      (effects (font (size 1 1) (thickness 0.15)))
    )
    (fp_text value MountingHole (at 0 3.7) (layer F.Fab) hide
      (effects (font (size 1 1) (thickness 0.15)))
    )
    (fp_circle (center 0 0) (end 2.95 0) (layer F.CrtYd) (width 0.05))
    (fp_circle (center 0 0) (end 2.7 0) (layer Cmts.User) (width 0.15))
    (fp_text user %R (at 0.3 0) (layer F.Fab)
      (effects (font (size 1 1) (thickness 0.15)))
    )
    (pad 1 np_thru_hole circle (at 0 0) (size 2.7 2.7) (drill 2.7) (layers *.Cu *.Mask))
  )

  (module MountingHole:MountingHole_2.7mm_M2.5 (layer F.Cu) (tedit 56D1B4CB) (tstamp 6130EDAE)
    (at 75.4 65.654)
    (descr "Mounting Hole 2.7mm, no annular, M2.5")
    (tags "mounting hole 2.7mm no annular m2.5")
    (path /61310345)
    (attr virtual)
    (fp_text reference H3 (at 0 -3.7) (layer F.Fab)
      (effects (font (size 1 1) (thickness 0.15)))
    )
    (fp_text value MountingHole (at 0 3.7) (layer F.Fab) hide
      (effects (font (size 1 1) (thickness 0.15)))
    )
    (fp_circle (center 0 0) (end 2.95 0) (layer F.CrtYd) (width 0.05))
    (fp_circle (center 0 0) (end 2.7 0) (layer Cmts.User) (width 0.15))
    (fp_text user %R (at 0.3 0) (layer F.Fab)
      (effects (font (size 1 1) (thickness 0.15)))
    )
    (pad 1 np_thru_hole circle (at 0 0) (size 2.7 2.7) (drill 2.7) (layers *.Cu *.Mask))
  )

  (module MountingHole:MountingHole_2.7mm_M2.5 (layer F.Cu) (tedit 56D1B4CB) (tstamp 6130FA4F)
    (at 25.4 65.654)
    (descr "Mounting Hole 2.7mm, no annular, M2.5")
    (tags "mounting hole 2.7mm no annular m2.5")
    (path /613101D6)
    (attr virtual)
    (fp_text reference H2 (at 0 -3.7) (layer F.Fab)
      (effects (font (size 1 1) (thickness 0.15)))
    )
    (fp_text value MountingHole (at 0 3.7) (layer F.Fab) hide
      (effects (font (size 1 1) (thickness 0.15)))
    )
    (fp_circle (center 0 0) (end 2.95 0) (layer F.CrtYd) (width 0.05))
    (fp_circle (center 0 0) (end 2.7 0) (layer Cmts.User) (width 0.15))
    (fp_text user %R (at 0.3 0) (layer F.Fab)
      (effects (font (size 1 1) (thickness 0.15)))
    )
    (pad 1 np_thru_hole circle (at 0 0) (size 2.7 2.7) (drill 2.7) (layers *.Cu *.Mask))
  )

  (module MountingHole:MountingHole_2.7mm_M2.5 (layer F.Cu) (tedit 56D1B4CB) (tstamp 6130ED9E)
    (at 25.4 25.654)
    (descr "Mounting Hole 2.7mm, no annular, M2.5")
    (tags "mounting hole 2.7mm no annular m2.5")
    (path /6130FC14)
    (attr virtual)
    (fp_text reference H1 (at 0 -3.7) (layer F.Fab)
      (effects (font (size 1 1) (thickness 0.15)))
    )
    (fp_text value MountingHole (at 0 3.7) (layer F.Fab) hide
      (effects (font (size 1 1) (thickness 0.15)))
    )
    (fp_circle (center 0 0) (end 2.95 0) (layer F.CrtYd) (width 0.05))
    (fp_circle (center 0 0) (end 2.7 0) (layer Cmts.User) (width 0.15))
    (fp_text user %R (at 0.3 0) (layer F.Fab)
      (effects (font (size 1 1) (thickness 0.15)))
    )
    (pad 1 np_thru_hole circle (at 0 0) (size 2.7 2.7) (drill 2.7) (layers *.Cu *.Mask))
  )

  (module Package_TO_SOT_THT:TO-220-3_Vertical (layer F.Cu) (tedit 5AC8BA0D) (tstamp 6130370F)
    (at 74.4 33.154 270)
    (descr "TO-220-3, Vertical, RM 2.54mm, see https://www.vishay.com/docs/66542/to-220-1.pdf")
    (tags "TO-220-3 Vertical RM 2.54mm")
    (path /61319328)
    (fp_text reference Q2 (at -1 -2.5 90) (layer F.SilkS)
      (effects (font (size 1 1) (thickness 0.15)))
    )
    (fp_text value IRLB8721PBF (at 2.54 2.5 90) (layer F.Fab) hide
      (effects (font (size 1 1) (thickness 0.15)))
    )
    (fp_line (start 7.79 -3.4) (end -2.71 -3.4) (layer F.CrtYd) (width 0.05))
    (fp_line (start 7.79 1.51) (end 7.79 -3.4) (layer F.CrtYd) (width 0.05))
    (fp_line (start -2.71 1.51) (end 7.79 1.51) (layer F.CrtYd) (width 0.05))
    (fp_line (start -2.71 -3.4) (end -2.71 1.51) (layer F.CrtYd) (width 0.05))
    (fp_line (start 4.391 -3.27) (end 4.391 -1.76) (layer F.SilkS) (width 0.12))
    (fp_line (start 0.69 -3.27) (end 0.69 -1.76) (layer F.SilkS) (width 0.12))
    (fp_line (start -2.58 -1.76) (end 7.66 -1.76) (layer F.SilkS) (width 0.12))
    (fp_line (start 7.66 -3.27) (end 7.66 1.371) (layer F.SilkS) (width 0.12))
    (fp_line (start -2.58 -3.27) (end -2.58 1.371) (layer F.SilkS) (width 0.12))
    (fp_line (start -2.58 1.371) (end 7.66 1.371) (layer F.SilkS) (width 0.12))
    (fp_line (start -2.58 -3.27) (end 7.66 -3.27) (layer F.SilkS) (width 0.12))
    (fp_line (start 4.39 -3.15) (end 4.39 -1.88) (layer F.Fab) (width 0.1))
    (fp_line (start 0.69 -3.15) (end 0.69 -1.88) (layer F.Fab) (width 0.1))
    (fp_line (start -2.46 -1.88) (end 7.54 -1.88) (layer F.Fab) (width 0.1))
    (fp_line (start 7.54 -3.15) (end -2.46 -3.15) (layer F.Fab) (width 0.1))
    (fp_line (start 7.54 1.25) (end 7.54 -3.15) (layer F.Fab) (width 0.1))
    (fp_line (start -2.46 1.25) (end 7.54 1.25) (layer F.Fab) (width 0.1))
    (fp_line (start -2.46 -3.15) (end -2.46 1.25) (layer F.Fab) (width 0.1))
    (fp_text user NPN (at 2.5 -2.5 90) (layer F.SilkS)
      (effects (font (size 1 1) (thickness 0.15)))
    )
    (pad 3 thru_hole oval (at 5.08 0 270) (size 1.905 2) (drill 1.1) (layers *.Cu *.Mask)
      (net 10 VCOM))
    (pad 2 thru_hole oval (at 2.54 0 270) (size 1.905 2) (drill 1.1) (layers *.Cu *.Mask)
      (net 9 "Net-(J2-Pad6_A)"))
    (pad 1 thru_hole rect (at 0 0 270) (size 1.905 2) (drill 1.1) (layers *.Cu *.Mask)
      (net 6 "Net-(Q2-Pad1)"))
    (model ${KISYS3DMOD}/Package_TO_SOT_THT.3dshapes/TO-220-3_Vertical.wrl
      (at (xyz 0 0 0))
      (scale (xyz 1 1 1))
      (rotate (xyz 0 0 0))
    )
  )

  (gr_text - (at 45.15 65.404 90) (layer F.SilkS) (tstamp 613FBC9F)
    (effects (font (size 3 3) (thickness 0.5)))
  )
  (gr_text + (at 31.65 65.404) (layer F.SilkS) (tstamp 613FBC49)
    (effects (font (size 3 3) (thickness 0.5)))
  )
  (gr_text Cool (at 74.9 29.404) (layer F.SilkS)
    (effects (font (size 1.5 1.5) (thickness 0.3)))
  )
  (gr_text Warm (at 25.9 29.404) (layer F.SilkS)
    (effects (font (size 1.5 1.5) (thickness 0.3)))
  )
  (gr_text + (at 62.9 24.404) (layer F.SilkS) (tstamp 613FBC49)
    (effects (font (size 3 3) (thickness 0.5)))
  )
  (gr_text + (at 53.15 24.404) (layer F.SilkS) (tstamp 613FBC49)
    (effects (font (size 3 3) (thickness 0.5)))
  )
  (gr_text + (at 47.9 24.404) (layer F.SilkS) (tstamp 613FBC49)
    (effects (font (size 3 3) (thickness 0.5)))
  )
  (gr_text + (at 37.9 24.404) (layer F.SilkS)
    (effects (font (size 3 3) (thickness 0.5)))
  )
  (gr_text - (at 67.9 24.154) (layer F.SilkS) (tstamp 613FBB98)
    (effects (font (size 3 3) (thickness 0.5)))
  )
  (gr_text - (at 57.65 24.404) (layer F.SilkS) (tstamp 613FBB98)
    (effects (font (size 3 3) (thickness 0.5)))
  )
  (gr_text - (at 42.65 24.404) (layer F.SilkS) (tstamp 613FBB98)
    (effects (font (size 3 3) (thickness 0.5)))
  )
  (gr_text - (at 32.65 24.404) (layer F.SilkS)
    (effects (font (size 3 3) (thickness 0.5)))
  )
  (gr_arc (start 75.4 25.654) (end 78.4 25.654) (angle -90) (layer Edge.Cuts) (width 0.05))
  (gr_arc (start 75.4 65.654) (end 75.4 68.654) (angle -90) (layer Edge.Cuts) (width 0.05))
  (gr_arc (start 25.4 65.654) (end 22.4 65.654) (angle -90) (layer Edge.Cuts) (width 0.05))
  (gr_arc (start 25.4 25.654) (end 25.4 22.654) (angle -90) (layer Edge.Cuts) (width 0.05))
  (gr_line (start 78.4 65.654) (end 78.4 25.654) (layer Edge.Cuts) (width 0.05))
  (gr_line (start 25.4 68.654) (end 75.4 68.654) (layer Edge.Cuts) (width 0.05))
  (gr_line (start 22.4 25.654) (end 22.4 65.654) (layer Edge.Cuts) (width 0.05))
  (gr_line (start 75.4 22.654) (end 25.4 22.654) (layer Edge.Cuts) (width 0.05))

  (segment (start 58.32 46.654) (end 62.4 46.654) (width 1) (layer F.Cu) (net 1))
  (segment (start 69.4 46.654) (end 69.9 47.154) (width 1) (layer F.Cu) (net 1))
  (segment (start 62.4 46.654) (end 69.4 46.654) (width 1) (layer F.Cu) (net 1))
  (segment (start 62.9 30.654) (end 62.9 35.654) (width 1) (layer F.Cu) (net 1))
  (segment (start 52.9 30.654) (end 52.9 35.654) (width 1) (layer F.Cu) (net 1))
  (segment (start 55.4 38.154) (end 60.4 38.154) (width 1) (layer F.Cu) (net 1))
  (segment (start 60.4 38.154) (end 62.9 35.654) (width 1) (layer F.Cu) (net 1))
  (segment (start 52.9 35.654) (end 55.4 38.154) (width 1) (layer F.Cu) (net 1))
  (segment (start 62.9 40.154) (end 62.9 35.654) (width 1) (layer F.Cu) (net 1))
  (segment (start 69.9 47.154) (end 62.9 40.154) (width 1) (layer F.Cu) (net 1))
  (segment (start 37.9 30.654) (end 37.9 35.654) (width 1) (layer F.Cu) (net 1))
  (segment (start 45.4 38.154) (end 47.9 35.654) (width 1) (layer F.Cu) (net 1))
  (segment (start 40.4 38.154) (end 45.4 38.154) (width 1) (layer F.Cu) (net 1))
  (segment (start 37.9 35.654) (end 40.4 38.154) (width 1) (layer F.Cu) (net 1))
  (segment (start 47.9 30.654) (end 47.9 35.654) (width 1) (layer F.Cu) (net 1))
  (segment (start 30.9 42.654) (end 37.9 35.654) (width 1) (layer F.Cu) (net 1))
  (segment (start 30.9 47.154) (end 30.9 42.654) (width 1) (layer F.Cu) (net 1))
  (segment (start 55.82 44.154) (end 58.32 46.654) (width 1) (layer F.Cu) (net 1))
  (segment (start 33.9 44.154) (end 55.82 44.154) (width 1) (layer F.Cu) (net 1))
  (segment (start 30.9 47.154) (end 33.9 44.154) (width 1) (layer F.Cu) (net 1))
  (segment (start 31.9 55.154) (end 31.9 59.154) (width 1) (layer F.Cu) (net 1))
  (segment (start 60.4 48.654) (end 60.4 57.154) (width 1) (layer F.Cu) (net 1))
  (segment (start 62.4 46.654) (end 60.4 48.654) (width 1) (layer F.Cu) (net 1))
  (segment (start 55.17 57.154) (end 53.17 59.154) (width 1) (layer F.Cu) (net 1))
  (segment (start 60.4 57.154) (end 55.17 57.154) (width 1) (layer F.Cu) (net 1))
  (segment (start 30.9 54.154) (end 31.9 55.154) (width 1) (layer F.Cu) (net 1))
  (segment (start 30.9 47.154) (end 30.9 54.154) (width 1) (layer F.Cu) (net 1))
  (segment (start 68.15 52.404) (end 62.4 46.654) (width 1) (layer F.Cu) (net 1))
  (segment (start 68.15 62.914) (end 68.15 52.404) (width 1) (layer F.Cu) (net 1))
  (segment (start 55.13 54.654) (end 56.9 54.654) (width 1) (layer F.Cu) (net 2))
  (segment (start 50.63 59.154) (end 55.13 54.654) (width 1) (layer F.Cu) (net 2))
  (segment (start 63.9 59.154) (end 55.71 59.154) (width 1) (layer F.Cu) (net 3))
  (segment (start 65.9 57.154) (end 63.9 59.154) (width 1) (layer F.Cu) (net 3))
  (segment (start 65.9 54.654) (end 65.9 57.154) (width 1) (layer F.Cu) (net 3))
  (segment (start 36.48 57.574) (end 36.4 57.654) (width 1) (layer F.Cu) (net 4))
  (segment (start 36.48 46.654) (end 36.48 57.574) (width 1) (layer F.Cu) (net 4))
  (segment (start 36.4 57.654) (end 36.4 62.654) (width 1) (layer F.Cu) (net 4))
  (segment (start 26.33137 33.114) (end 24.4 33.114) (width 1) (layer B.Cu) (net 5))
  (segment (start 46.74 53.52263) (end 26.33137 33.114) (width 1) (layer B.Cu) (net 5))
  (segment (start 46.74 54.654) (end 46.74 53.52263) (width 1) (layer B.Cu) (net 5))
  (segment (start 76.9 53.814) (end 76.06 54.654) (width 1) (layer F.Cu) (net 6))
  (segment (start 76.9 34.654) (end 76.9 53.814) (width 1) (layer F.Cu) (net 6))
  (segment (start 75.4 33.154) (end 76.9 34.654) (width 1) (layer F.Cu) (net 6))
  (segment (start 74.4 33.154) (end 75.4 33.154) (width 1) (layer F.Cu) (net 6))
  (segment (start 66.16 62.914) (end 65.61 62.914) (width 0.5) (layer F.Cu) (net 7))
  (segment (start 68.9 65.654) (end 66.16 62.914) (width 0.5) (layer F.Cu) (net 7))
  (segment (start 67.78 66.774) (end 68.9 65.654) (width 0.5) (layer F.Cu) (net 7))
  (segment (start 55.71 66.774) (end 67.78 66.774) (width 0.5) (layer F.Cu) (net 7))
  (segment (start 61.81 61.654) (end 55.75 61.654) (width 0.5) (layer F.Cu) (net 8))
  (segment (start 55.75 61.654) (end 50.63 66.774) (width 0.5) (layer F.Cu) (net 8))
  (segment (start 63.07 62.914) (end 61.81 61.654) (width 0.5) (layer F.Cu) (net 8))
  (segment (start 57.9 35.654) (end 57.9 30.654) (width 1) (layer F.Cu) (net 9))
  (segment (start 67.9 30.654) (end 67.9 35.654) (width 1) (layer F.Cu) (net 9))
  (segment (start 74.36 35.654) (end 74.4 35.694) (width 1) (layer F.Cu) (net 9))
  (segment (start 67.9 35.654) (end 74.36 35.654) (width 1) (layer F.Cu) (net 9))
  (segment (start 65.4 28.154) (end 67.9 30.654) (width 1) (layer F.Cu) (net 9))
  (segment (start 60.4 28.154) (end 65.4 28.154) (width 1) (layer F.Cu) (net 9))
  (segment (start 57.9 30.654) (end 60.4 28.154) (width 1) (layer F.Cu) (net 9))
  (segment (start 62.4 51.654) (end 62.4 57.154) (width 1) (layer B.Cu) (net 10))
  (segment (start 53.640002 66.774) (end 53.17 66.774) (width 1) (layer B.Cu) (net 10))
  (segment (start 62.4 57.154) (end 62.4 58.014002) (width 1) (layer B.Cu) (net 10))
  (segment (start 61.8 65.454) (end 64.34 65.454) (width 1) (layer B.Cu) (net 10))
  (segment (start 64.34 65.454) (end 66.88 65.454) (width 1) (layer B.Cu) (net 10))
  (segment (start 41.4 57.654) (end 41.4 62.654) (width 1) (layer B.Cu) (net 10))
  (segment (start 74.4 46.654) (end 74.9 47.154) (width 1) (layer B.Cu) (net 10))
  (segment (start 74.4 38.234) (end 74.4 46.654) (width 1) (layer B.Cu) (net 10))
  (segment (start 24.4 45.654) (end 25.9 47.154) (width 1) (layer B.Cu) (net 10))
  (segment (start 24.4 38.194) (end 24.4 45.654) (width 1) (layer B.Cu) (net 10))
  (segment (start 24.28 55.154) (end 24.28 59.154) (width 1) (layer B.Cu) (net 10))
  (segment (start 34.9 51.154) (end 41.4 57.654) (width 1) (layer B.Cu) (net 10))
  (segment (start 29.9 51.154) (end 34.9 51.154) (width 1) (layer B.Cu) (net 10))
  (segment (start 25.9 47.154) (end 29.9 51.154) (width 1) (layer B.Cu) (net 10))
  (segment (start 49.05 62.654) (end 41.4 62.654) (width 1) (layer B.Cu) (net 10))
  (segment (start 53.17 66.774) (end 49.05 62.654) (width 1) (layer B.Cu) (net 10))
  (segment (start 71.9 44.154) (end 56.9 44.154) (width 1) (layer B.Cu) (net 10))
  (segment (start 50.4 53.904) (end 41.65 62.654) (width 1) (layer B.Cu) (net 10))
  (segment (start 41.65 62.654) (end 41.4 62.654) (width 1) (layer B.Cu) (net 10))
  (segment (start 56.9 44.154) (end 50.4 50.654) (width 1) (layer B.Cu) (net 10))
  (segment (start 50.4 50.654) (end 50.4 53.904) (width 1) (layer B.Cu) (net 10))
  (segment (start 74.4 46.654) (end 71.9 44.154) (width 1) (layer B.Cu) (net 10))
  (segment (start 24.28 48.774) (end 25.9 47.154) (width 1) (layer B.Cu) (net 10))
  (segment (start 24.28 55.154) (end 24.28 48.774) (width 1) (layer B.Cu) (net 10))
  (segment (start 57.569999 65.323999) (end 56.330001 64.084001) (width 1) (layer B.Cu) (net 10))
  (segment (start 61.669999 65.323999) (end 57.569999 65.323999) (width 1) (layer B.Cu) (net 10))
  (segment (start 61.8 65.454) (end 61.669999 65.323999) (width 1) (layer B.Cu) (net 10))
  (segment (start 56.330001 64.084001) (end 53.640002 66.774) (width 1) (layer B.Cu) (net 10))
  (segment (start 62.4 58.014002) (end 56.330001 64.084001) (width 1) (layer B.Cu) (net 10))
  (segment (start 24.4 35.654) (end 32.9 35.654) (width 1) (layer F.Cu) (net 11))
  (segment (start 32.9 35.654) (end 32.9 30.654) (width 1) (layer F.Cu) (net 11))
  (segment (start 42.9 30.654) (end 42.9 35.654) (width 1) (layer F.Cu) (net 11))
  (segment (start 40.4 28.154) (end 42.9 30.654) (width 1) (layer F.Cu) (net 11))
  (segment (start 35.4 28.154) (end 40.4 28.154) (width 1) (layer F.Cu) (net 11))
  (segment (start 32.9 30.654) (end 35.4 28.154) (width 1) (layer F.Cu) (net 11))

)
